{
  "Entries": [
    {
      "RequestUri": "https://FakeHost.net/devices/bulkDevice1268817015?api-version=2020-03-13",
      "RequestMethod": "PUT",
      "RequestHeaders": {
        "Authorization": "Sanitized",
        "Content-Length": "35",
        "Content-Type": "application/json",
        "If-Match": "\u0022\u0022",
        "User-Agent": [
          "azsdk-net-Iot.Hub.Service/1.0.0-dev.20200728.1",
          "(.NET Core 4.6.29017.01; Microsoft Windows 10.0.18363 )"
        ],
        "x-ms-client-request-id": "4e87ffb8a8224df3f266f8f000801373",
        "x-ms-return-client-request-id": "true"
      },
      "RequestBody": {
        "deviceId": "bulkDevice1268817015"
      },
      "StatusCode": 200,
      "ResponseHeaders": {
        "Content-Length": "622",
        "Content-Type": "application/json; charset=utf-8",
        "Date": "Tue, 28 Jul 2020 22:18:40 GMT",
        "ETag": "\u0022ODY0NDcyMTEw\u0022",
        "Server": "Microsoft-HTTPAPI/2.0",
        "Vary": "Origin",
        "x-ms-request-id": "a556b5d9-582e-47a9-a7bf-6116bae028fa"
      },
      "ResponseBody": {
        "deviceId": "bulkDevice1268817015",
        "generationId": "637315715204581608",
        "etag": "ODY0NDcyMTEw",
        "connectionState": "Disconnected",
        "status": "enabled",
        "statusReason": null,
        "connectionStateUpdatedTime": "0001-01-01T00:00:00",
        "statusUpdatedTime": "0001-01-01T00:00:00",
        "lastActivityTime": "0001-01-01T00:00:00",
        "cloudToDeviceMessageCount": 0,
        "authentication": {
          "symmetricKey": {
            "primaryKey": "Oh8hu1\u002B43pw1hNMQw7Um8by7d8Caotk8KcnnsHLe0wg=",
            "secondaryKey": "TcgcZ7rRfSPU9mJlYSCYGBfx\u002BAh7OlPKrxpoXAFU7AI="
          },
          "x509Thumbprint": {
            "primaryThumbprint": null,
            "secondaryThumbprint": null
          },
          "type": "sas"
        },
        "capabilities": {
          "iotEdge": false
        },
        "parentScopes": []
      }
    },
    {
      "RequestUri": "https://FakeHost.net/devices?api-version=2020-03-13",
      "RequestMethod": "POST",
      "RequestHeaders": {
        "Authorization": "Sanitized",
        "Content-Length": "856",
        "Content-Type": "application/json",
        "User-Agent": [
          "azsdk-net-Iot.Hub.Service/1.0.0-dev.20200728.1",
          "(.NET Core 4.6.29017.01; Microsoft Windows 10.0.18363 )"
        ],
        "x-ms-client-request-id": "fbae4ac29a9183721e5a347b9744ddb6",
        "x-ms-return-client-request-id": "true"
      },
      "RequestBody": "[{\u0022id\u0022:\u0022bulkDevice1268817015\u0022,\u0022moduleId\u0022:\u0022bulkModule1222956618\u0022,\u0022importMode\u0022:\u0022create\u0022},{\u0022id\u0022:\u0022bulkDevice1268817015\u0022,\u0022moduleId\u0022:\u0022bulkModule1701849614\u0022,\u0022importMode\u0022:\u0022create\u0022},{\u0022id\u0022:\u0022bulkDevice1268817015\u0022,\u0022moduleId\u0022:\u0022bulkModule908290500\u0022,\u0022importMode\u0022:\u0022create\u0022},{\u0022id\u0022:\u0022bulkDevice1268817015\u0022,\u0022moduleId\u0022:\u0022bulkModule1741567953\u0022,\u0022importMode\u0022:\u0022create\u0022},{\u0022id\u0022:\u0022bulkDevice1268817015\u0022,\u0022moduleId\u0022:\u0022bulkModule213408065\u0022,\u0022importMode\u0022:\u0022create\u0022},{\u0022id\u0022:\u0022bulkDevice1268817015\u0022,\u0022moduleId\u0022:\u0022bulkModule1040845285\u0022,\u0022importMode\u0022:\u0022create\u0022},{\u0022id\u0022:\u0022bulkDevice1268817015\u0022,\u0022moduleId\u0022:\u0022bulkModule1812328158\u0022,\u0022importMode\u0022:\u0022create\u0022},{\u0022id\u0022:\u0022bulkDevice1268817015\u0022,\u0022moduleId\u0022:\u0022bulkModule14476997\u0022,\u0022importMode\u0022:\u0022create\u0022},{\u0022id\u0022:\u0022bulkDevice1268817015\u0022,\u0022moduleId\u0022:\u0022bulkModule1759023707\u0022,\u0022importMode\u0022:\u0022create\u0022},{\u0022id\u0022:\u0022bulkDevice1268817015\u0022,\u0022moduleId\u0022:\u0022bulkModule734755587\u0022,\u0022importMode\u0022:\u0022create\u0022}]",
      "StatusCode": 200,
      "ResponseHeaders": {
        "Content-Length": "47",
        "Content-Type": "application/json; charset=utf-8",
        "Date": "Tue, 28 Jul 2020 22:18:40 GMT",
        "Server": "Microsoft-HTTPAPI/2.0",
        "Vary": "Origin",
        "x-ms-request-id": "66590927-8e4b-404e-bfe2-83b6e96dccdf"
      },
      "ResponseBody": {
        "isSuccessful": true,
        "errors": [],
        "warnings": []
      }
    },
    {
      "RequestUri": "https://FakeHost.net/devices/query?api-version=2020-03-13",
      "RequestMethod": "POST",
      "RequestHeaders": {
        "Authorization": "Sanitized",
        "Content-Length": "41",
        "Content-Type": "application/json",
        "User-Agent": [
          "azsdk-net-Iot.Hub.Service/1.0.0-dev.20200728.1",
          "(.NET Core 4.6.29017.01; Microsoft Windows 10.0.18363 )"
        ],
        "x-ms-client-request-id": "9482e1095676d59ed63f39cc7f590e43",
        "x-ms-return-client-request-id": "true"
      },
      "RequestBody": {
        "query": "select * from devices.modules"
      },
      "StatusCode": 200,
      "ResponseHeaders": {
        "Content-Length": "7542",
        "Content-Type": "application/json; charset=utf-8",
        "Date": "Tue, 28 Jul 2020 22:18:41 GMT",
        "Server": "Microsoft-HTTPAPI/2.0",
        "Vary": "Origin",
        "x-ms-item-type": "Twin",
        "x-ms-request-id": "97f88a07-e969-4e2b-b180-7a21202ee320"
      },
      "ResponseBody": "[{\u0022deviceId\u0022:\u0022TwinLifecycleDevice2077976886\u0022,\u0022moduleId\u0022:\u0022TwinLifecycleModule1684953568\u0022,\u0022etag\u0022:\u0022AAAAAAAAAAI=\u0022,\u0022deviceEtag\u0022:\u0022NDYyNjU3MDAx\u0022,\u0022status\u0022:\u0022enabled\u0022,\u0022statusUpdateTime\u0022:\u00220001-01-01T00:00:00Z\u0022,\u0022connectionState\u0022:\u0022Disconnected\u0022,\u0022lastActivityTime\u0022:\u00220001-01-01T00:00:00Z\u0022,\u0022cloudToDeviceMessageCount\u0022:0,\u0022authenticationType\u0022:\u0022sas\u0022,\u0022x509Thumbprint\u0022:{\u0022primaryThumbprint\u0022:null,\u0022secondaryThumbprint\u0022:null},\u0022version\u0022:3,\u0022properties\u0022:{\u0022desired\u0022:{\u0022username\u0022:\u0022userA\u0022,\u0022$metadata\u0022:{\u0022$lastUpdated\u0022:\u00222020-07-28T22:18:30.9861283Z\u0022,\u0022$lastUpdatedVersion\u0022:2,\u0022username\u0022:{\u0022$lastUpdated\u0022:\u00222020-07-28T22:18:30.9861283Z\u0022,\u0022$lastUpdatedVersion\u0022:2}},\u0022$version\u0022:2},\u0022reported\u0022:{\u0022$metadata\u0022:{\u0022$lastUpdated\u0022:\u00220001-01-01T00:00:00Z\u0022},\u0022$version\u0022:1}},\u0022capabilities\u0022:{\u0022iotEdge\u0022:false}},{\u0022deviceId\u0022:\u0022IdentityLifecycleDevice733449647\u0022,\u0022moduleId\u0022:\u0022IdentityLifecycleModule258468012\u0022,\u0022etag\u0022:\u0022AAAAAAAAAAE=\u0022,\u0022deviceEtag\u0022:\u0022NTg0MzIwMzg1\u0022,\u0022status\u0022:\u0022enabled\u0022,\u0022statusUpdateTime\u0022:\u00220001-01-01T00:00:00Z\u0022,\u0022connectionState\u0022:\u0022Disconnected\u0022,\u0022lastActivityTime\u0022:\u00220001-01-01T00:00:00Z\u0022,\u0022cloudToDeviceMessageCount\u0022:0,\u0022authenticationType\u0022:\u0022sas\u0022,\u0022x509Thumbprint\u0022:{\u0022primaryThumbprint\u0022:null,\u0022secondaryThumbprint\u0022:null},\u0022version\u0022:2,\u0022properties\u0022:{\u0022desired\u0022:{\u0022$metadata\u0022:{\u0022$lastUpdated\u0022:\u00220001-01-01T00:00:00Z\u0022},\u0022$version\u0022:1},\u0022reported\u0022:{\u0022$metadata\u0022:{\u0022$lastUpdated\u0022:\u00220001-01-01T00:00:00Z\u0022},\u0022$version\u0022:1}},\u0022capabilities\u0022:{\u0022iotEdge\u0022:false}},{\u0022deviceId\u0022:\u0022bulkDeviceUpdate575179519\u0022,\u0022moduleId\u0022:\u0022bulkModuleUpdate622964292\u0022,\u0022etag\u0022:\u0022AAAAAAAAAAE=\u0022,\u0022deviceEtag\u0022:\u0022MjU3MzM3NTI=\u0022,\u0022status\u0022:\u0022enabled\u0022,\u0022statusUpdateTime\u0022:\u00220001-01-01T00:00:00Z\u0022,\u0022connectionState\u0022:\u0022Disconnected\u0022,\u0022lastActivityTime\u0022:\u00220001-01-01T00:00:00Z\u0022,\u0022cloudToDeviceMessageCount\u0022:0,\u0022authenticationType\u0022:\u0022selfSigned\u0022,\u0022x509Thumbprint\u0022:{\u0022primaryThumbprint\u0022:null,\u0022secondaryThumbprint\u0022:null},\u0022version\u0022:2,\u0022properties\u0022:{\u0022desired\u0022:{\u0022$metadata\u0022:{\u0022$lastUpdated\u0022:\u00220001-01-01T00:00:00Z\u0022},\u0022$version\u0022:1},\u0022reported\u0022:{\u0022$metadata\u0022:{\u0022$lastUpdated\u0022:\u00220001-01-01T00:00:00Z\u0022},\u0022$version\u0022:1}},\u0022capabilities\u0022:{\u0022iotEdge\u0022:false}},{\u0022deviceId\u0022:\u0022bulkDeviceUpdate575179519\u0022,\u0022moduleId\u0022:\u0022bulkModuleUpdate1203621383\u0022,\u0022etag\u0022:\u0022AAAAAAAAAAE=\u0022,\u0022deviceEtag\u0022:\u0022OTkxNzk4NzA=\u0022,\u0022status\u0022:\u0022enabled\u0022,\u0022statusUpdateTime\u0022:\u00220001-01-01T00:00:00Z\u0022,\u0022connectionState\u0022:\u0022Disconnected\u0022,\u0022lastActivityTime\u0022:\u00220001-01-01T00:00:00Z\u0022,\u0022cloudToDeviceMessageCount\u0022:0,\u0022authenticationType\u0022:\u0022selfSigned\u0022,\u0022x509Thumbprint\u0022:{\u0022primaryThumbprint\u0022:null,\u0022secondaryThumbprint\u0022:null},\u0022version\u0022:2,\u0022properties\u0022:{\u0022desired\u0022:{\u0022$metadata\u0022:{\u0022$lastUpdated\u0022:\u00220001-01-01T00:00:00Z\u0022},\u0022$version\u0022:1},\u0022reported\u0022:{\u0022$metadata\u0022:{\u0022$lastUpdated\u0022:\u00220001-01-01T00:00:00Z\u0022},\u0022$version\u0022:1}},\u0022capabilities\u0022:{\u0022iotEdge\u0022:false}},{\u0022deviceId\u0022:\u0022bulkDeviceUpdate575179519\u0022,\u0022moduleId\u0022:\u0022bulkModuleUpdate29983599\u0022,\u0022etag\u0022:\u0022AAAAAAAAAAE=\u0022,\u0022deviceEtag\u0022:\u0022NDQzMzc2Nzcy\u0022,\u0022status\u0022:\u0022enabled\u0022,\u0022statusUpdateTime\u0022:\u00220001-01-01T00:00:00Z\u0022,\u0022connectionState\u0022:\u0022Disconnected\u0022,\u0022lastActivityTime\u0022:\u00220001-01-01T00:00:00Z\u0022,\u0022cloudToDeviceMessageCount\u0022:0,\u0022authenticationType\u0022:\u0022selfSigned\u0022,\u0022x509Thumbprint\u0022:{\u0022primaryThumbprint\u0022:null,\u0022secondaryThumbprint\u0022:null},\u0022version\u0022:2,\u0022properties\u0022:{\u0022desired\u0022:{\u0022$metadata\u0022:{\u0022$lastUpdated\u0022:\u00220001-01-01T00:00:00Z\u0022},\u0022$version\u0022:1},\u0022reported\u0022:{\u0022$metadata\u0022:{\u0022$lastUpdated\u0022:\u00220001-01-01T00:00:00Z\u0022},\u0022$version\u0022:1}},\u0022capabilities\u0022:{\u0022iotEdge\u0022:false}},{\u0022deviceId\u0022:\u0022bulkDeviceUpdate575179519\u0022,\u0022moduleId\u0022:\u0022bulkModuleUpdate1565679761\u0022,\u0022etag\u0022:\u0022AAAAAAAAAAE=\u0022,\u0022deviceEtag\u0022:\u0022Mjc0NzgxNzU5\u0022,\u0022status\u0022:\u0022enabled\u0022,\u0022statusUpdateTime\u0022:\u00220001-01-01T00:00:00Z\u0022,\u0022connectionState\u0022:\u0022Disconnected\u0022,\u0022lastActivityTime\u0022:\u00220001-01-01T00:00:00Z\u0022,\u0022cloudToDeviceMessageCount\u0022:0,\u0022authenticationType\u0022:\u0022selfSigned\u0022,\u0022x509Thumbprint\u0022:{\u0022primaryThumbprint\u0022:null,\u0022secondaryThumbprint\u0022:null},\u0022version\u0022:2,\u0022properties\u0022:{\u0022desired\u0022:{\u0022$metadata\u0022:{\u0022$lastUpdated\u0022:\u00220001-01-01T00:00:00Z\u0022},\u0022$version\u0022:1},\u0022reported\u0022:{\u0022$metadata\u0022:{\u0022$lastUpdated\u0022:\u00220001-01-01T00:00:00Z\u0022},\u0022$version\u0022:1}},\u0022capabilities\u0022:{\u0022iotEdge\u0022:false}},{\u0022deviceId\u0022:\u0022bulkDeviceUpdate575179519\u0022,\u0022moduleId\u0022:\u0022bulkModuleUpdate1246302565\u0022,\u0022etag\u0022:\u0022AAAAAAAAAAE=\u0022,\u0022deviceEtag\u0022:\u0022MTA2MTg2NzQ3\u0022,\u0022status\u0022:\u0022enabled\u0022,\u0022statusUpdateTime\u0022:\u00220001-01-01T00:00:00Z\u0022,\u0022connectionState\u0022:\u0022Disconnected\u0022,\u0022lastActivityTime\u0022:\u00220001-01-01T00:00:00Z\u0022,\u0022cloudToDeviceMessageCount\u0022:0,\u0022authenticationType\u0022:\u0022selfSigned\u0022,\u0022x509Thumbprint\u0022:{\u0022primaryThumbprint\u0022:null,\u0022secondaryThumbprint\u0022:null},\u0022version\u0022:2,\u0022properties\u0022:{\u0022desired\u0022:{\u0022$metadata\u0022:{\u0022$lastUpdated\u0022:\u00220001-01-01T00:00:00Z\u0022},\u0022$version\u0022:1},\u0022reported\u0022:{\u0022$metadata\u0022:{\u0022$lastUpdated\u0022:\u00220001-01-01T00:00:00Z\u0022},\u0022$version\u0022:1}},\u0022capabilities\u0022:{\u0022iotEdge\u0022:false}},{\u0022deviceId\u0022:\u0022bulkDeviceUpdate575179519\u0022,\u0022moduleId\u0022:\u0022bulkModuleUpdate1719767442\u0022,\u0022etag\u0022:\u0022AAAAAAAAAAE=\u0022,\u0022deviceEtag\u0022:\u0022NDUwMzgzNjQ4\u0022,\u0022status\u0022:\u0022enabled\u0022,\u0022statusUpdateTime\u0022:\u00220001-01-01T00:00:00Z\u0022,\u0022connectionState\u0022:\u0022Disconnected\u0022,\u0022lastActivityTime\u0022:\u00220001-01-01T00:00:00Z\u0022,\u0022cloudToDeviceMessageCount\u0022:0,\u0022authenticationType\u0022:\u0022selfSigned\u0022,\u0022x509Thumbprint\u0022:{\u0022primaryThumbprint\u0022:null,\u0022secondaryThumbprint\u0022:null},\u0022version\u0022:2,\u0022properties\u0022:{\u0022desired\u0022:{\u0022$metadata\u0022:{\u0022$lastUpdated\u0022:\u00220001-01-01T00:00:00Z\u0022},\u0022$version\u0022:1},\u0022reported\u0022:{\u0022$metadata\u0022:{\u0022$lastUpdated\u0022:\u00220001-01-01T00:00:00Z\u0022},\u0022$version\u0022:1}},\u0022capabilities\u0022:{\u0022iotEdge\u0022:false}},{\u0022deviceId\u0022:\u0022bulkDeviceUpdate575179519\u0022,\u0022moduleId\u0022:\u0022bulkModuleUpdate1752526114\u0022,\u0022etag\u0022:\u0022AAAAAAAAAAE=\u0022,\u0022deviceEtag\u0022:\u0022NjY3MDUyNjAw\u0022,\u0022status\u0022:\u0022enabled\u0022,\u0022statusUpdateTime\u0022:\u00220001-01-01T00:00:00Z\u0022,\u0022connectionState\u0022:\u0022Disconnected\u0022,\u0022lastActivityTime\u0022:\u00220001-01-01T00:00:00Z\u0022,\u0022cloudToDeviceMessageCount\u0022:0,\u0022authenticationType\u0022:\u0022selfSigned\u0022,\u0022x509Thumbprint\u0022:{\u0022primaryThumbprint\u0022:null,\u0022secondaryThumbprint\u0022:null},\u0022version\u0022:2,\u0022properties\u0022:{\u0022desired\u0022:{\u0022$metadata\u0022:{\u0022$lastUpdated\u0022:\u00220001-01-01T00:00:00Z\u0022},\u0022$version\u0022:1},\u0022reported\u0022:{\u0022$metadata\u0022:{\u0022$lastUpdated\u0022:\u00220001-01-01T00:00:00Z\u0022},\u0022$version\u0022:1}},\u0022capabilities\u0022:{\u0022iotEdge\u0022:false}},{\u0022deviceId\u0022:\u0022bulkDeviceUpdate575179519\u0022,\u0022moduleId\u0022:\u0022bulkModuleUpdate1656826355\u0022,\u0022etag\u0022:\u0022AAAAAAAAAAE=\u0022,\u0022deviceEtag\u0022:\u0022Mjg3NDAzOTg=\u0022,\u0022status\u0022:\u0022enabled\u0022,\u0022statusUpdateTime\u0022:\u00220001-01-01T00:00:00Z\u0022,\u0022connectionState\u0022:\u0022Disconnected\u0022,\u0022lastActivityTime\u0022:\u00220001-01-01T00:00:00Z\u0022,\u0022cloudToDeviceMessageCount\u0022:0,\u0022authenticationType\u0022:\u0022selfSigned\u0022,\u0022x509Thumbprint\u0022:{\u0022primaryThumbprint\u0022:null,\u0022secondaryThumbprint\u0022:null},\u0022version\u0022:2,\u0022properties\u0022:{\u0022desired\u0022:{\u0022$metadata\u0022:{\u0022$lastUpdated\u0022:\u00220001-01-01T00:00:00Z\u0022},\u0022$version\u0022:1},\u0022reported\u0022:{\u0022$metadata\u0022:{\u0022$lastUpdated\u0022:\u00220001-01-01T00:00:00Z\u0022},\u0022$version\u0022:1}},\u0022capabilities\u0022:{\u0022iotEdge\u0022:false}},{\u0022deviceId\u0022:\u0022bulkDeviceUpdate575179519\u0022,\u0022moduleId\u0022:\u0022bulkModuleUpdate1649967708\u0022,\u0022etag\u0022:\u0022AAAAAAAAAAE=\u0022,\u0022deviceEtag\u0022:\u0022MzcyOTM3Mjk5\u0022,\u0022status\u0022:\u0022enabled\u0022,\u0022statusUpdateTime\u0022:\u00220001-01-01T00:00:00Z\u0022,\u0022connectionState\u0022:\u0022Disconnected\u0022,\u0022lastActivityTime\u0022:\u00220001-01-01T00:00:00Z\u0022,\u0022cloudToDeviceMessageCount\u0022:0,\u0022authenticationType\u0022:\u0022selfSigned\u0022,\u0022x509Thumbprint\u0022:{\u0022primaryThumbprint\u0022:null,\u0022secondaryThumbprint\u0022:null},\u0022version\u0022:2,\u0022properties\u0022:{\u0022desired\u0022:{\u0022$metadata\u0022:{\u0022$lastUpdated\u0022:\u00220001-01-01T00:00:00Z\u0022},\u0022$version\u0022:1},\u0022reported\u0022:{\u0022$metadata\u0022:{\u0022$lastUpdated\u0022:\u00220001-01-01T00:00:00Z\u0022},\u0022$version\u0022:1}},\u0022capabilities\u0022:{\u0022iotEdge\u0022:false}},{\u0022deviceId\u0022:\u0022bulkDeviceUpdate575179519\u0022,\u0022moduleId\u0022:\u0022bulkModuleUpdate1867847393\u0022,\u0022etag\u0022:\u0022AAAAAAAAAAE=\u0022,\u0022deviceEtag\u0022:\u0022MjA0MzQyMjg3\u0022,\u0022status\u0022:\u0022enabled\u0022,\u0022statusUpdateTime\u0022:\u00220001-01-01T00:00:00Z\u0022,\u0022connectionState\u0022:\u0022Disconnected\u0022,\u0022lastActivityTime\u0022:\u00220001-01-01T00:00:00Z\u0022,\u0022cloudToDeviceMessageCount\u0022:0,\u0022authenticationType\u0022:\u0022selfSigned\u0022,\u0022x509Thumbprint\u0022:{\u0022primaryThumbprint\u0022:null,\u0022secondaryThumbprint\u0022:null},\u0022version\u0022:2,\u0022properties\u0022:{\u0022desired\u0022:{\u0022$metadata\u0022:{\u0022$lastUpdated\u0022:\u00220001-01-01T00:00:00Z\u0022},\u0022$version\u0022:1},\u0022reported\u0022:{\u0022$metadata\u0022:{\u0022$lastUpdated\u0022:\u00220001-01-01T00:00:00Z\u0022},\u0022$version\u0022:1}},\u0022capabilities\u0022:{\u0022iotEdge\u0022:false}}]"
    },
    {
      "RequestUri": "https://FakeHost.net/devices/query?api-version=2020-03-13",
      "RequestMethod": "POST",
      "RequestHeaders": {
        "Authorization": "Sanitized",
        "Content-Length": "41",
        "Content-Type": "application/json",
        "User-Agent": [
          "azsdk-net-Iot.Hub.Service/1.0.0-dev.20200728.1",
          "(.NET Core 4.6.29017.01; Microsoft Windows 10.0.18363 )"
        ],
        "x-ms-client-request-id": "9423cdbe5f161d718c032fc87377b5ae",
        "x-ms-return-client-request-id": "true"
      },
      "RequestBody": {
        "query": "select * from devices.modules"
      },
      "StatusCode": 200,
      "ResponseHeaders": {
        "Content-Length": "14171",
        "Content-Type": "application/json; charset=utf-8",
        "Date": "Tue, 28 Jul 2020 22:18:43 GMT",
        "Server": "Microsoft-HTTPAPI/2.0",
        "Vary": "Origin",
        "x-ms-item-type": "Twin",
        "x-ms-request-id": "ff614d21-3aab-4809-8684-1c0aeba9ac2d"
      },
      "ResponseBody": "[{\u0022deviceId\u0022:\u0022bulkDevice1268817015\u0022,\u0022moduleId\u0022:\u0022bulkModule1222956618\u0022,\u0022etag\u0022:\u0022AAAAAAAAAAE=\u0022,\u0022deviceEtag\u0022:\u0022Njk1ODc3MDk3\u0022,\u0022status\u0022:\u0022enabled\u0022,\u0022statusUpdateTime\u0022:\u00220001-01-01T00:00:00Z\u0022,\u0022connectionState\u0022:\u0022Disconnected\u0022,\u0022lastActivityTime\u0022:\u00220001-01-01T00:00:00Z\u0022,\u0022cloudToDeviceMessageCount\u0022:0,\u0022authenticationType\u0022:\u0022sas\u0022,\u0022x509Thumbprint\u0022:{\u0022primaryThumbprint\u0022:null,\u0022secondaryThumbprint\u0022:null},\u0022version\u0022:2,\u0022properties\u0022:{\u0022desired\u0022:{\u0022$metadata\u0022:{\u0022$lastUpdated\u0022:\u00222020-07-28T22:18:41.0675302Z\u0022,\u0022$lastUpdatedVersion\u0022:1},\u0022$version\u0022:1},\u0022reported\u0022:{\u0022$metadata\u0022:{\u0022$lastUpdated\u0022:\u00222020-07-28T22:18:41.0675302Z\u0022,\u0022$lastUpdatedVersion\u0022:1},\u0022$version\u0022:1}},\u0022capabilities\u0022:{\u0022iotEdge\u0022:false}},{\u0022deviceId\u0022:\u0022bulkDevice1268817015\u0022,\u0022moduleId\u0022:\u0022bulkModule1701849614\u0022,\u0022etag\u0022:\u0022AAAAAAAAAAE=\u0022,\u0022deviceEtag\u0022:\u0022OTk5MDkwOTkz\u0022,\u0022status\u0022:\u0022enabled\u0022,\u0022statusUpdateTime\u0022:\u00220001-01-01T00:00:00Z\u0022,\u0022connectionState\u0022:\u0022Disconnected\u0022,\u0022lastActivityTime\u0022:\u00220001-01-01T00:00:00Z\u0022,\u0022cloudToDeviceMessageCount\u0022:0,\u0022authenticationType\u0022:\u0022sas\u0022,\u0022x509Thumbprint\u0022:{\u0022primaryThumbprint\u0022:null,\u0022secondaryThumbprint\u0022:null},\u0022version\u0022:2,\u0022properties\u0022:{\u0022desired\u0022:{\u0022$metadata\u0022:{\u0022$lastUpdated\u0022:\u00222020-07-28T22:18:41.0987795Z\u0022,\u0022$lastUpdatedVersion\u0022:1},\u0022$version\u0022:1},\u0022reported\u0022:{\u0022$metadata\u0022:{\u0022$lastUpdated\u0022:\u00222020-07-28T22:18:41.0987795Z\u0022,\u0022$lastUpdatedVersion\u0022:1},\u0022$version\u0022:1}},\u0022capabilities\u0022:{\u0022iotEdge\u0022:false}},{\u0022deviceId\u0022:\u0022bulkDevice1268817015\u0022,\u0022moduleId\u0022:\u0022bulkModule908290500\u0022,\u0022etag\u0022:\u0022AAAAAAAAAAE=\u0022,\u0022deviceEtag\u0022:\u0022OTk5MDkwOTkz\u0022,\u0022status\u0022:\u0022enabled\u0022,\u0022statusUpdateTime\u0022:\u00220001-01-01T00:00:00Z\u0022,\u0022connectionState\u0022:\u0022Disconnected\u0022,\u0022lastActivityTime\u0022:\u00220001-01-01T00:00:00Z\u0022,\u0022cloudToDeviceMessageCount\u0022:0,\u0022authenticationType\u0022:\u0022sas\u0022,\u0022x509Thumbprint\u0022:{\u0022primaryThumbprint\u0022:null,\u0022secondaryThumbprint\u0022:null},\u0022version\u0022:2,\u0022properties\u0022:{\u0022desired\u0022:{\u0022$metadata\u0022:{\u0022$lastUpdated\u0022:\u00222020-07-28T22:18:41.0987795Z\u0022,\u0022$lastUpdatedVersion\u0022:1},\u0022$version\u0022:1},\u0022reported\u0022:{\u0022$metadata\u0022:{\u0022$lastUpdated\u0022:\u00222020-07-28T22:18:41.0987795Z\u0022,\u0022$lastUpdatedVersion\u0022:1},\u0022$version\u0022:1}},\u0022capabilities\u0022:{\u0022iotEdge\u0022:false}},{\u0022deviceId\u0022:\u0022bulkDevice1268817015\u0022,\u0022moduleId\u0022:\u0022bulkModule1741567953\u0022,\u0022etag\u0022:\u0022AAAAAAAAAAE=\u0022,\u0022deviceEtag\u0022:\u0022MTAxMDM1MTE1\u0022,\u0022status\u0022:\u0022enabled\u0022,\u0022statusUpdateTime\u0022:\u00220001-01-01T00:00:00Z\u0022,\u0022connectionState\u0022:\u0022Disconnected\u0022,\u0022lastActivityTime\u0022:\u00220001-01-01T00:00:00Z\u0022,\u0022cloudToDeviceMessageCount\u0022:0,\u0022authenticationType\u0022:\u0022sas\u0022,\u0022x509Thumbprint\u0022:{\u0022primaryThumbprint\u0022:null,\u0022secondaryThumbprint\u0022:null},\u0022version\u0022:2,\u0022properties\u0022:{\u0022desired\u0022:{\u0022$metadata\u0022:{\u0022$lastUpdated\u0022:\u00222020-07-28T22:18:41.1144069Z\u0022,\u0022$lastUpdatedVersion\u0022:1},\u0022$version\u0022:1},\u0022reported\u0022:{\u0022$metadata\u0022:{\u0022$lastUpdated\u0022:\u00222020-07-28T22:18:41.1144069Z\u0022,\u0022$lastUpdatedVersion\u0022:1},\u0022$version\u0022:1}},\u0022capabilities\u0022:{\u0022iotEdge\u0022:false}},{\u0022deviceId\u0022:\u0022bulkDevice1268817015\u0022,\u0022moduleId\u0022:\u0022bulkModule213408065\u0022,\u0022etag\u0022:\u0022AAAAAAAAAAE=\u0022,\u0022deviceEtag\u0022:\u0022Nzg5NTEyOTc0\u0022,\u0022status\u0022:\u0022enabled\u0022,\u0022statusUpdateTime\u0022:\u00220001-01-01T00:00:00Z\u0022,\u0022connectionState\u0022:\u0022Disconnected\u0022,\u0022lastActivityTime\u0022:\u00220001-01-01T00:00:00Z\u0022,\u0022cloudToDeviceMessageCount\u0022:0,\u0022authenticationType\u0022:\u0022sas\u0022,\u0022x509Thumbprint\u0022:{\u0022primaryThumbprint\u0022:null,\u0022secondaryThumbprint\u0022:null},\u0022version\u0022:2,\u0022properties\u0022:{\u0022desired\u0022:{\u0022$metadata\u0022:{\u0022$lastUpdated\u0022:\u00222020-07-28T22:18:41.1300306Z\u0022,\u0022$lastUpdatedVersion\u0022:1},\u0022$version\u0022:1},\u0022reported\u0022:{\u0022$metadata\u0022:{\u0022$lastUpdated\u0022:\u00222020-07-28T22:18:41.1300306Z\u0022,\u0022$lastUpdatedVersion\u0022:1},\u0022$version\u0022:1}},\u0022capabilities\u0022:{\u0022iotEdge\u0022:false}},{\u0022deviceId\u0022:\u0022bulkDevice1268817015\u0022,\u0022moduleId\u0022:\u0022bulkModule1040845285\u0022,\u0022etag\u0022:\u0022AAAAAAAAAAE=\u0022,\u0022deviceEtag\u0022:\u0022OTY1MTk4OTIw\u0022,\u0022status\u0022:\u0022enabled\u0022,\u0022statusUpdateTime\u0022:\u00220001-01-01T00:00:00Z\u0022,\u0022connectionState\u0022:\u0022Disconnected\u0022,\u0022lastActivityTime\u0022:\u00220001-01-01T00:00:00Z\u0022,\u0022cloudToDeviceMessageCount\u0022:0,\u0022authenticationType\u0022:\u0022sas\u0022,\u0022x509Thumbprint\u0022:{\u0022primaryThumbprint\u0022:null,\u0022secondaryThumbprint\u0022:null},\u0022version\u0022:2,\u0022properties\u0022:{\u0022desired\u0022:{\u0022$metadata\u0022:{\u0022$lastUpdated\u0022:\u00222020-07-28T22:18:41.1457366Z\u0022,\u0022$lastUpdatedVersion\u0022:1},\u0022$version\u0022:1},\u0022reported\u0022:{\u0022$metadata\u0022:{\u0022$lastUpdated\u0022:\u00222020-07-28T22:18:41.1457366Z\u0022,\u0022$lastUpdatedVersion\u0022:1},\u0022$version\u0022:1}},\u0022capabilities\u0022:{\u0022iotEdge\u0022:false}},{\u0022deviceId\u0022:\u0022bulkDevice1268817015\u0022,\u0022moduleId\u0022:\u0022bulkModule1812328158\u0022,\u0022etag\u0022:\u0022AAAAAAAAAAE=\u0022,\u0022deviceEtag\u0022:\u0022NTc5OTM0OTU2\u0022,\u0022status\u0022:\u0022enabled\u0022,\u0022statusUpdateTime\u0022:\u00220001-01-01T00:00:00Z\u0022,\u0022connectionState\u0022:\u0022Disconnected\u0022,\u0022lastActivityTime\u0022:\u00220001-01-01T00:00:00Z\u0022,\u0022cloudToDeviceMessageCount\u0022:0,\u0022authenticationType\u0022:\u0022sas\u0022,\u0022x509Thumbprint\u0022:{\u0022primaryThumbprint\u0022:null,\u0022secondaryThumbprint\u0022:null},\u0022version\u0022:2,\u0022properties\u0022:{\u0022desired\u0022:{\u0022$metadata\u0022:{\u0022$lastUpdated\u0022:\u00222020-07-28T22:18:41.1612828Z\u0022,\u0022$lastUpdatedVersion\u0022:1},\u0022$version\u0022:1},\u0022reported\u0022:{\u0022$metadata\u0022:{\u0022$lastUpdated\u0022:\u00222020-07-28T22:18:41.1612828Z\u0022,\u0022$lastUpdatedVersion\u0022:1},\u0022$version\u0022:1}},\u0022capabilities\u0022:{\u0022iotEdge\u0022:false}},{\u0022deviceId\u0022:\u0022bulkDevice1268817015\u0022,\u0022moduleId\u0022:\u0022bulkModule14476997\u0022,\u0022etag\u0022:\u0022AAAAAAAAAAE=\u0022,\u0022deviceEtag\u0022:\u0022MTk0NjcwOTky\u0022,\u0022status\u0022:\u0022enabled\u0022,\u0022statusUpdateTime\u0022:\u00220001-01-01T00:00:00Z\u0022,\u0022connectionState\u0022:\u0022Disconnected\u0022,\u0022lastActivityTime\u0022:\u00220001-01-01T00:00:00Z\u0022,\u0022cloudToDeviceMessageCount\u0022:0,\u0022authenticationType\u0022:\u0022sas\u0022,\u0022x509Thumbprint\u0022:{\u0022primaryThumbprint\u0022:null,\u0022secondaryThumbprint\u0022:null},\u0022version\u0022:2,\u0022properties\u0022:{\u0022desired\u0022:{\u0022$metadata\u0022:{\u0022$lastUpdated\u0022:\u00222020-07-28T22:18:41.1769336Z\u0022,\u0022$lastUpdatedVersion\u0022:1},\u0022$version\u0022:1},\u0022reported\u0022:{\u0022$metadata\u0022:{\u0022$lastUpdated\u0022:\u00222020-07-28T22:18:41.1769336Z\u0022,\u0022$lastUpdatedVersion\u0022:1},\u0022$version\u0022:1}},\u0022capabilities\u0022:{\u0022iotEdge\u0022:false}},{\u0022deviceId\u0022:\u0022bulkDevice1268817015\u0022,\u0022moduleId\u0022:\u0022bulkModule1759023707\u0022,\u0022etag\u0022:\u0022AAAAAAAAAAE=\u0022,\u0022deviceEtag\u0022:\u0022MzcwMzU2OTM3\u0022,\u0022status\u0022:\u0022enabled\u0022,\u0022statusUpdateTime\u0022:\u00220001-01-01T00:00:00Z\u0022,\u0022connectionState\u0022:\u0022Disconnected\u0022,\u0022lastActivityTime\u0022:\u00220001-01-01T00:00:00Z\u0022,\u0022cloudToDeviceMessageCount\u0022:0,\u0022authenticationType\u0022:\u0022sas\u0022,\u0022x509Thumbprint\u0022:{\u0022primaryThumbprint\u0022:null,\u0022secondaryThumbprint\u0022:null},\u0022version\u0022:2,\u0022properties\u0022:{\u0022desired\u0022:{\u0022$metadata\u0022:{\u0022$lastUpdated\u0022:\u00222020-07-28T22:18:41.1925537Z\u0022,\u0022$lastUpdatedVersion\u0022:1},\u0022$version\u0022:1},\u0022reported\u0022:{\u0022$metadata\u0022:{\u0022$lastUpdated\u0022:\u00222020-07-28T22:18:41.1925537Z\u0022,\u0022$lastUpdatedVersion\u0022:1},\u0022$version\u0022:1}},\u0022capabilities\u0022:{\u0022iotEdge\u0022:false}},{\u0022deviceId\u0022:\u0022bulkDevice1268817015\u0022,\u0022moduleId\u0022:\u0022bulkModule734755587\u0022,\u0022etag\u0022:\u0022AAAAAAAAAAE=\u0022,\u0022deviceEtag\u0022:\u0022MTA1ODgzNDc5Nw==\u0022,\u0022status\u0022:\u0022enabled\u0022,\u0022statusUpdateTime\u0022:\u00220001-01-01T00:00:00Z\u0022,\u0022connectionState\u0022:\u0022Disconnected\u0022,\u0022lastActivityTime\u0022:\u00220001-01-01T00:00:00Z\u0022,\u0022cloudToDeviceMessageCount\u0022:0,\u0022authenticationType\u0022:\u0022sas\u0022,\u0022x509Thumbprint\u0022:{\u0022primaryThumbprint\u0022:null,\u0022secondaryThumbprint\u0022:null},\u0022version\u0022:2,\u0022properties\u0022:{\u0022desired\u0022:{\u0022$metadata\u0022:{\u0022$lastUpdated\u0022:\u00222020-07-28T22:18:41.2081607Z\u0022,\u0022$lastUpdatedVersion\u0022:1},\u0022$version\u0022:1},\u0022reported\u0022:{\u0022$metadata\u0022:{\u0022$lastUpdated\u0022:\u00222020-07-28T22:18:41.2081607Z\u0022,\u0022$lastUpdatedVersion\u0022:1},\u0022$version\u0022:1}},\u0022capabilities\u0022:{\u0022iotEdge\u0022:false}},{\u0022deviceId\u0022:\u0022TwinLifecycleDevice2077976886\u0022,\u0022moduleId\u0022:\u0022TwinLifecycleModule1684953568\u0022,\u0022etag\u0022:\u0022AAAAAAAAAAI=\u0022,\u0022deviceEtag\u0022:\u0022NDYyNjU3MDAx\u0022,\u0022status\u0022:\u0022enabled\u0022,\u0022statusUpdateTime\u0022:\u00220001-01-01T00:00:00Z\u0022,\u0022connectionState\u0022:\u0022Disconnected\u0022,\u0022lastActivityTime\u0022:\u00220001-01-01T00:00:00Z\u0022,\u0022cloudToDeviceMessageCount\u0022:0,\u0022authenticationType\u0022:\u0022sas\u0022,\u0022x509Thumbprint\u0022:{\u0022primaryThumbprint\u0022:null,\u0022secondaryThumbprint\u0022:null},\u0022version\u0022:3,\u0022properties\u0022:{\u0022desired\u0022:{\u0022username\u0022:\u0022userA\u0022,\u0022$metadata\u0022:{\u0022$lastUpdated\u0022:\u00222020-07-28T22:18:30.9861283Z\u0022,\u0022$lastUpdatedVersion\u0022:2,\u0022username\u0022:{\u0022$lastUpdated\u0022:\u00222020-07-28T22:18:30.9861283Z\u0022,\u0022$lastUpdatedVersion\u0022:2}},\u0022$version\u0022:2},\u0022reported\u0022:{\u0022$metadata\u0022:{\u0022$lastUpdated\u0022:\u00220001-01-01T00:00:00Z\u0022},\u0022$version\u0022:1}},\u0022capabilities\u0022:{\u0022iotEdge\u0022:false}},{\u0022deviceId\u0022:\u0022IdentityLifecycleDevice733449647\u0022,\u0022moduleId\u0022:\u0022IdentityLifecycleModule258468012\u0022,\u0022etag\u0022:\u0022AAAAAAAAAAE=\u0022,\u0022deviceEtag\u0022:\u0022NTg0MzIwMzg1\u0022,\u0022status\u0022:\u0022enabled\u0022,\u0022statusUpdateTime\u0022:\u00220001-01-01T00:00:00Z\u0022,\u0022connectionState\u0022:\u0022Disconnected\u0022,\u0022lastActivityTime\u0022:\u00220001-01-01T00:00:00Z\u0022,\u0022cloudToDeviceMessageCount\u0022:0,\u0022authenticationType\u0022:\u0022sas\u0022,\u0022x509Thumbprint\u0022:{\u0022primaryThumbprint\u0022:null,\u0022secondaryThumbprint\u0022:null},\u0022version\u0022:2,\u0022properties\u0022:{\u0022desired\u0022:{\u0022$metadata\u0022:{\u0022$lastUpdated\u0022:\u00220001-01-01T00:00:00Z\u0022},\u0022$version\u0022:1},\u0022reported\u0022:{\u0022$metadata\u0022:{\u0022$lastUpdated\u0022:\u00220001-01-01T00:00:00Z\u0022},\u0022$version\u0022:1}},\u0022capabilities\u0022:{\u0022iotEdge\u0022:false}},{\u0022deviceId\u0022:\u0022bulkDeviceUpdate575179519\u0022,\u0022moduleId\u0022:\u0022bulkModuleUpdate622964292\u0022,\u0022etag\u0022:\u0022AAAAAAAAAAE=\u0022,\u0022deviceEtag\u0022:\u0022MjU3MzM3NTI=\u0022,\u0022status\u0022:\u0022enabled\u0022,\u0022statusUpdateTime\u0022:\u00220001-01-01T00:00:00Z\u0022,\u0022connectionState\u0022:\u0022Disconnected\u0022,\u0022lastActivityTime\u0022:\u00220001-01-01T00:00:00Z\u0022,\u0022cloudToDeviceMessageCount\u0022:0,\u0022authenticationType\u0022:\u0022selfSigned\u0022,\u0022x509Thumbprint\u0022:{\u0022primaryThumbprint\u0022:null,\u0022secondaryThumbprint\u0022:null},\u0022version\u0022:2,\u0022properties\u0022:{\u0022desired\u0022:{\u0022$metadata\u0022:{\u0022$lastUpdated\u0022:\u00220001-01-01T00:00:00Z\u0022},\u0022$version\u0022:1},\u0022reported\u0022:{\u0022$metadata\u0022:{\u0022$lastUpdated\u0022:\u00220001-01-01T00:00:00Z\u0022},\u0022$version\u0022:1}},\u0022capabilities\u0022:{\u0022iotEdge\u0022:false}},{\u0022deviceId\u0022:\u0022bulkDeviceUpdate575179519\u0022,\u0022moduleId\u0022:\u0022bulkModuleUpdate1203621383\u0022,\u0022etag\u0022:\u0022AAAAAAAAAAE=\u0022,\u0022deviceEtag\u0022:\u0022OTkxNzk4NzA=\u0022,\u0022status\u0022:\u0022enabled\u0022,\u0022statusUpdateTime\u0022:\u00220001-01-01T00:00:00Z\u0022,\u0022connectionState\u0022:\u0022Disconnected\u0022,\u0022lastActivityTime\u0022:\u00220001-01-01T00:00:00Z\u0022,\u0022cloudToDeviceMessageCount\u0022:0,\u0022authenticationType\u0022:\u0022selfSigned\u0022,\u0022x509Thumbprint\u0022:{\u0022primaryThumbprint\u0022:null,\u0022secondaryThumbprint\u0022:null},\u0022version\u0022:2,\u0022properties\u0022:{\u0022desired\u0022:{\u0022$metadata\u0022:{\u0022$lastUpdated\u0022:\u00220001-01-01T00:00:00Z\u0022},\u0022$version\u0022:1},\u0022reported\u0022:{\u0022$metadata\u0022:{\u0022$lastUpdated\u0022:\u00220001-01-01T00:00:00Z\u0022},\u0022$version\u0022:1}},\u0022capabilities\u0022:{\u0022iotEdge\u0022:false}},{\u0022deviceId\u0022:\u0022bulkDeviceUpdate575179519\u0022,\u0022moduleId\u0022:\u0022bulkModuleUpdate29983599\u0022,\u0022etag\u0022:\u0022AAAAAAAAAAE=\u0022,\u0022deviceEtag\u0022:\u0022NDQzMzc2Nzcy\u0022,\u0022status\u0022:\u0022enabled\u0022,\u0022statusUpdateTime\u0022:\u00220001-01-01T00:00:00Z\u0022,\u0022connectionState\u0022:\u0022Disconnected\u0022,\u0022lastActivityTime\u0022:\u00220001-01-01T00:00:00Z\u0022,\u0022cloudToDeviceMessageCount\u0022:0,\u0022authenticationType\u0022:\u0022selfSigned\u0022,\u0022x509Thumbprint\u0022:{\u0022primaryThumbprint\u0022:null,\u0022secondaryThumbprint\u0022:null},\u0022version\u0022:2,\u0022properties\u0022:{\u0022desired\u0022:{\u0022$metadata\u0022:{\u0022$lastUpdated\u0022:\u00220001-01-01T00:00:00Z\u0022},\u0022$version\u0022:1},\u0022reported\u0022:{\u0022$metadata\u0022:{\u0022$lastUpdated\u0022:\u00220001-01-01T00:00:00Z\u0022},\u0022$version\u0022:1}},\u0022capabilities\u0022:{\u0022iotEdge\u0022:false}},{\u0022deviceId\u0022:\u0022bulkDeviceUpdate575179519\u0022,\u0022moduleId\u0022:\u0022bulkModuleUpdate1565679761\u0022,\u0022etag\u0022:\u0022AAAAAAAAAAE=\u0022,\u0022deviceEtag\u0022:\u0022Mjc0NzgxNzU5\u0022,\u0022status\u0022:\u0022enabled\u0022,\u0022statusUpdateTime\u0022:\u00220001-01-01T00:00:00Z\u0022,\u0022connectionState\u0022:\u0022Disconnected\u0022,\u0022lastActivityTime\u0022:\u00220001-01-01T00:00:00Z\u0022,\u0022cloudToDeviceMessageCount\u0022:0,\u0022authenticationType\u0022:\u0022selfSigned\u0022,\u0022x509Thumbprint\u0022:{\u0022primaryThumbprint\u0022:null,\u0022secondaryThumbprint\u0022:null},\u0022version\u0022:2,\u0022properties\u0022:{\u0022desired\u0022:{\u0022$metadata\u0022:{\u0022$lastUpdated\u0022:\u00220001-01-01T00:00:00Z\u0022},\u0022$version\u0022:1},\u0022reported\u0022:{\u0022$metadata\u0022:{\u0022$lastUpdated\u0022:\u00220001-01-01T00:00:00Z\u0022},\u0022$version\u0022:1}},\u0022capabilities\u0022:{\u0022iotEdge\u0022:false}},{\u0022deviceId\u0022:\u0022bulkDeviceUpdate575179519\u0022,\u0022moduleId\u0022:\u0022bulkModuleUpdate1246302565\u0022,\u0022etag\u0022:\u0022AAAAAAAAAAE=\u0022,\u0022deviceEtag\u0022:\u0022MTA2MTg2NzQ3\u0022,\u0022status\u0022:\u0022enabled\u0022,\u0022statusUpdateTime\u0022:\u00220001-01-01T00:00:00Z\u0022,\u0022connectionState\u0022:\u0022Disconnected\u0022,\u0022lastActivityTime\u0022:\u00220001-01-01T00:00:00Z\u0022,\u0022cloudToDeviceMessageCount\u0022:0,\u0022authenticationType\u0022:\u0022selfSigned\u0022,\u0022x509Thumbprint\u0022:{\u0022primaryThumbprint\u0022:null,\u0022secondaryThumbprint\u0022:null},\u0022version\u0022:2,\u0022properties\u0022:{\u0022desired\u0022:{\u0022$metadata\u0022:{\u0022$lastUpdated\u0022:\u00220001-01-01T00:00:00Z\u0022},\u0022$version\u0022:1},\u0022reported\u0022:{\u0022$metadata\u0022:{\u0022$lastUpdated\u0022:\u00220001-01-01T00:00:00Z\u0022},\u0022$version\u0022:1}},\u0022capabilities\u0022:{\u0022iotEdge\u0022:false}},{\u0022deviceId\u0022:\u0022bulkDeviceUpdate575179519\u0022,\u0022moduleId\u0022:\u0022bulkModuleUpdate1719767442\u0022,\u0022etag\u0022:\u0022AAAAAAAAAAE=\u0022,\u0022deviceEtag\u0022:\u0022NDUwMzgzNjQ4\u0022,\u0022status\u0022:\u0022enabled\u0022,\u0022statusUpdateTime\u0022:\u00220001-01-01T00:00:00Z\u0022,\u0022connectionState\u0022:\u0022Disconnected\u0022,\u0022lastActivityTime\u0022:\u00220001-01-01T00:00:00Z\u0022,\u0022cloudToDeviceMessageCount\u0022:0,\u0022authenticationType\u0022:\u0022selfSigned\u0022,\u0022x509Thumbprint\u0022:{\u0022primaryThumbprint\u0022:null,\u0022secondaryThumbprint\u0022:null},\u0022version\u0022:2,\u0022properties\u0022:{\u0022desired\u0022:{\u0022$metadata\u0022:{\u0022$lastUpdated\u0022:\u00220001-01-01T00:00:00Z\u0022},\u0022$version\u0022:1},\u0022reported\u0022:{\u0022$metadata\u0022:{\u0022$lastUpdated\u0022:\u00220001-01-01T00:00:00Z\u0022},\u0022$version\u0022:1}},\u0022capabilities\u0022:{\u0022iotEdge\u0022:false}},{\u0022deviceId\u0022:\u0022bulkDeviceUpdate575179519\u0022,\u0022moduleId\u0022:\u0022bulkModuleUpdate1752526114\u0022,\u0022etag\u0022:\u0022AAAAAAAAAAE=\u0022,\u0022deviceEtag\u0022:\u0022NjY3MDUyNjAw\u0022,\u0022status\u0022:\u0022enabled\u0022,\u0022statusUpdateTime\u0022:\u00220001-01-01T00:00:00Z\u0022,\u0022connectionState\u0022:\u0022Disconnected\u0022,\u0022lastActivityTime\u0022:\u00220001-01-01T00:00:00Z\u0022,\u0022cloudToDeviceMessageCount\u0022:0,\u0022authenticationType\u0022:\u0022selfSigned\u0022,\u0022x509Thumbprint\u0022:{\u0022primaryThumbprint\u0022:null,\u0022secondaryThumbprint\u0022:null},\u0022version\u0022:2,\u0022properties\u0022:{\u0022desired\u0022:{\u0022$metadata\u0022:{\u0022$lastUpdated\u0022:\u00220001-01-01T00:00:00Z\u0022},\u0022$version\u0022:1},\u0022reported\u0022:{\u0022$metadata\u0022:{\u0022$lastUpdated\u0022:\u00220001-01-01T00:00:00Z\u0022},\u0022$version\u0022:1}},\u0022capabilities\u0022:{\u0022iotEdge\u0022:false}},{\u0022deviceId\u0022:\u0022bulkDeviceUpdate575179519\u0022,\u0022moduleId\u0022:\u0022bulkModuleUpdate1656826355\u0022,\u0022etag\u0022:\u0022AAAAAAAAAAE=\u0022,\u0022deviceEtag\u0022:\u0022Mjg3NDAzOTg=\u0022,\u0022status\u0022:\u0022enabled\u0022,\u0022statusUpdateTime\u0022:\u00220001-01-01T00:00:00Z\u0022,\u0022connectionState\u0022:\u0022Disconnected\u0022,\u0022lastActivityTime\u0022:\u00220001-01-01T00:00:00Z\u0022,\u0022cloudToDeviceMessageCount\u0022:0,\u0022authenticationType\u0022:\u0022selfSigned\u0022,\u0022x509Thumbprint\u0022:{\u0022primaryThumbprint\u0022:null,\u0022secondaryThumbprint\u0022:null},\u0022version\u0022:2,\u0022properties\u0022:{\u0022desired\u0022:{\u0022$metadata\u0022:{\u0022$lastUpdated\u0022:\u00220001-01-01T00:00:00Z\u0022},\u0022$version\u0022:1},\u0022reported\u0022:{\u0022$metadata\u0022:{\u0022$lastUpdated\u0022:\u00220001-01-01T00:00:00Z\u0022},\u0022$version\u0022:1}},\u0022capabilities\u0022:{\u0022iotEdge\u0022:false}},{\u0022deviceId\u0022:\u0022bulkDeviceUpdate575179519\u0022,\u0022moduleId\u0022:\u0022bulkModuleUpdate1649967708\u0022,\u0022etag\u0022:\u0022AAAAAAAAAAE=\u0022,\u0022deviceEtag\u0022:\u0022MzcyOTM3Mjk5\u0022,\u0022status\u0022:\u0022enabled\u0022,\u0022statusUpdateTime\u0022:\u00220001-01-01T00:00:00Z\u0022,\u0022connectionState\u0022:\u0022Disconnected\u0022,\u0022lastActivityTime\u0022:\u00220001-01-01T00:00:00Z\u0022,\u0022cloudToDeviceMessageCount\u0022:0,\u0022authenticationType\u0022:\u0022selfSigned\u0022,\u0022x509Thumbprint\u0022:{\u0022primaryThumbprint\u0022:null,\u0022secondaryThumbprint\u0022:null},\u0022version\u0022:2,\u0022properties\u0022:{\u0022desired\u0022:{\u0022$metadata\u0022:{\u0022$lastUpdated\u0022:\u00220001-01-01T00:00:00Z\u0022},\u0022$version\u0022:1},\u0022reported\u0022:{\u0022$metadata\u0022:{\u0022$lastUpdated\u0022:\u00220001-01-01T00:00:00Z\u0022},\u0022$version\u0022:1}},\u0022capabilities\u0022:{\u0022iotEdge\u0022:false}},{\u0022deviceId\u0022:\u0022bulkDeviceUpdate575179519\u0022,\u0022moduleId\u0022:\u0022bulkModuleUpdate1867847393\u0022,\u0022etag\u0022:\u0022AAAAAAAAAAE=\u0022,\u0022deviceEtag\u0022:\u0022MjA0MzQyMjg3\u0022,\u0022status\u0022:\u0022enabled\u0022,\u0022statusUpdateTime\u0022:\u00220001-01-01T00:00:00Z\u0022,\u0022connectionState\u0022:\u0022Disconnected\u0022,\u0022lastActivityTime\u0022:\u00220001-01-01T00:00:00Z\u0022,\u0022cloudToDeviceMessageCount\u0022:0,\u0022authenticationType\u0022:\u0022selfSigned\u0022,\u0022x509Thumbprint\u0022:{\u0022primaryThumbprint\u0022:null,\u0022secondaryThumbprint\u0022:null},\u0022version\u0022:2,\u0022properties\u0022:{\u0022desired\u0022:{\u0022$metadata\u0022:{\u0022$lastUpdated\u0022:\u00220001-01-01T00:00:00Z\u0022},\u0022$version\u0022:1},\u0022reported\u0022:{\u0022$metadata\u0022:{\u0022$lastUpdated\u0022:\u00220001-01-01T00:00:00Z\u0022},\u0022$version\u0022:1}},\u0022capabilities\u0022:{\u0022iotEdge\u0022:false}}]"
    },
    {
      "RequestUri": "https://FakeHost.net/devices/bulkDevice1268817015?api-version=2020-03-13",
      "RequestMethod": "DELETE",
      "RequestHeaders": {
        "Authorization": "Sanitized",
        "If-Match": "*",
        "User-Agent": [
          "azsdk-net-Iot.Hub.Service/1.0.0-dev.20200728.1",
          "(.NET Core 4.6.29017.01; Microsoft Windows 10.0.18363 )"
        ],
        "x-ms-client-request-id": "1ee741897ffe6bfdabd9255261a604c5",
        "x-ms-return-client-request-id": "true"
      },
      "RequestBody": null,
      "StatusCode": 204,
      "ResponseHeaders": {
        "Content-Length": "0",
        "Date": "Tue, 28 Jul 2020 22:18:43 GMT",
        "Server": "Microsoft-HTTPAPI/2.0",
        "Vary": "Origin",
        "x-ms-request-id": "f0ee2a7b-6dea-43f0-a2e8-43ecae5ccb04"
      },
      "ResponseBody": []
    }
  ],
  "Variables": {
    "IOT_HUB_CONNECTION_STRING": "HostName=FakeHost.net;SharedAccessKeyName=iothubowner;SharedAccessKey=Kg==;",
    "RandomSeed": "1790959606"
  }
}