{
  "Entries": [
    {
      "RequestUri": "https://seanmcccanary.file.core.windows.net/test-share-244d4eb2-ac65-79a4-642e-425a9ea43f68?restype=share",
      "RequestMethod": "PUT",
      "RequestHeaders": {
        "Authorization": "Sanitized",
        "traceparent": "00-5590a26766f0854ab7ffc556a7288dda-d530b371d8b81543-00",
        "User-Agent": [
          "azsdk-net-Storage.Files.Shares/12.3.0-dev.20200601.1",
          "(.NET Core 4.6.28619.01; Microsoft Windows 10.0.18362 )"
        ],
        "x-ms-client-request-id": "ce71fa33-d4a5-0be0-c16a-3a647924226d",
        "x-ms-date": "Mon, 01 Jun 2020 20:21:05 GMT",
        "x-ms-return-client-request-id": "true",
        "x-ms-version": "2019-12-12"
      },
      "RequestBody": null,
      "StatusCode": 201,
      "ResponseHeaders": {
        "Content-Length": "0",
        "Date": "Mon, 01 Jun 2020 20:21:05 GMT",
        "ETag": "\u00220x8D806695080A274\u0022",
        "Last-Modified": "Mon, 01 Jun 2020 20:21:06 GMT",
        "Server": [
          "Windows-Azure-File/1.0",
          "Microsoft-HTTPAPI/2.0"
        ],
        "x-ms-client-request-id": "ce71fa33-d4a5-0be0-c16a-3a647924226d",
        "x-ms-request-id": "1b0794c6-101a-009c-5e52-38e0c6000000",
        "x-ms-version": "2019-12-12"
      },
      "ResponseBody": []
    },
    {
      "RequestUri": "https://seanmcccanary.file.core.windows.net/test-share-244d4eb2-ac65-79a4-642e-425a9ea43f68/test-directory-16422d16-070f-30ca-b7cd-f4cc9b1afa48?restype=directory",
      "RequestMethod": "PUT",
      "RequestHeaders": {
        "Authorization": "Sanitized",
        "traceparent": "00-330cea43a0e2564794d6e4e107a48fb7-4b5acabe51d7424b-00",
        "User-Agent": [
          "azsdk-net-Storage.Files.Shares/12.3.0-dev.20200601.1",
          "(.NET Core 4.6.28619.01; Microsoft Windows 10.0.18362 )"
        ],
        "x-ms-client-request-id": "137242cc-4fd8-b07e-3f03-674f919d315e",
        "x-ms-date": "Mon, 01 Jun 2020 20:21:05 GMT",
        "x-ms-file-attributes": "None",
        "x-ms-file-creation-time": "Now",
        "x-ms-file-last-write-time": "Now",
        "x-ms-file-permission": "Inherit",
        "x-ms-return-client-request-id": "true",
        "x-ms-version": "2019-12-12"
      },
      "RequestBody": null,
      "StatusCode": 201,
      "ResponseHeaders": {
        "Content-Length": "0",
        "Date": "Mon, 01 Jun 2020 20:21:05 GMT",
        "ETag": "\u00220x8D80669508BB15E\u0022",
        "Last-Modified": "Mon, 01 Jun 2020 20:21:06 GMT",
        "Server": [
          "Windows-Azure-File/1.0",
          "Microsoft-HTTPAPI/2.0"
        ],
        "x-ms-client-request-id": "137242cc-4fd8-b07e-3f03-674f919d315e",
        "x-ms-file-attributes": "Directory",
        "x-ms-file-change-time": "2020-06-01T20:21:06.5590110Z",
        "x-ms-file-creation-time": "2020-06-01T20:21:06.5590110Z",
        "x-ms-file-id": "13835128424026341376",
        "x-ms-file-last-write-time": "2020-06-01T20:21:06.5590110Z",
        "x-ms-file-parent-id": "0",
        "x-ms-file-permission-key": "11811099930176499864*14641856446884751121",
        "x-ms-request-id": "1b0794c9-101a-009c-5f52-38e0c6000000",
        "x-ms-request-server-encrypted": "true",
        "x-ms-version": "2019-12-12"
      },
      "ResponseBody": []
    },
    {
      "RequestUri": "https://seanmcccanary.file.core.windows.net/test-share-244d4eb2-ac65-79a4-642e-425a9ea43f68/test-directory-16422d16-070f-30ca-b7cd-f4cc9b1afa48/test-file-6bffd0e8-0b88-d76c-dbaa-8da50e491d23",
      "RequestMethod": "PUT",
      "RequestHeaders": {
        "Authorization": "Sanitized",
        "traceparent": "00-fc4e074e4592364da8187de9adc6f223-b689a11e12bfc04a-00",
        "User-Agent": [
          "azsdk-net-Storage.Files.Shares/12.3.0-dev.20200601.1",
          "(.NET Core 4.6.28619.01; Microsoft Windows 10.0.18362 )"
        ],
        "x-ms-client-request-id": "3698364a-0eb2-6195-5296-3d086a3e8b2f",
        "x-ms-content-length": "1048576",
        "x-ms-date": "Mon, 01 Jun 2020 20:21:05 GMT",
        "x-ms-file-attributes": "None",
        "x-ms-file-creation-time": "Now",
        "x-ms-file-last-write-time": "Now",
        "x-ms-file-permission": "Inherit",
        "x-ms-return-client-request-id": "true",
        "x-ms-type": "file",
        "x-ms-version": "2019-12-12"
      },
      "RequestBody": null,
      "StatusCode": 201,
      "ResponseHeaders": {
        "Content-Length": "0",
        "Date": "Mon, 01 Jun 2020 20:21:05 GMT",
        "ETag": "\u00220x8D80669509EC7A8\u0022",
        "Last-Modified": "Mon, 01 Jun 2020 20:21:06 GMT",
        "Server": [
          "Windows-Azure-File/1.0",
          "Microsoft-HTTPAPI/2.0"
        ],
        "x-ms-client-request-id": "3698364a-0eb2-6195-5296-3d086a3e8b2f",
        "x-ms-file-attributes": "Archive",
        "x-ms-file-change-time": "2020-06-01T20:21:06.6841000Z",
        "x-ms-file-creation-time": "2020-06-01T20:21:06.6841000Z",
        "x-ms-file-id": "11529285414812647424",
        "x-ms-file-last-write-time": "2020-06-01T20:21:06.6841000Z",
        "x-ms-file-parent-id": "13835128424026341376",
        "x-ms-file-permission-key": "7175002341387128735*14641856446884751121",
        "x-ms-request-id": "1b0794ca-101a-009c-6052-38e0c6000000",
        "x-ms-request-server-encrypted": "true",
        "x-ms-version": "2019-12-12"
      },
      "ResponseBody": []
    },
    {
      "RequestUri": "https://seanmcccanary.file.core.windows.net/test-share-244d4eb2-ac65-79a4-642e-425a9ea43f68/test-directory-16422d16-070f-30ca-b7cd-f4cc9b1afa48/test-file-6bffd0e8-0b88-d76c-dbaa-8da50e491d23?sv=2019-12-12\u0026st=2020-06-01T19%3A21%3A05Z\u0026se=2020-06-01T21%3A21%3A05Z\u0026sr=f\u0026sp=rcwd\u0026sig=Sanitized",
      "RequestMethod": "HEAD",
      "RequestHeaders": {
        "traceparent": "00-7c21cfb8fd684744899ec98abb3acd21-010e1b8351ae134f-00",
        "User-Agent": [
          "azsdk-net-Storage.Files.Shares/12.3.0-dev.20200601.1",
          "(.NET Core 4.6.28619.01; Microsoft Windows 10.0.18362 )"
        ],
        "x-ms-client-request-id": "5b047b97-fa05-ebab-6985-93f92435f62d",
        "x-ms-return-client-request-id": "true",
        "x-ms-version": "2019-12-12"
      },
      "RequestBody": null,
      "StatusCode": 200,
      "ResponseHeaders": {
        "Content-Length": "0",
        "Content-Type": "application/octet-stream",
        "Date": "Mon, 01 Jun 2020 20:21:06 GMT",
        "ETag": "\u00220x8D80669509EC7A8\u0022",
        "Last-Modified": "Mon, 01 Jun 2020 20:21:06 GMT",
        "Server": [
          "Windows-Azure-File/1.0",
          "Microsoft-HTTPAPI/2.0"
        ],
        "x-ms-client-request-id": "5b047b97-fa05-ebab-6985-93f92435f62d",
        "x-ms-file-attributes": "Archive",
        "x-ms-file-change-time": "2020-06-01T20:21:06.6841000Z",
        "x-ms-file-creation-time": "2020-06-01T20:21:06.6841000Z",
        "x-ms-file-id": "11529285414812647424",
        "x-ms-file-last-write-time": "2020-06-01T20:21:06.6841000Z",
        "x-ms-file-parent-id": "13835128424026341376",
        "x-ms-file-permission-key": "7175002341387128735*14641856446884751121",
        "x-ms-lease-state": "available",
        "x-ms-lease-status": "unlocked",
        "x-ms-request-id": "03f768c9-301a-007f-6052-38823b000000",
        "x-ms-server-encrypted": "true",
        "x-ms-type": "File",
        "x-ms-version": "2019-12-12"
      },
      "ResponseBody": []
    },
    {
      "RequestUri": "https://seanmcccanary.file.core.windows.net/test-share-244d4eb2-ac65-79a4-642e-425a9ea43f68?restype=share",
      "RequestMethod": "DELETE",
      "RequestHeaders": {
        "Authorization": "Sanitized",
        "traceparent": "00-4a27d0ee801d36419c37a6368a38692d-0e8fbd634e2c6a47-00",
        "User-Agent": [
          "azsdk-net-Storage.Files.Shares/12.3.0-dev.20200601.1",
          "(.NET Core 4.6.28619.01; Microsoft Windows 10.0.18362 )"
        ],
        "x-ms-client-request-id": "ef7172d1-3039-2629-dd85-3769a77a46cf",
        "x-ms-date": "Mon, 01 Jun 2020 20:21:05 GMT",
        "x-ms-delete-snapshots": "include",
        "x-ms-return-client-request-id": "true",
        "x-ms-version": "2019-12-12"
      },
      "RequestBody": null,
      "StatusCode": 202,
      "ResponseHeaders": {
        "Content-Length": "0",
        "Date": "Mon, 01 Jun 2020 20:21:06 GMT",
        "Server": [
          "Windows-Azure-File/1.0",
          "Microsoft-HTTPAPI/2.0"
        ],
        "x-ms-client-request-id": "ef7172d1-3039-2629-dd85-3769a77a46cf",
        "x-ms-request-id": "1b0794cc-101a-009c-6152-38e0c6000000",
        "x-ms-version": "2019-12-12"
      },
      "ResponseBody": []
    }
  ],
  "Variables": {
    "DateTimeOffsetNow": "2020-06-01T15:21:05.7707629-05:00",
    "RandomSeed": "1799548664",
    "Storage_TestConfigDefault": "ProductionTenant\nseanmcccanary\nU2FuaXRpemVk\nhttps://seanmcccanary.blob.core.windows.net\nhttps://seanmcccanary.file.core.windows.net\nhttps://seanmcccanary.queue.core.windows.net\nhttps://seanmcccanary.table.core.windows.net\n\n\n\n\nhttps://seanmcccanary-secondary.blob.core.windows.net\nhttps://seanmcccanary-secondary.file.core.windows.net\nhttps://seanmcccanary-secondary.queue.core.windows.net\nhttps://seanmcccanary-secondary.table.core.windows.net\n\nSanitized\n\n\nCloud\nBlobEndpoint=https://seanmcccanary.blob.core.windows.net/;QueueEndpoint=https://seanmcccanary.queue.core.windows.net/;FileEndpoint=https://seanmcccanary.file.core.windows.net/;BlobSecondaryEndpoint=https://seanmcccanary-secondary.blob.core.windows.net/;QueueSecondaryEndpoint=https://seanmcccanary-secondary.queue.core.windows.net/;FileSecondaryEndpoint=https://seanmcccanary-secondary.file.core.windows.net/;AccountName=seanmcccanary;AccountKey=Sanitized\nseanscope1"
  }
}