{
  "Entries": [
    {
      "RequestUri": "https://chrissprim.table.cosmos.azure.com/Tables?$format=application%2Fjson%3Bodata%3Dfullmetadata",
      "RequestMethod": "POST",
      "RequestHeaders": {
        "Accept": "application/json",
        "Authorization": "Sanitized",
        "Content-Length": "33",
        "Content-Type": "application/json; odata=nometadata",
        "DataServiceVersion": "3.0",
        "traceparent": "00-cc8af122ba4c5f429056787174fd7c8e-911eecd7d0bb3348-00",
        "User-Agent": [
          "azsdk-net-Data.Tables/1.0.0-dev.20200813.1",
          "(.NET Core 4.6.29130.01; Microsoft Windows 10.0.18363 )"
        ],
        "x-ms-client-request-id": "fae104105f9d0dd630d43520b5d6ba01",
        "x-ms-date": "Thu, 13 Aug 2020 14:43:37 GMT",
        "x-ms-return-client-request-id": "true",
        "x-ms-version": "2019-02-02"
      },
      "RequestBody": {
        "TableName": "testtablennzrwcpr"
      },
      "StatusCode": 201,
      "ResponseHeaders": {
        "Content-Type": "application/json",
        "Date": "Thu, 13 Aug 2020 14:43:37 GMT",
        "ETag": "W/\u0022datetime\u00272020-08-13T14%3A43%3A37.4488584Z\u0027\u0022",
        "Location": "https://chrissprim.table.cosmos.azure.com/Tables(\u0027testtablennzrwcpr\u0027)",
        "Server": "Microsoft-HTTPAPI/2.0",
        "Transfer-Encoding": "chunked",
        "x-ms-request-id": "fae10410-5f9d-0dd6-30d4-3520b5d6ba01"
      },
      "ResponseBody": {
        "TableName": "testtablennzrwcpr",
        "odata.metadata": "https://chrissprim.table.cosmos.azure.com/$metadata#Tables/@Element"
      }
    },
    {
      "RequestUri": "https://chrissprim.table.cosmos.azure.com/Tables?$format=application%2Fjson%3Bodata%3Dfullmetadata",
      "RequestMethod": "POST",
      "RequestHeaders": {
        "Accept": "application/json",
        "Authorization": "Sanitized",
        "Content-Length": "33",
        "Content-Type": "application/json; odata=nometadata",
        "DataServiceVersion": "3.0",
        "traceparent": "00-ee3c467e87225d45b9073daaf7c62d85-f1c852a672d2be4e-00",
        "User-Agent": [
          "azsdk-net-Data.Tables/1.0.0-dev.20200813.1",
          "(.NET Core 4.6.29130.01; Microsoft Windows 10.0.18363 )"
        ],
        "x-ms-client-request-id": "2076c4c0e3466f401ecc84c2a150d479",
        "x-ms-date": "Thu, 13 Aug 2020 14:43:38 GMT",
        "x-ms-return-client-request-id": "true",
        "x-ms-version": "2019-02-02"
      },
      "RequestBody": {
        "TableName": "testtablennzrwcpr"
      },
      "StatusCode": 409,
      "ResponseHeaders": {
        "Content-Type": "application/json",
        "Date": "Thu, 13 Aug 2020 14:43:37 GMT",
        "Server": "Microsoft-HTTPAPI/2.0",
        "Transfer-Encoding": "chunked",
        "x-ms-request-id": "2076c4c0-e346-6f40-1ecc-84c2a150d479"
      },
      "ResponseBody": [
        "{\u0022odata.error\u0022:{\u0022code\u0022:\u0022TableAlreadyExists\u0022,\u0022message\u0022:{\u0022lang\u0022:\u0022en-us\u0022,\u0022value\u0022:\u0022The specified table already exists.\\nRequestID:2076c4c0-e346-6f40-1ecc-84c2a150d479\\n\u0022}}}\r\n"
      ]
    },
    {
      "RequestUri": "https://chrissprim.table.cosmos.azure.com/Tables?$format=application%2Fjson%3Bodata%3Dfullmetadata",
      "RequestMethod": "POST",
      "RequestHeaders": {
        "Accept": "application/json",
        "Authorization": "Sanitized",
        "Content-Length": "33",
        "Content-Type": "application/json; odata=nometadata",
        "DataServiceVersion": "3.0",
        "traceparent": "00-a0e56086cd1d8a4bb1b42018e598e62d-2c5c5fbb6544b54f-00",
        "User-Agent": [
          "azsdk-net-Data.Tables/1.0.0-dev.20200813.1",
          "(.NET Core 4.6.29130.01; Microsoft Windows 10.0.18363 )"
        ],
        "x-ms-client-request-id": "f3044ec172b240e82cf59b6314aee22d",
        "x-ms-date": "Thu, 13 Aug 2020 14:43:38 GMT",
        "x-ms-return-client-request-id": "true",
        "x-ms-version": "2019-02-02"
      },
      "RequestBody": {
        "TableName": "testtable1xl2tbyh"
      },
      "StatusCode": 201,
      "ResponseHeaders": {
        "Content-Type": "application/json",
        "Date": "Thu, 13 Aug 2020 14:43:37 GMT",
        "ETag": "W/\u0022datetime\u00272020-08-13T14%3A43%3A38.2716424Z\u0027\u0022",
        "Location": "https://chrissprim.table.cosmos.azure.com/Tables(\u0027testtable1xl2tbyh\u0027)",
        "Server": "Microsoft-HTTPAPI/2.0",
        "Transfer-Encoding": "chunked",
        "x-ms-request-id": "f3044ec1-72b2-40e8-2cf5-9b6314aee22d"
      },
      "ResponseBody": {
        "TableName": "testtable1xl2tbyh",
        "odata.metadata": "https://chrissprim.table.cosmos.azure.com/$metadata#Tables/@Element"
      }
    },
    {
      "RequestUri": "https://chrissprim.table.cosmos.azure.com/Tables(\u0027testtable1xl2tbyh\u0027)",
      "RequestMethod": "DELETE",
      "RequestHeaders": {
        "Accept": "application/json",
        "Authorization": "Sanitized",
        "traceparent": "00-34484c4fd6adf540b3afbb837ee62cee-119c9e9d8b9eb84f-00",
        "User-Agent": [
          "azsdk-net-Data.Tables/1.0.0-dev.20200813.1",
          "(.NET Core 4.6.29130.01; Microsoft Windows 10.0.18363 )"
        ],
        "x-ms-client-request-id": "d0db71c413dadf6bffbb6bd822649078",
        "x-ms-date": "Thu, 13 Aug 2020 14:43:38 GMT",
        "x-ms-return-client-request-id": "true",
        "x-ms-version": "2019-02-02"
      },
      "RequestBody": null,
      "StatusCode": 204,
      "ResponseHeaders": {
        "Content-Length": "0",
        "Date": "Thu, 13 Aug 2020 14:43:39 GMT",
        "Server": "Microsoft-HTTPAPI/2.0",
        "x-ms-request-id": "d0db71c4-13da-df6b-ffbb-6bd822649078"
      },
      "ResponseBody": []
    },
    {
      "RequestUri": "https://chrissprim.table.cosmos.azure.com/Tables(\u0027testtablennzrwcpr\u0027)",
      "RequestMethod": "DELETE",
      "RequestHeaders": {
        "Accept": "application/json",
        "Authorization": "Sanitized",
        "traceparent": "00-c86eaa9306f46c448c8e96f23c3cafc2-6f1a51affd304c4d-00",
        "User-Agent": [
          "azsdk-net-Data.Tables/1.0.0-dev.20200813.1",
          "(.NET Core 4.6.29130.01; Microsoft Windows 10.0.18363 )"
        ],
        "x-ms-client-request-id": "f85fad364cdeacbce44495acb5716405",
        "x-ms-date": "Thu, 13 Aug 2020 14:43:39 GMT",
        "x-ms-return-client-request-id": "true",
        "x-ms-version": "2019-02-02"
      },
      "RequestBody": null,
      "StatusCode": 204,
      "ResponseHeaders": {
        "Content-Length": "0",
        "Date": "Thu, 13 Aug 2020 14:43:39 GMT",
        "Server": "Microsoft-HTTPAPI/2.0",
        "x-ms-request-id": "f85fad36-4cde-acbc-e444-95acb5716405"
      },
      "ResponseBody": []
    }
  ],
  "Variables": {
    "RandomSeed": "184253167",
    "TABLES_COSMOS_ACCOUNT_NAME": "chrissprim",
    "TABLES_PRIMARY_COSMOS_ACCOUNT_KEY": ""
  }
}