{
  "Entries": [
    {
      "RequestUri": "https://chrissprim.table.cosmos.azure.com/Tables?$format=application%2Fjson%3Bodata%3Dfullmetadata",
      "RequestMethod": "POST",
      "RequestHeaders": {
        "Accept": "application/json",
        "Authorization": "Sanitized",
        "Content-Length": "33",
        "Content-Type": "application/json; odata=nometadata",
        "DataServiceVersion": "3.0",
        "traceparent": "00-c9ae18d01aa14542966a1c43969a213d-f62b925b2c811e4b-00",
        "User-Agent": [
          "azsdk-net-Data.Tables/1.0.0-dev.20200813.1",
          "(.NET Core 4.6.29130.01; Microsoft Windows 10.0.18363 )"
        ],
        "x-ms-client-request-id": "703f602cbd9c6cf0521f44597052aebe",
        "x-ms-date": "Thu, 13 Aug 2020 14:43:34 GMT",
        "x-ms-return-client-request-id": "true",
        "x-ms-version": "2019-02-02"
      },
      "RequestBody": {
        "TableName": "testtablegkl7uv82"
      },
      "StatusCode": 201,
      "ResponseHeaders": {
        "Content-Type": "application/json",
        "Date": "Thu, 13 Aug 2020 14:43:35 GMT",
        "ETag": "W/\u0022datetime\u00272020-08-13T14%3A43%3A34.8449288Z\u0027\u0022",
        "Location": "https://chrissprim.table.cosmos.azure.com/Tables(\u0027testtablegkl7uv82\u0027)",
        "Server": "Microsoft-HTTPAPI/2.0",
        "Transfer-Encoding": "chunked",
        "x-ms-request-id": "703f602c-bd9c-6cf0-521f-44597052aebe"
      },
      "ResponseBody": {
        "TableName": "testtablegkl7uv82",
        "odata.metadata": "https://chrissprim.table.cosmos.azure.com/$metadata#Tables/@Element"
      }
    },
    {
      "RequestUri": "https://chrissprim.table.cosmos.azure.com/Tables?$format=application%2Fjson%3Bodata%3Dfullmetadata",
      "RequestMethod": "POST",
      "RequestHeaders": {
        "Accept": "application/json",
        "Authorization": "Sanitized",
        "Content-Length": "33",
        "Content-Type": "application/json; odata=nometadata",
        "DataServiceVersion": "3.0",
        "traceparent": "00-5cf2c8626ce52843a7dcaddc396105ea-345a327e3c00b84d-00",
        "User-Agent": [
          "azsdk-net-Data.Tables/1.0.0-dev.20200813.1",
          "(.NET Core 4.6.29130.01; Microsoft Windows 10.0.18363 )"
        ],
        "x-ms-client-request-id": "675b2d05b59f0b64c5f27b69b88c4678",
        "x-ms-date": "Thu, 13 Aug 2020 14:43:35 GMT",
        "x-ms-return-client-request-id": "true",
        "x-ms-version": "2019-02-02"
      },
      "RequestBody": {
        "TableName": "testtablegkl7uv82"
      },
      "StatusCode": 409,
      "ResponseHeaders": {
        "Content-Type": "application/json",
        "Date": "Thu, 13 Aug 2020 14:43:35 GMT",
        "Server": "Microsoft-HTTPAPI/2.0",
        "Transfer-Encoding": "chunked",
        "x-ms-request-id": "675b2d05-b59f-0b64-c5f2-7b69b88c4678"
      },
      "ResponseBody": [
        "{\u0022odata.error\u0022:{\u0022code\u0022:\u0022TableAlreadyExists\u0022,\u0022message\u0022:{\u0022lang\u0022:\u0022en-us\u0022,\u0022value\u0022:\u0022The specified table already exists.\\nRequestID:675b2d05-b59f-0b64-c5f2-7b69b88c4678\\n\u0022}}}\r\n"
      ]
    },
    {
      "RequestUri": "https://chrissprim.table.cosmos.azure.com/Tables?$format=application%2Fjson%3Bodata%3Dfullmetadata",
      "RequestMethod": "POST",
      "RequestHeaders": {
        "Accept": "application/json",
        "Authorization": "Sanitized",
        "Content-Length": "33",
        "Content-Type": "application/json; odata=nometadata",
        "DataServiceVersion": "3.0",
        "traceparent": "00-d4e2e9a1f0cead4cab565c2bb448064f-08afe290631ab542-00",
        "User-Agent": [
          "azsdk-net-Data.Tables/1.0.0-dev.20200813.1",
          "(.NET Core 4.6.29130.01; Microsoft Windows 10.0.18363 )"
        ],
        "x-ms-client-request-id": "418241953bf3edad80676b25e58e5976",
        "x-ms-date": "Thu, 13 Aug 2020 14:43:35 GMT",
        "x-ms-return-client-request-id": "true",
        "x-ms-version": "2019-02-02"
      },
      "RequestBody": {
        "TableName": "testtabletl4kw2yd"
      },
      "StatusCode": 201,
      "ResponseHeaders": {
        "Content-Type": "application/json",
        "Date": "Thu, 13 Aug 2020 14:43:35 GMT",
        "ETag": "W/\u0022datetime\u00272020-08-13T14%3A43%3A35.7316104Z\u0027\u0022",
        "Location": "https://chrissprim.table.cosmos.azure.com/Tables(\u0027testtabletl4kw2yd\u0027)",
        "Server": "Microsoft-HTTPAPI/2.0",
        "Transfer-Encoding": "chunked",
        "x-ms-request-id": "41824195-3bf3-edad-8067-6b25e58e5976"
      },
      "ResponseBody": {
        "TableName": "testtabletl4kw2yd",
        "odata.metadata": "https://chrissprim.table.cosmos.azure.com/$metadata#Tables/@Element"
      }
    },
    {
      "RequestUri": "https://chrissprim.table.cosmos.azure.com/Tables(\u0027testtabletl4kw2yd\u0027)",
      "RequestMethod": "DELETE",
      "RequestHeaders": {
        "Accept": "application/json",
        "Authorization": "Sanitized",
        "traceparent": "00-09f129686b724041911336d86d77b172-3cf97c5acccebe48-00",
        "User-Agent": [
          "azsdk-net-Data.Tables/1.0.0-dev.20200813.1",
          "(.NET Core 4.6.29130.01; Microsoft Windows 10.0.18363 )"
        ],
        "x-ms-client-request-id": "a9ab34fb8641c6b3d9cb7db37c135207",
        "x-ms-date": "Thu, 13 Aug 2020 14:43:36 GMT",
        "x-ms-return-client-request-id": "true",
        "x-ms-version": "2019-02-02"
      },
      "RequestBody": null,
      "StatusCode": 204,
      "ResponseHeaders": {
        "Content-Length": "0",
        "Date": "Thu, 13 Aug 2020 14:43:36 GMT",
        "Server": "Microsoft-HTTPAPI/2.0",
        "x-ms-request-id": "a9ab34fb-8641-c6b3-d9cb-7db37c135207"
      },
      "ResponseBody": []
    },
    {
      "RequestUri": "https://chrissprim.table.cosmos.azure.com/Tables(\u0027testtablegkl7uv82\u0027)",
      "RequestMethod": "DELETE",
      "RequestHeaders": {
        "Accept": "application/json",
        "Authorization": "Sanitized",
        "traceparent": "00-282e06541c3cc0468954f1c8a184aabb-69ba74670a885c4b-00",
        "User-Agent": [
          "azsdk-net-Data.Tables/1.0.0-dev.20200813.1",
          "(.NET Core 4.6.29130.01; Microsoft Windows 10.0.18363 )"
        ],
        "x-ms-client-request-id": "5ed2fba822338917448ee9512020924d",
        "x-ms-date": "Thu, 13 Aug 2020 14:43:36 GMT",
        "x-ms-return-client-request-id": "true",
        "x-ms-version": "2019-02-02"
      },
      "RequestBody": null,
      "StatusCode": 204,
      "ResponseHeaders": {
        "Content-Length": "0",
        "Date": "Thu, 13 Aug 2020 14:43:36 GMT",
        "Server": "Microsoft-HTTPAPI/2.0",
        "x-ms-request-id": "5ed2fba8-2233-8917-448e-e9512020924d"
      },
      "ResponseBody": []
    }
  ],
  "Variables": {
    "RandomSeed": "1810771930",
    "TABLES_COSMOS_ACCOUNT_NAME": "chrissprim",
    "TABLES_PRIMARY_COSMOS_ACCOUNT_KEY": ""
  }
}