{
  "Entries": [
    {
      "RequestUri": "https://seannsecanary.blob.core.windows.net/test-filesystem-0c54c6e3-6dd6-fc55-dc4a-46491619d769?restype=container",
      "RequestMethod": "PUT",
      "RequestHeaders": {
        "Authorization": "Sanitized",
        "traceparent": "00-88cd3399319ce640bb90fb1e4aa468e7-f29fc2d1715bc24a-00",
        "User-Agent": [
          "azsdk-net-Storage.Files.DataLake/12.3.0-dev.20200619.1",
          "(.NET Core 4.6.28801.04; Microsoft Windows 10.0.18362 )"
        ],
        "x-ms-blob-public-access": "container",
        "x-ms-client-request-id": "ca3b6249-4e0d-d460-6634-f311f9d5f7f4",
        "x-ms-date": "Sat, 20 Jun 2020 02:42:29 GMT",
        "x-ms-return-client-request-id": "true",
        "x-ms-version": "2019-12-12"
      },
      "RequestBody": null,
      "StatusCode": 201,
      "ResponseHeaders": {
        "Content-Length": "0",
        "Date": "Sat, 20 Jun 2020 02:42:30 GMT",
        "ETag": "\u00220x8D814C3937293EE\u0022",
        "Last-Modified": "Sat, 20 Jun 2020 02:42:29 GMT",
        "Server": [
          "Windows-Azure-Blob/1.0",
          "Microsoft-HTTPAPI/2.0"
        ],
        "x-ms-client-request-id": "ca3b6249-4e0d-d460-6634-f311f9d5f7f4",
        "x-ms-request-id": "c7219e6c-e01e-001e-6eac-46a178000000",
        "x-ms-version": "2019-12-12"
      },
      "ResponseBody": []
    },
    {
      "RequestUri": "https://seannsecanary.dfs.core.windows.net/test-filesystem-0c54c6e3-6dd6-fc55-dc4a-46491619d769/test-directory-c1369fb9-24ce-e872-3374-1d5b870e2749?resource=directory",
      "RequestMethod": "PUT",
      "RequestHeaders": {
        "Authorization": "Sanitized",
        "traceparent": "00-7bc3910ba6814346ba3f40169af042bf-5c3adb551f052842-00",
        "User-Agent": [
          "azsdk-net-Storage.Files.DataLake/12.3.0-dev.20200619.1",
          "(.NET Core 4.6.28801.04; Microsoft Windows 10.0.18362 )"
        ],
        "x-ms-client-request-id": "358df183-655c-24b2-ef53-979930054d58",
        "x-ms-date": "Sat, 20 Jun 2020 02:42:31 GMT",
        "x-ms-return-client-request-id": "true",
        "x-ms-version": "2019-12-12"
      },
      "RequestBody": null,
      "StatusCode": 201,
      "ResponseHeaders": {
        "Content-Length": "0",
        "Date": "Sat, 20 Jun 2020 02:42:30 GMT",
        "ETag": "\u00220x8D814C394569FFE\u0022",
        "Last-Modified": "Sat, 20 Jun 2020 02:42:31 GMT",
        "Server": [
          "Windows-Azure-HDFS/1.0",
          "Microsoft-HTTPAPI/2.0"
        ],
        "x-ms-client-request-id": "358df183-655c-24b2-ef53-979930054d58",
        "x-ms-request-id": "74d9601b-701f-007e-4dac-46dde7000000",
        "x-ms-version": "2019-12-12"
      },
      "ResponseBody": []
    },
    {
      "RequestUri": "https://seannsecanary.dfs.core.windows.net/test-filesystem-0c54c6e3-6dd6-fc55-dc4a-46491619d769/test-directory-c1369fb9-24ce-e872-3374-1d5b870e2749/%2521%2527%2528%2529%253B%255B%255D%2540%2526%2525%253D%252B%2524%252C%2523\u00E4\u00C4\u00F6\u00D6\u00FC\u00DC\u00DF%253B?resource=file",
      "RequestMethod": "PUT",
      "RequestHeaders": {
        "Authorization": "Sanitized",
        "traceparent": "00-7890d0cfe5a72f43acb371462d9a8e33-44185c864d94e943-00",
        "User-Agent": [
          "azsdk-net-Storage.Files.DataLake/12.3.0-dev.20200619.1",
          "(.NET Core 4.6.28801.04; Microsoft Windows 10.0.18362 )"
        ],
        "x-ms-client-request-id": "95d7038d-f280-bded-12db-c48a75c2cad2",
        "x-ms-date": "Sat, 20 Jun 2020 02:42:31 GMT",
        "x-ms-return-client-request-id": "true",
        "x-ms-version": "2019-12-12"
      },
      "RequestBody": null,
      "StatusCode": 201,
      "ResponseHeaders": {
        "Content-Length": "0",
        "Date": "Sat, 20 Jun 2020 02:42:30 GMT",
        "ETag": "\u00220x8D814C394606D5B\u0022",
        "Last-Modified": "Sat, 20 Jun 2020 02:42:31 GMT",
        "Server": [
          "Windows-Azure-HDFS/1.0",
          "Microsoft-HTTPAPI/2.0"
        ],
        "x-ms-client-request-id": "95d7038d-f280-bded-12db-c48a75c2cad2",
        "x-ms-request-id": "74d9601c-701f-007e-4eac-46dde7000000",
        "x-ms-version": "2019-12-12"
      },
      "ResponseBody": []
    },
    {
      "RequestUri": "https://seannsecanary.dfs.core.windows.net/test-filesystem-0c54c6e3-6dd6-fc55-dc4a-46491619d769?resource=filesystem\u0026recursive=true\u0026upn=false",
      "RequestMethod": "GET",
      "RequestHeaders": {
        "Authorization": "Sanitized",
        "User-Agent": [
          "azsdk-net-Storage.Files.DataLake/12.3.0-dev.20200619.1",
          "(.NET Core 4.6.28801.04; Microsoft Windows 10.0.18362 )"
        ],
        "x-ms-client-request-id": "2c0be573-b72d-1ad8-bc30-22f97f8c3780",
        "x-ms-date": "Sat, 20 Jun 2020 02:42:31 GMT",
        "x-ms-return-client-request-id": "true",
        "x-ms-version": "2019-12-12"
      },
      "RequestBody": null,
      "StatusCode": 200,
      "ResponseHeaders": {
        "Content-Length": "546",
        "Content-Type": "application/json; charset=utf-8",
        "Date": "Sat, 20 Jun 2020 02:42:30 GMT",
        "Server": [
          "Windows-Azure-HDFS/1.0",
          "Microsoft-HTTPAPI/2.0"
        ],
        "x-ms-client-request-id": "2c0be573-b72d-1ad8-bc30-22f97f8c3780",
        "x-ms-request-id": "74d9601d-701f-007e-4fac-46dde7000000",
        "x-ms-version": "2019-12-12"
      },
      "ResponseBody": [
        "{\u0022paths\u0022:[{\u0022contentLength\u0022:\u00220\u0022,\u0022etag\u0022:\u00220x8D814C394569FFE\u0022,\u0022group\u0022:\u0022$superuser\u0022,\u0022isDirectory\u0022:\u0022true\u0022,\u0022lastModified\u0022:\u0022Sat, 20 Jun 2020 02:42:31 GMT\u0022,\u0022name\u0022:\u0022test-directory-c1369fb9-24ce-e872-3374-1d5b870e2749\u0022,\u0022owner\u0022:\u0022$superuser\u0022,\u0022permissions\u0022:\u0022rwxr-x---\u0022},{\u0022contentLength\u0022:\u00220\u0022,\u0022etag\u0022:\u00220x8D814C394606D5B\u0022,\u0022group\u0022:\u0022$superuser\u0022,\u0022lastModified\u0022:\u0022Sat, 20 Jun 2020 02:42:31 GMT\u0022,\u0022name\u0022:\u0022test-directory-c1369fb9-24ce-e872-3374-1d5b870e2749/%21%27%28%29%3B%5B%5D%40%26%25%3D%2B%24%2C%23\u00E4\u00C4\u00F6\u00D6\u00FC\u00DC\u00DF%3B\u0022,\u0022owner\u0022:\u0022$superuser\u0022,\u0022permissions\u0022:\u0022rw-r-----\u0022}]}\n"
      ]
    },
    {
      "RequestUri": "https://seannsecanary.blob.core.windows.net/test-filesystem-0c54c6e3-6dd6-fc55-dc4a-46491619d769?restype=container",
      "RequestMethod": "DELETE",
      "RequestHeaders": {
        "Authorization": "Sanitized",
        "traceparent": "00-6f6d7fb15dfcef4b8ab8de5f31d60bc3-b5e660694cffde4f-00",
        "User-Agent": [
          "azsdk-net-Storage.Files.DataLake/12.3.0-dev.20200619.1",
          "(.NET Core 4.6.28801.04; Microsoft Windows 10.0.18362 )"
        ],
        "x-ms-client-request-id": "8f174b3e-9eb7-10a5-6cd3-a1638f4bbf4e",
        "x-ms-date": "Sat, 20 Jun 2020 02:42:31 GMT",
        "x-ms-return-client-request-id": "true",
        "x-ms-version": "2019-12-12"
      },
      "RequestBody": null,
      "StatusCode": 202,
      "ResponseHeaders": {
        "Content-Length": "0",
        "Date": "Sat, 20 Jun 2020 02:42:31 GMT",
        "Server": [
          "Windows-Azure-Blob/1.0",
          "Microsoft-HTTPAPI/2.0"
        ],
        "x-ms-client-request-id": "8f174b3e-9eb7-10a5-6cd3-a1638f4bbf4e",
        "x-ms-request-id": "c7219f5a-e01e-001e-31ac-46a178000000",
        "x-ms-version": "2019-12-12"
      },
      "ResponseBody": []
    }
  ],
  "Variables": {
    "RandomSeed": "1256796712",
    "Storage_TestConfigHierarchicalNamespace": "NamespaceTenant\nseannsecanary\nU2FuaXRpemVk\nhttps://seannsecanary.blob.core.windows.net\nhttps://seannsecanary.file.core.windows.net\nhttps://seannsecanary.queue.core.windows.net\nhttps://seannsecanary.table.core.windows.net\n\n\n\n\nhttps://seannsecanary-secondary.blob.core.windows.net\nhttps://seannsecanary-secondary.file.core.windows.net\nhttps://seannsecanary-secondary.queue.core.windows.net\nhttps://seannsecanary-secondary.table.core.windows.net\n68390a19-a643-458b-b726-408abf67b4fc\nSanitized\n72f988bf-86f1-41af-91ab-2d7cd011db47\nhttps://login.microsoftonline.com/\nCloud\nBlobEndpoint=https://seannsecanary.blob.core.windows.net/;QueueEndpoint=https://seannsecanary.queue.core.windows.net/;FileEndpoint=https://seannsecanary.file.core.windows.net/;BlobSecondaryEndpoint=https://seannsecanary-secondary.blob.core.windows.net/;QueueSecondaryEndpoint=https://seannsecanary-secondary.queue.core.windows.net/;FileSecondaryEndpoint=https://seannsecanary-secondary.file.core.windows.net/;AccountName=seannsecanary;AccountKey=Sanitized\n"
  }
}