{
  "Entries": [
    {
      "RequestUri": "https://fakeHost.api.wus2.digitaltwins.azure.net/models/dtmi%3Aexample%3Afloor%3B17516826?includeModelDefinition=true\u0026api-version=2020-05-31-preview",
      "RequestMethod": "GET",
      "RequestHeaders": {
        "Authorization": "Sanitized",
        "User-Agent": [
          "azsdk-net-DigitalTwins.Core/1.0.0-dev.20200728.1",
          "(.NET Core 4.6.29017.01; Microsoft Windows 10.0.18363 )"
        ],
        "x-ms-client-request-id": "b9ca1fd8ec40a90b8d26d9a58145dec3",
        "x-ms-return-client-request-id": "true"
      },
      "RequestBody": null,
      "StatusCode": 404,
      "ResponseHeaders": {
        "Content-Length": "212",
        "Content-Type": "application/json; charset=utf-8",
        "Date": "Tue, 28 Jul 2020 23:42:01 GMT",
        "Strict-Transport-Security": "max-age=2592000"
      },
      "ResponseBody": {
        "error": {
          "code": "ModelNotFound",
          "message": "There is no Model(s) available that matches the provided id(s) dtmi:example:floor;17516826. Check that the Model ID provided is valid by doing a Model_List API call."
        }
      }
    },
    {
      "RequestUri": "https://fakeHost.api.wus2.digitaltwins.azure.net/models/dtmi%3Aexample%3Aroom%3B180130729?includeModelDefinition=true\u0026api-version=2020-05-31-preview",
      "RequestMethod": "GET",
      "RequestHeaders": {
        "Authorization": "Sanitized",
        "User-Agent": [
          "azsdk-net-DigitalTwins.Core/1.0.0-dev.20200728.1",
          "(.NET Core 4.6.29017.01; Microsoft Windows 10.0.18363 )"
        ],
        "x-ms-client-request-id": "53d8872f713948a15966c72f58e80f24",
        "x-ms-return-client-request-id": "true"
      },
      "RequestBody": null,
      "StatusCode": 404,
      "ResponseHeaders": {
        "Content-Length": "212",
        "Content-Type": "application/json; charset=utf-8",
        "Date": "Tue, 28 Jul 2020 23:42:01 GMT",
        "Strict-Transport-Security": "max-age=2592000"
      },
      "ResponseBody": {
        "error": {
          "code": "ModelNotFound",
          "message": "There is no Model(s) available that matches the provided id(s) dtmi:example:room;180130729. Check that the Model ID provided is valid by doing a Model_List API call."
        }
      }
    },
    {
      "RequestUri": "https://fakeHost.api.wus2.digitaltwins.azure.net/models?api-version=2020-05-31-preview",
      "RequestMethod": "POST",
      "RequestHeaders": {
        "Authorization": "Sanitized",
        "Content-Length": "804",
        "Content-Type": "application/json; charset=utf-8",
        "User-Agent": [
          "azsdk-net-DigitalTwins.Core/1.0.0-dev.20200728.1",
          "(.NET Core 4.6.29017.01; Microsoft Windows 10.0.18363 )"
        ],
        "x-ms-client-request-id": "34488d2bdad7002adebc15c4e9714919",
        "x-ms-return-client-request-id": "true"
      },
      "RequestBody": "[{    \u0022@id\u0022: \u0022dtmi:example:room;180130729\u0022,    \u0022@type\u0022: \u0022Interface\u0022,    \u0022displayName\u0022: \u0022Room\u0022,    \u0022description\u0022: \u0022An enclosure inside a building.\u0022,    \u0022contents\u0022: [        {            \u0022@type\u0022: \u0022Relationship\u0022,            \u0022name\u0022: \u0022containedIn\u0022,            \u0022target\u0022: \u0022dtmi:example:floor;17516826\u0022        },        {            \u0022@type\u0022: \u0022Property\u0022,            \u0022name\u0022: \u0022Temperature\u0022,            \u0022schema\u0022: \u0022double\u0022        },        {            \u0022@type\u0022: \u0022Property\u0022,            \u0022name\u0022: \u0022Humidity\u0022,            \u0022schema\u0022: \u0022double\u0022        },        {            \u0022@type\u0022: \u0022Property\u0022,            \u0022name\u0022: \u0022IsOccupied\u0022,            \u0022schema\u0022: \u0022boolean\u0022        },        {            \u0022@type\u0022: \u0022Property\u0022,            \u0022name\u0022: \u0022EmployeeId\u0022,            \u0022schema\u0022: \u0022string\u0022        }    ],    \u0022@context\u0022: \u0022dtmi:dtdl:context;2\u0022}]",
      "StatusCode": 201,
      "ResponseHeaders": {
        "Content-Length": "193",
        "Content-Type": "application/json; charset=utf-8",
        "Date": "Tue, 28 Jul 2020 23:42:02 GMT",
        "Strict-Transport-Security": "max-age=2592000"
      },
      "ResponseBody": "[{\u0022id\u0022:\u0022dtmi:example:room;180130729\u0022,\u0022description\u0022:{\u0022en\u0022:\u0022An enclosure inside a building.\u0022},\u0022displayName\u0022:{\u0022en\u0022:\u0022Room\u0022},\u0022decommissioned\u0022:false,\u0022uploadTime\u0022:\u00222020-07-28T23:42:02.1277961\u002B00:00\u0022}]"
    },
    {
      "RequestUri": "https://fakeHost.api.wus2.digitaltwins.azure.net/digitaltwins/roomTwin77902172?api-version=2020-05-31-preview",
      "RequestMethod": "GET",
      "RequestHeaders": {
        "Authorization": "Sanitized",
        "User-Agent": [
          "azsdk-net-DigitalTwins.Core/1.0.0-dev.20200728.1",
          "(.NET Core 4.6.29017.01; Microsoft Windows 10.0.18363 )"
        ],
        "x-ms-client-request-id": "b993bcd49eed28ad70e7854479343eca",
        "x-ms-return-client-request-id": "true"
      },
      "RequestBody": null,
      "StatusCode": 200,
      "ResponseHeaders": {
        "Content-Length": "658",
        "Content-Type": "application/json; charset=utf-8",
        "Date": "Tue, 28 Jul 2020 23:42:02 GMT",
        "ETag": "W/\u00221d4bdb84-0306-442d-bc7e-ea3c93c27ad1\u0022",
        "Strict-Transport-Security": "max-age=2592000"
      },
      "ResponseBody": {
        "$dtId": "roomTwin77902172",
        "$etag": "W/\u00221d4bdb84-0306-442d-bc7e-ea3c93c27ad1\u0022",
        "Temperature": 80,
        "Humidity": 25,
        "IsOccupied": true,
        "EmployeeId": "Employee1",
        "$metadata": {
          "$model": "dtmi:example:room;180130729",
          "Temperature": {
            "desiredValue": 80,
            "desiredVersion": 1,
            "ackVersion": 1,
            "ackCode": 200,
            "ackDescription": "Auto-Sync"
          },
          "Humidity": {
            "desiredValue": 25,
            "desiredVersion": 1,
            "ackVersion": 1,
            "ackCode": 200,
            "ackDescription": "Auto-Sync"
          },
          "IsOccupied": {
            "desiredValue": true,
            "desiredVersion": 1,
            "ackVersion": 1,
            "ackCode": 200,
            "ackDescription": "Auto-Sync"
          },
          "EmployeeId": {
            "desiredValue": "Employee1",
            "desiredVersion": 1,
            "ackVersion": 1,
            "ackCode": 200,
            "ackDescription": "Auto-Sync"
          }
        }
      }
    },
    {
      "RequestUri": "https://fakeHost.api.wus2.digitaltwins.azure.net/digitaltwins/roomTwin1837133952?api-version=2020-05-31-preview",
      "RequestMethod": "GET",
      "RequestHeaders": {
        "Authorization": "Sanitized",
        "User-Agent": [
          "azsdk-net-DigitalTwins.Core/1.0.0-dev.20200728.1",
          "(.NET Core 4.6.29017.01; Microsoft Windows 10.0.18363 )"
        ],
        "x-ms-client-request-id": "8f96b85655cbd75d757c5bdd5fe71dad",
        "x-ms-return-client-request-id": "true"
      },
      "RequestBody": null,
      "StatusCode": 404,
      "ResponseHeaders": {
        "Content-Length": "271",
        "Content-Type": "application/json; charset=utf-8",
        "Date": "Tue, 28 Jul 2020 23:42:02 GMT",
        "Strict-Transport-Security": "max-age=2592000"
      },
      "ResponseBody": {
        "error": {
          "code": "DigitalTwinNotFound",
          "message": "There is no digital twin instance that exists with the ID roomTwin1837133952. Please verify that the twin id is valid and ensure that the twin is not deleted. See section on querying the twins http://aka.ms/adtv2query."
        }
      }
    },
    {
      "RequestUri": "https://fakeHost.api.wus2.digitaltwins.azure.net/digitaltwins/roomTwin1837133952?api-version=2020-05-31-preview",
      "RequestMethod": "PUT",
      "RequestHeaders": {
        "Authorization": "Sanitized",
        "Content-Length": "150",
        "Content-Type": "application/json; charset=utf-8",
        "User-Agent": [
          "azsdk-net-DigitalTwins.Core/1.0.0-dev.20200728.1",
          "(.NET Core 4.6.29017.01; Microsoft Windows 10.0.18363 )"
        ],
        "x-ms-client-request-id": "7c2c84d33d6b9aef0b66f2a4bc6488d7",
        "x-ms-return-client-request-id": "true"
      },
      "RequestBody": "{  \u0022$metadata\u0022: {    \u0022$model\u0022: \u0022dtmi:example:room;180130729\u0022  },  \u0022Temperature\u0022: 80,  \u0022Humidity\u0022: 25,  \u0022IsOccupied\u0022: true,  \u0022EmployeeId\u0022: \u0022Employee1\u0022}",
      "StatusCode": 200,
      "ResponseHeaders": {
        "Content-Length": "660",
        "Content-Type": "application/json; charset=utf-8",
        "Date": "Tue, 28 Jul 2020 23:42:02 GMT",
        "ETag": "W/\u0022d2899188-9c9b-45dc-8273-dcfc598a18d9\u0022",
        "Strict-Transport-Security": "max-age=2592000"
      },
      "ResponseBody": {
        "$dtId": "roomTwin1837133952",
        "$etag": "W/\u0022d2899188-9c9b-45dc-8273-dcfc598a18d9\u0022",
        "Temperature": 80,
        "Humidity": 25,
        "IsOccupied": true,
        "EmployeeId": "Employee1",
        "$metadata": {
          "$model": "dtmi:example:room;180130729",
          "Temperature": {
            "desiredValue": 80,
            "desiredVersion": 1,
            "ackVersion": 1,
            "ackCode": 200,
            "ackDescription": "Auto-Sync"
          },
          "Humidity": {
            "desiredValue": 25,
            "desiredVersion": 1,
            "ackVersion": 1,
            "ackCode": 200,
            "ackDescription": "Auto-Sync"
          },
          "IsOccupied": {
            "desiredValue": true,
            "desiredVersion": 1,
            "ackVersion": 1,
            "ackCode": 200,
            "ackDescription": "Auto-Sync"
          },
          "EmployeeId": {
            "desiredValue": "Employee1",
            "desiredVersion": 1,
            "ackVersion": 1,
            "ackCode": 200,
            "ackDescription": "Auto-Sync"
          }
        }
      }
    },
    {
      "RequestUri": "https://fakeHost.api.wus2.digitaltwins.azure.net/query?api-version=2020-05-31-preview",
      "RequestMethod": "POST",
      "RequestHeaders": {
        "Authorization": "Sanitized",
        "Content-Length": "62",
        "Content-Type": "application/json",
        "User-Agent": [
          "azsdk-net-DigitalTwins.Core/1.0.0-dev.20200728.1",
          "(.NET Core 4.6.29017.01; Microsoft Windows 10.0.18363 )"
        ],
        "x-ms-client-request-id": "901a68facc83670935e17821524b11ff",
        "x-ms-return-client-request-id": "true"
      },
      "RequestBody": {
        "query": "SELECT * FROM digitaltwins where IsOccupied = true"
      },
      "StatusCode": 200,
      "ResponseHeaders": {
        "Content-Length": "7962",
        "Content-Type": "application/json; charset=utf-8",
        "Date": "Tue, 28 Jul 2020 23:42:02 GMT",
        "query-charge": "7.56",
        "Strict-Transport-Security": "max-age=2592000"
      },
      "ResponseBody": {
        "items": [
          {
            "$dtId": "roomTwin1402882860",
            "$etag": "W/\u00229d573bee-612b-4f21-aa62-9b9256e07665\u0022",
            "Temperature": 80,
            "Humidity": 25,
            "IsOccupied": true,
            "EmployeeId": "Employee1",
            "$metadata": {
              "$model": "dtmi:example:room;119099593",
              "Temperature": {
                "desiredValue": 80,
                "desiredVersion": 1,
                "ackVersion": 1,
                "ackCode": 200,
                "ackDescription": "Auto-Sync"
              },
              "Humidity": {
                "desiredValue": 25,
                "desiredVersion": 1,
                "ackVersion": 1,
                "ackCode": 200,
                "ackDescription": "Auto-Sync"
              },
              "IsOccupied": {
                "desiredValue": true,
                "desiredVersion": 1,
                "ackVersion": 1,
                "ackCode": 200,
                "ackDescription": "Auto-Sync"
              },
              "EmployeeId": {
                "desiredValue": "Employee1",
                "desiredVersion": 1,
                "ackVersion": 1,
                "ackCode": 200,
                "ackDescription": "Auto-Sync"
              }
            }
          },
          {
            "$dtId": "roomTwin1109090776",
            "$etag": "W/\u00223d128102-d411-4612-ab12-623a9d74db01\u0022",
            "Temperature": 80,
            "Humidity": 25,
            "IsOccupied": true,
            "EmployeeId": "Employee1",
            "$metadata": {
              "$model": "dtmi:example:room;112607543",
              "Temperature": {
                "desiredValue": 80,
                "desiredVersion": 1,
                "ackVersion": 1,
                "ackCode": 200,
                "ackDescription": "Auto-Sync"
              },
              "Humidity": {
                "desiredValue": 25,
                "desiredVersion": 1,
                "ackVersion": 1,
                "ackCode": 200,
                "ackDescription": "Auto-Sync"
              },
              "IsOccupied": {
                "desiredValue": true,
                "desiredVersion": 1,
                "ackVersion": 1,
                "ackCode": 200,
                "ackDescription": "Auto-Sync"
              },
              "EmployeeId": {
                "desiredValue": "Employee1",
                "desiredVersion": 1,
                "ackVersion": 1,
                "ackCode": 200,
                "ackDescription": "Auto-Sync"
              }
            }
          },
          {
            "$dtId": "roomTwin2138110373",
            "$etag": "W/\u00224ad78fc7-2a79-4487-8ef1-c56e4e1280e4\u0022",
            "Temperature": 80,
            "Humidity": 25,
            "IsOccupied": true,
            "EmployeeId": "Employee1",
            "$metadata": {
              "$model": "dtmi:example:room;117001227",
              "Temperature": {
                "desiredValue": 80,
                "desiredVersion": 1,
                "ackVersion": 1,
                "ackCode": 200,
                "ackDescription": "Auto-Sync"
              },
              "Humidity": {
                "desiredValue": 25,
                "desiredVersion": 1,
                "ackVersion": 1,
                "ackCode": 200,
                "ackDescription": "Auto-Sync"
              },
              "IsOccupied": {
                "desiredValue": true,
                "desiredVersion": 1,
                "ackVersion": 1,
                "ackCode": 200,
                "ackDescription": "Auto-Sync"
              },
              "EmployeeId": {
                "desiredValue": "Employee1",
                "desiredVersion": 1,
                "ackVersion": 1,
                "ackCode": 200,
                "ackDescription": "Auto-Sync"
              }
            }
          },
          {
            "$dtId": "roomTwin54248529",
            "$etag": "W/\u0022f2493ae8-e187-4c19-8f99-d5e63ab7f7bc\u0022",
            "Temperature": 80,
            "Humidity": 25,
            "IsOccupied": true,
            "EmployeeId": "Employee1",
            "$metadata": {
              "$model": "dtmi:example:room;177323580",
              "Temperature": {
                "desiredValue": 80,
                "desiredVersion": 1,
                "ackVersion": 1,
                "ackCode": 200,
                "ackDescription": "Auto-Sync"
              },
              "Humidity": {
                "desiredValue": 25,
                "desiredVersion": 1,
                "ackVersion": 1,
                "ackCode": 200,
                "ackDescription": "Auto-Sync"
              },
              "IsOccupied": {
                "desiredValue": true,
                "desiredVersion": 1,
                "ackVersion": 1,
                "ackCode": 200,
                "ackDescription": "Auto-Sync"
              },
              "EmployeeId": {
                "desiredValue": "Employee1",
                "desiredVersion": 1,
                "ackVersion": 1,
                "ackCode": 200,
                "ackDescription": "Auto-Sync"
              }
            }
          },
          {
            "$dtId": "roomTwin1259202816",
            "$etag": "W/\u0022a743939a-e23b-49a3-830d-3cdac414f1f4\u0022",
            "Temperature": 80,
            "Humidity": 25,
            "IsOccupied": true,
            "EmployeeId": "Employee1",
            "$metadata": {
              "$model": "dtmi:example:room;177323580",
              "Temperature": {
                "desiredValue": 80,
                "desiredVersion": 1,
                "ackVersion": 1,
                "ackCode": 200,
                "ackDescription": "Auto-Sync"
              },
              "Humidity": {
                "desiredValue": 25,
                "desiredVersion": 1,
                "ackVersion": 1,
                "ackCode": 200,
                "ackDescription": "Auto-Sync"
              },
              "IsOccupied": {
                "desiredValue": true,
                "desiredVersion": 1,
                "ackVersion": 1,
                "ackCode": 200,
                "ackDescription": "Auto-Sync"
              },
              "EmployeeId": {
                "desiredValue": "Employee1",
                "desiredVersion": 1,
                "ackVersion": 1,
                "ackCode": 200,
                "ackDescription": "Auto-Sync"
              }
            }
          },
          {
            "$dtId": "roomTwin1982570493",
            "$etag": "W/\u002254970a46-0a67-4cb8-b036-a586dd0cefe1\u0022",
            "Temperature": 80,
            "Humidity": 25,
            "IsOccupied": true,
            "EmployeeId": "Employee1",
            "$metadata": {
              "$model": "dtmi:example:room;123439021",
              "Temperature": {
                "desiredValue": 80,
                "desiredVersion": 1,
                "ackVersion": 1,
                "ackCode": 200,
                "ackDescription": "Auto-Sync"
              },
              "Humidity": {
                "desiredValue": 25,
                "desiredVersion": 1,
                "ackVersion": 1,
                "ackCode": 200,
                "ackDescription": "Auto-Sync"
              },
              "IsOccupied": {
                "desiredValue": true,
                "desiredVersion": 1,
                "ackVersion": 1,
                "ackCode": 200,
                "ackDescription": "Auto-Sync"
              },
              "EmployeeId": {
                "desiredValue": "Employee1",
                "desiredVersion": 1,
                "ackVersion": 1,
                "ackCode": 200,
                "ackDescription": "Auto-Sync"
              }
            }
          },
          {
            "$dtId": "roomTwin2013649222",
            "$etag": "W/\u0022c25b8183-8b0e-4553-829c-4b4019d83530\u0022",
            "Temperature": 80,
            "Humidity": 25,
            "IsOccupied": true,
            "EmployeeId": "Employee1",
            "$metadata": {
              "$model": "dtmi:example:room;187060801",
              "Temperature": {
                "desiredValue": 80,
                "desiredVersion": 1,
                "ackVersion": 1,
                "ackCode": 200,
                "ackDescription": "Auto-Sync"
              },
              "Humidity": {
                "desiredValue": 25,
                "desiredVersion": 1,
                "ackVersion": 1,
                "ackCode": 200,
                "ackDescription": "Auto-Sync"
              },
              "IsOccupied": {
                "desiredValue": true,
                "desiredVersion": 1,
                "ackVersion": 1,
                "ackCode": 200,
                "ackDescription": "Auto-Sync"
              },
              "EmployeeId": {
                "desiredValue": "Employee1",
                "desiredVersion": 1,
                "ackVersion": 1,
                "ackCode": 200,
                "ackDescription": "Auto-Sync"
              }
            }
          },
          {
            "$dtId": "roomTwin1823984986",
            "$etag": "W/\u00225c41a39e-43ea-4382-ab92-abdd1f180391\u0022",
            "Temperature": 80,
            "Humidity": 25,
            "IsOccupied": true,
            "EmployeeId": "Employee1",
            "$metadata": {
              "$model": "dtmi:example:room;15155852",
              "Temperature": {
                "desiredValue": 80,
                "desiredVersion": 1,
                "ackVersion": 1,
                "ackCode": 200,
                "ackDescription": "Auto-Sync"
              },
              "Humidity": {
                "desiredValue": 25,
                "desiredVersion": 1,
                "ackVersion": 1,
                "ackCode": 200,
                "ackDescription": "Auto-Sync"
              },
              "IsOccupied": {
                "desiredValue": true,
                "desiredVersion": 1,
                "ackVersion": 1,
                "ackCode": 200,
                "ackDescription": "Auto-Sync"
              },
              "EmployeeId": {
                "desiredValue": "Employee1",
                "desiredVersion": 1,
                "ackVersion": 1,
                "ackCode": 200,
                "ackDescription": "Auto-Sync"
              }
            }
          },
          {
            "$dtId": "roomTwin129896917",
            "$etag": "W/\u0022cd5f8a13-7005-4a1b-aa98-85ba26454036\u0022",
            "Temperature": 80,
            "Humidity": 25,
            "IsOccupied": true,
            "EmployeeId": "Employee1",
            "$metadata": {
              "$model": "dtmi:example:room;117001227",
              "Temperature": {
                "desiredValue": 80,
                "desiredVersion": 1,
                "ackVersion": 1,
                "ackCode": 200,
                "ackDescription": "Auto-Sync"
              },
              "Humidity": {
                "desiredValue": 25,
                "desiredVersion": 1,
                "ackVersion": 1,
                "ackCode": 200,
                "ackDescription": "Auto-Sync"
              },
              "IsOccupied": {
                "desiredValue": true,
                "desiredVersion": 1,
                "ackVersion": 1,
                "ackCode": 200,
                "ackDescription": "Auto-Sync"
              },
              "EmployeeId": {
                "desiredValue": "Employee1",
                "desiredVersion": 1,
                "ackVersion": 1,
                "ackCode": 200,
                "ackDescription": "Auto-Sync"
              }
            }
          },
          {
            "$dtId": "roomTwin77902172",
            "$etag": "W/\u00221d4bdb84-0306-442d-bc7e-ea3c93c27ad1\u0022",
            "Temperature": 80,
            "Humidity": 25,
            "IsOccupied": true,
            "EmployeeId": "Employee1",
            "$metadata": {
              "$model": "dtmi:example:room;180130729",
              "Temperature": {
                "desiredValue": 80,
                "desiredVersion": 1,
                "ackVersion": 1,
                "ackCode": 200,
                "ackDescription": "Auto-Sync"
              },
              "Humidity": {
                "desiredValue": 25,
                "desiredVersion": 1,
                "ackVersion": 1,
                "ackCode": 200,
                "ackDescription": "Auto-Sync"
              },
              "IsOccupied": {
                "desiredValue": true,
                "desiredVersion": 1,
                "ackVersion": 1,
                "ackCode": 200,
                "ackDescription": "Auto-Sync"
              },
              "EmployeeId": {
                "desiredValue": "Employee1",
                "desiredVersion": 1,
                "ackVersion": 1,
                "ackCode": 200,
                "ackDescription": "Auto-Sync"
              }
            }
          },
          {
            "$dtId": "roomTwin2008572996",
            "$etag": "W/\u0022af515f36-a229-4fbf-b492-d4d51269fe76\u0022",
            "Temperature": 80,
            "Humidity": 25,
            "IsOccupied": true,
            "EmployeeId": "Employee1",
            "$metadata": {
              "$model": "dtmi:example:room;117898422",
              "Temperature": {
                "desiredValue": 80,
                "desiredVersion": 1,
                "ackVersion": 1,
                "ackCode": 200,
                "ackDescription": "Auto-Sync"
              },
              "Humidity": {
                "desiredValue": 25,
                "desiredVersion": 1,
                "ackVersion": 1,
                "ackCode": 200,
                "ackDescription": "Auto-Sync"
              },
              "IsOccupied": {
                "desiredValue": true,
                "desiredVersion": 1,
                "ackVersion": 1,
                "ackCode": 200,
                "ackDescription": "Auto-Sync"
              },
              "EmployeeId": {
                "desiredValue": "Employee1",
                "desiredVersion": 1,
                "ackVersion": 1,
                "ackCode": 200,
                "ackDescription": "Auto-Sync"
              }
            }
          },
          {
            "$dtId": "roomTwin1917345053",
            "$etag": "W/\u0022558eff3f-88f9-4bec-863c-0eed6cc4791f\u0022",
            "Temperature": 80,
            "Humidity": 25,
            "IsOccupied": true,
            "EmployeeId": "Employee1",
            "$metadata": {
              "$model": "dtmi:example:room;115056348",
              "Temperature": {
                "desiredValue": 80,
                "desiredVersion": 1,
                "ackVersion": 1,
                "ackCode": 200,
                "ackDescription": "Auto-Sync"
              },
              "Humidity": {
                "desiredValue": 25,
                "desiredVersion": 1,
                "ackVersion": 1,
                "ackCode": 200,
                "ackDescription": "Auto-Sync"
              },
              "IsOccupied": {
                "desiredValue": true,
                "desiredVersion": 1,
                "ackVersion": 1,
                "ackCode": 200,
                "ackDescription": "Auto-Sync"
              },
              "EmployeeId": {
                "desiredValue": "Employee1",
                "desiredVersion": 1,
                "ackVersion": 1,
                "ackCode": 200,
                "ackDescription": "Auto-Sync"
              }
            }
          }
        ],
        "continuationToken": null
      }
    },
    {
      "RequestUri": "https://fakeHost.api.wus2.digitaltwins.azure.net/models/dtmi%3Aexample%3Aroom%3B180130729?api-version=2020-05-31-preview",
      "RequestMethod": "DELETE",
      "RequestHeaders": {
        "Authorization": "Sanitized",
        "User-Agent": [
          "azsdk-net-DigitalTwins.Core/1.0.0-dev.20200728.1",
          "(.NET Core 4.6.29017.01; Microsoft Windows 10.0.18363 )"
        ],
        "x-ms-client-request-id": "b0a696674d121915c9fc836462b81b10",
        "x-ms-return-client-request-id": "true"
      },
      "RequestBody": null,
      "StatusCode": 204,
      "ResponseHeaders": {
        "Content-Length": "0",
        "Date": "Tue, 28 Jul 2020 23:42:03 GMT",
        "Strict-Transport-Security": "max-age=2592000"
      },
      "ResponseBody": []
    }
  ],
  "Variables": {
    "DIGITALTWINS_URL": "https://fakeHost.api.wus2.digitaltwins.azure.net",
    "RandomSeed": "236307620"
  }
}