{
  "Entries": [
    {
      "RequestUri": "https://seanmcccanary.file.core.windows.net/test-share-fbf45fc1-50fa-6132-2205-5fffaad1427a?restype=share",
      "RequestMethod": "PUT",
      "RequestHeaders": {
        "Authorization": "Sanitized",
        "traceparent": "00-8b7509f8bbbeb7478b94b59865e95c7c-17435dd2974f4641-00",
        "User-Agent": [
          "azsdk-net-Storage.Files.Shares/12.3.0-dev.20200625.1",
          "(.NET Core 4.6.28801.04; Microsoft Windows 10.0.18362 )"
        ],
        "x-ms-client-request-id": "a5d4de22-9fe0-ab63-d343-58e59071e781",
        "x-ms-date": "Fri, 26 Jun 2020 01:35:44 GMT",
        "x-ms-return-client-request-id": "true",
        "x-ms-version": "2019-12-12"
      },
      "RequestBody": null,
      "StatusCode": 201,
      "ResponseHeaders": {
        "Content-Length": "0",
        "Date": "Fri, 26 Jun 2020 01:35:45 GMT",
        "ETag": "\u00220x8D819713F26E9F0\u0022",
        "Last-Modified": "Fri, 26 Jun 2020 01:35:45 GMT",
        "Server": [
          "Windows-Azure-File/1.0",
          "Microsoft-HTTPAPI/2.0"
        ],
        "x-ms-client-request-id": "a5d4de22-9fe0-ab63-d343-58e59071e781",
        "x-ms-request-id": "1a02607a-401a-0007-765a-4b21c3000000",
        "x-ms-version": "2019-12-12"
      },
      "ResponseBody": []
    },
    {
      "RequestUri": "https://seanmcccanary.file.core.windows.net/test-share-fbf45fc1-50fa-6132-2205-5fffaad1427a?sharesnapshot=2020-06-26T00:49:21.0000000Z\u0026restype=share",
      "RequestMethod": "DELETE",
      "RequestHeaders": {
        "Authorization": "Sanitized",
        "traceparent": "00-e027191b0f80c24494edf7fa878437ca-e85a7ba2ae501648-00",
        "User-Agent": [
          "azsdk-net-Storage.Files.Shares/12.3.0-dev.20200625.1",
          "(.NET Core 4.6.28801.04; Microsoft Windows 10.0.18362 )"
        ],
        "x-ms-client-request-id": "ccdd5855-9cfd-3799-b4ca-dde5409ae4a6",
        "x-ms-date": "Fri, 26 Jun 2020 01:35:44 GMT",
        "x-ms-delete-snapshots": "include",
        "x-ms-return-client-request-id": "true",
        "x-ms-version": "2019-12-12"
      },
      "RequestBody": null,
      "StatusCode": 400,
      "ResponseHeaders": {
        "Content-Length": "518",
        "Content-Type": "application/xml",
        "Date": "Fri, 26 Jun 2020 01:35:45 GMT",
        "Server": [
          "Windows-Azure-File/1.0",
          "Microsoft-HTTPAPI/2.0"
        ],
        "x-ms-client-request-id": "ccdd5855-9cfd-3799-b4ca-dde5409ae4a6",
        "x-ms-error-code": "InvalidQueryParameterValue",
        "x-ms-request-id": "1a02607d-401a-0007-775a-4b21c3000000",
        "x-ms-version": "2019-12-12"
      },
      "ResponseBody": [
        "\uFEFF\u003C?xml version=\u00221.0\u0022 encoding=\u0022utf-8\u0022?\u003E\u003CError\u003E\u003CCode\u003EInvalidQueryParameterValue\u003C/Code\u003E\u003CMessage\u003EValue for one of the query parameters specified in the request URI is invalid.\n",
        "RequestId:1a02607d-401a-0007-775a-4b21c3000000\n",
        "Time:2020-06-26T01:35:45.5219455Z\u003C/Message\u003E\u003CQueryParameterName\u003Esharesnapshot\u003C/QueryParameterName\u003E\u003CQueryParameterValue\u003E2020-06-26T00:49:21.0000000Z\u003C/QueryParameterValue\u003E\u003CReason\u003EThis operation is only allowed on the base share. ShareSnapshot query parameter should not be provided.\u003C/Reason\u003E\u003C/Error\u003E"
      ]
    },
    {
      "RequestUri": "https://seanmcccanary.file.core.windows.net/test-share-fbf45fc1-50fa-6132-2205-5fffaad1427a?restype=share",
      "RequestMethod": "DELETE",
      "RequestHeaders": {
        "Authorization": "Sanitized",
        "traceparent": "00-6a6b28df655f4b4c90b29aa033a2ced7-2eba31f1cc21b246-00",
        "User-Agent": [
          "azsdk-net-Storage.Files.Shares/12.3.0-dev.20200625.1",
          "(.NET Core 4.6.28801.04; Microsoft Windows 10.0.18362 )"
        ],
        "x-ms-client-request-id": "38904e29-1b94-0084-a5f1-3f404f84e845",
        "x-ms-date": "Fri, 26 Jun 2020 01:35:45 GMT",
        "x-ms-delete-snapshots": "include",
        "x-ms-return-client-request-id": "true",
        "x-ms-version": "2019-12-12"
      },
      "RequestBody": null,
      "StatusCode": 202,
      "ResponseHeaders": {
        "Content-Length": "0",
        "Date": "Fri, 26 Jun 2020 01:35:45 GMT",
        "Server": [
          "Windows-Azure-File/1.0",
          "Microsoft-HTTPAPI/2.0"
        ],
        "x-ms-client-request-id": "38904e29-1b94-0084-a5f1-3f404f84e845",
        "x-ms-request-id": "1a02607e-401a-0007-785a-4b21c3000000",
        "x-ms-version": "2019-12-12"
      },
      "ResponseBody": []
    }
  ],
  "Variables": {
    "RandomSeed": "141367655",
    "Storage_TestConfigDefault": "ProductionTenant\nseanmcccanary\nU2FuaXRpemVk\nhttps://seanmcccanary.blob.core.windows.net\nhttps://seanmcccanary.file.core.windows.net\nhttps://seanmcccanary.queue.core.windows.net\nhttps://seanmcccanary.table.core.windows.net\n\n\n\n\nhttps://seanmcccanary-secondary.blob.core.windows.net\nhttps://seanmcccanary-secondary.file.core.windows.net\nhttps://seanmcccanary-secondary.queue.core.windows.net\nhttps://seanmcccanary-secondary.table.core.windows.net\n\nSanitized\n\n\nCloud\nBlobEndpoint=https://seanmcccanary.blob.core.windows.net/;QueueEndpoint=https://seanmcccanary.queue.core.windows.net/;FileEndpoint=https://seanmcccanary.file.core.windows.net/;BlobSecondaryEndpoint=https://seanmcccanary-secondary.blob.core.windows.net/;QueueSecondaryEndpoint=https://seanmcccanary-secondary.queue.core.windows.net/;FileSecondaryEndpoint=https://seanmcccanary-secondary.file.core.windows.net/;AccountName=seanmcccanary;AccountKey=Sanitized\nseanscope1"
  }
}