{
  "Entries": [
    {
      "RequestUri": "https://mariari-westus2-formrecognizer.cognitiveservices.azure.com/formrecognizer/v2.0/custom/models",
      "RequestMethod": "POST",
      "RequestHeaders": {
        "Content-Length": "43",
        "Content-Type": "application/json",
        "Ocp-Apim-Subscription-Key": "Sanitized",
        "traceparent": "00-e04bcbb0d989994d90f58bf8e844f7a4-dbf4dcb834a30248-00",
        "User-Agent": [
          "azsdk-net-AI.FormRecognizer/3.0.0-dev.20200806.1",
          "(.NET Core 4.6.28516.03; Microsoft Windows 10.0.18363 )"
        ],
        "x-ms-client-request-id": "902f44a1ab3e02adf5a6c029a916d5fd",
        "x-ms-return-client-request-id": "true"
      },
      "RequestBody": {
        "source": "Sanitized",
        "useLabelFile": false
      },
      "StatusCode": 201,
      "ResponseHeaders": {
        "apim-request-id": "b1b70b18-05c5-4d31-bbb2-1b04e445c6a2",
        "Content-Length": "0",
        "Date": "Fri, 07 Aug 2020 02:39:06 GMT",
        "Location": "https://mariari-westus2-formrecognizer.cognitiveservices.azure.com/formrecognizer/v2.0/custom/models/3f87db49-3554-4a2c-a9fa-7bb97c1ff995",
        "Strict-Transport-Security": "max-age=31536000; includeSubDomains; preload",
        "X-Content-Type-Options": "nosniff",
        "x-envoy-upstream-service-time": "135"
      },
      "ResponseBody": []
    },
    {
      "RequestUri": "https://mariari-westus2-formrecognizer.cognitiveservices.azure.com/formrecognizer/v2.0/custom/models/3f87db49-3554-4a2c-a9fa-7bb97c1ff995?includeKeys=true",
      "RequestMethod": "GET",
      "RequestHeaders": {
        "Ocp-Apim-Subscription-Key": "Sanitized",
        "User-Agent": [
          "azsdk-net-AI.FormRecognizer/3.0.0-dev.20200806.1",
          "(.NET Core 4.6.28516.03; Microsoft Windows 10.0.18363 )"
        ],
        "x-ms-client-request-id": "f81ff1bad86835c78552338b26c60699",
        "x-ms-return-client-request-id": "true"
      },
      "RequestBody": null,
      "StatusCode": 200,
      "ResponseHeaders": {
        "apim-request-id": "4465e1c7-f9ca-4629-8598-864c6149d1ec",
        "Content-Type": "application/json; charset=utf-8",
        "Date": "Fri, 07 Aug 2020 02:39:06 GMT",
        "Strict-Transport-Security": "max-age=31536000; includeSubDomains; preload",
        "Transfer-Encoding": "chunked",
        "X-Content-Type-Options": "nosniff",
        "x-envoy-upstream-service-time": "40"
      },
      "ResponseBody": {
        "modelInfo": {
          "modelId": "3f87db49-3554-4a2c-a9fa-7bb97c1ff995",
          "status": "creating",
          "createdDateTime": "2020-08-07T02:39:06Z",
          "lastUpdatedDateTime": "2020-08-07T02:39:06Z"
        }
      }
    },
    {
      "RequestUri": "https://mariari-westus2-formrecognizer.cognitiveservices.azure.com/formrecognizer/v2.0/custom/models/3f87db49-3554-4a2c-a9fa-7bb97c1ff995?includeKeys=true",
      "RequestMethod": "GET",
      "RequestHeaders": {
        "Ocp-Apim-Subscription-Key": "Sanitized",
        "User-Agent": [
          "azsdk-net-AI.FormRecognizer/3.0.0-dev.20200806.1",
          "(.NET Core 4.6.28516.03; Microsoft Windows 10.0.18363 )"
        ],
        "x-ms-client-request-id": "63feaa82e994806a7c18ad59ebf59491",
        "x-ms-return-client-request-id": "true"
      },
      "RequestBody": null,
      "StatusCode": 200,
      "ResponseHeaders": {
        "apim-request-id": "28737c2c-9352-4d46-9869-208344a3928a",
        "Content-Type": "application/json; charset=utf-8",
        "Date": "Fri, 07 Aug 2020 02:39:07 GMT",
        "Strict-Transport-Security": "max-age=31536000; includeSubDomains; preload",
        "Transfer-Encoding": "chunked",
        "X-Content-Type-Options": "nosniff",
        "x-envoy-upstream-service-time": "53"
      },
      "ResponseBody": {
        "modelInfo": {
          "modelId": "3f87db49-3554-4a2c-a9fa-7bb97c1ff995",
          "status": "creating",
          "createdDateTime": "2020-08-07T02:39:06Z",
          "lastUpdatedDateTime": "2020-08-07T02:39:06Z"
        }
      }
    },
    {
      "RequestUri": "https://mariari-westus2-formrecognizer.cognitiveservices.azure.com/formrecognizer/v2.0/custom/models/3f87db49-3554-4a2c-a9fa-7bb97c1ff995?includeKeys=true",
      "RequestMethod": "GET",
      "RequestHeaders": {
        "Ocp-Apim-Subscription-Key": "Sanitized",
        "User-Agent": [
          "azsdk-net-AI.FormRecognizer/3.0.0-dev.20200806.1",
          "(.NET Core 4.6.28516.03; Microsoft Windows 10.0.18363 )"
        ],
        "x-ms-client-request-id": "beb794f1584bc8057df90beb7721db2f",
        "x-ms-return-client-request-id": "true"
      },
      "RequestBody": null,
      "StatusCode": 200,
      "ResponseHeaders": {
        "apim-request-id": "293e25f1-8a76-44ba-ad5d-70e43a4020ba",
        "Content-Type": "application/json; charset=utf-8",
        "Date": "Fri, 07 Aug 2020 02:39:08 GMT",
        "Strict-Transport-Security": "max-age=31536000; includeSubDomains; preload",
        "Transfer-Encoding": "chunked",
        "X-Content-Type-Options": "nosniff",
        "x-envoy-upstream-service-time": "19"
      },
      "ResponseBody": {
        "modelInfo": {
          "modelId": "3f87db49-3554-4a2c-a9fa-7bb97c1ff995",
          "status": "creating",
          "createdDateTime": "2020-08-07T02:39:06Z",
          "lastUpdatedDateTime": "2020-08-07T02:39:06Z"
        }
      }
    },
    {
      "RequestUri": "https://mariari-westus2-formrecognizer.cognitiveservices.azure.com/formrecognizer/v2.0/custom/models/3f87db49-3554-4a2c-a9fa-7bb97c1ff995?includeKeys=true",
      "RequestMethod": "GET",
      "RequestHeaders": {
        "Ocp-Apim-Subscription-Key": "Sanitized",
        "User-Agent": [
          "azsdk-net-AI.FormRecognizer/3.0.0-dev.20200806.1",
          "(.NET Core 4.6.28516.03; Microsoft Windows 10.0.18363 )"
        ],
        "x-ms-client-request-id": "fea6269f7218d068869e7c4f2a6d498f",
        "x-ms-return-client-request-id": "true"
      },
      "RequestBody": null,
      "StatusCode": 200,
      "ResponseHeaders": {
        "apim-request-id": "9197d479-3f89-4b1d-b283-2a168163f8d5",
        "Content-Type": "application/json; charset=utf-8",
        "Date": "Fri, 07 Aug 2020 02:39:09 GMT",
        "Strict-Transport-Security": "max-age=31536000; includeSubDomains; preload",
        "Transfer-Encoding": "chunked",
        "X-Content-Type-Options": "nosniff",
        "x-envoy-upstream-service-time": "30"
      },
      "ResponseBody": {
        "modelInfo": {
          "modelId": "3f87db49-3554-4a2c-a9fa-7bb97c1ff995",
          "status": "creating",
          "createdDateTime": "2020-08-07T02:39:06Z",
          "lastUpdatedDateTime": "2020-08-07T02:39:06Z"
        }
      }
    },
    {
      "RequestUri": "https://mariari-westus2-formrecognizer.cognitiveservices.azure.com/formrecognizer/v2.0/custom/models/3f87db49-3554-4a2c-a9fa-7bb97c1ff995?includeKeys=true",
      "RequestMethod": "GET",
      "RequestHeaders": {
        "Ocp-Apim-Subscription-Key": "Sanitized",
        "User-Agent": [
          "azsdk-net-AI.FormRecognizer/3.0.0-dev.20200806.1",
          "(.NET Core 4.6.28516.03; Microsoft Windows 10.0.18363 )"
        ],
        "x-ms-client-request-id": "9299a1be480e2a4ea536e59ade7e095a",
        "x-ms-return-client-request-id": "true"
      },
      "RequestBody": null,
      "StatusCode": 200,
      "ResponseHeaders": {
        "apim-request-id": "631b3fee-72cc-4f9b-8d41-4409ecf30c7c",
        "Content-Type": "application/json; charset=utf-8",
        "Date": "Fri, 07 Aug 2020 02:39:10 GMT",
        "Strict-Transport-Security": "max-age=31536000; includeSubDomains; preload",
        "Transfer-Encoding": "chunked",
        "X-Content-Type-Options": "nosniff",
        "x-envoy-upstream-service-time": "28"
      },
      "ResponseBody": {
        "modelInfo": {
          "modelId": "3f87db49-3554-4a2c-a9fa-7bb97c1ff995",
          "status": "creating",
          "createdDateTime": "2020-08-07T02:39:06Z",
          "lastUpdatedDateTime": "2020-08-07T02:39:06Z"
        }
      }
    },
    {
      "RequestUri": "https://mariari-westus2-formrecognizer.cognitiveservices.azure.com/formrecognizer/v2.0/custom/models/3f87db49-3554-4a2c-a9fa-7bb97c1ff995?includeKeys=true",
      "RequestMethod": "GET",
      "RequestHeaders": {
        "Ocp-Apim-Subscription-Key": "Sanitized",
        "User-Agent": [
          "azsdk-net-AI.FormRecognizer/3.0.0-dev.20200806.1",
          "(.NET Core 4.6.28516.03; Microsoft Windows 10.0.18363 )"
        ],
        "x-ms-client-request-id": "c5ba7e3d954f7f792be737addcb69d10",
        "x-ms-return-client-request-id": "true"
      },
      "RequestBody": null,
      "StatusCode": 200,
      "ResponseHeaders": {
        "apim-request-id": "985107b3-f049-424b-b21a-dec6314b6d21",
        "Content-Type": "application/json; charset=utf-8",
        "Date": "Fri, 07 Aug 2020 02:39:11 GMT",
        "Strict-Transport-Security": "max-age=31536000; includeSubDomains; preload",
        "Transfer-Encoding": "chunked",
        "X-Content-Type-Options": "nosniff",
        "x-envoy-upstream-service-time": "27"
      },
      "ResponseBody": {
        "modelInfo": {
          "modelId": "3f87db49-3554-4a2c-a9fa-7bb97c1ff995",
          "status": "creating",
          "createdDateTime": "2020-08-07T02:39:06Z",
          "lastUpdatedDateTime": "2020-08-07T02:39:06Z"
        }
      }
    },
    {
      "RequestUri": "https://mariari-westus2-formrecognizer.cognitiveservices.azure.com/formrecognizer/v2.0/custom/models/3f87db49-3554-4a2c-a9fa-7bb97c1ff995?includeKeys=true",
      "RequestMethod": "GET",
      "RequestHeaders": {
        "Ocp-Apim-Subscription-Key": "Sanitized",
        "User-Agent": [
          "azsdk-net-AI.FormRecognizer/3.0.0-dev.20200806.1",
          "(.NET Core 4.6.28516.03; Microsoft Windows 10.0.18363 )"
        ],
        "x-ms-client-request-id": "d52d7bb048885720d77c59e18ccdf107",
        "x-ms-return-client-request-id": "true"
      },
      "RequestBody": null,
      "StatusCode": 200,
      "ResponseHeaders": {
        "apim-request-id": "6e6964b3-cce7-44e7-b157-c46aff44d734",
        "Content-Type": "application/json; charset=utf-8",
        "Date": "Fri, 07 Aug 2020 02:39:12 GMT",
        "Strict-Transport-Security": "max-age=31536000; includeSubDomains; preload",
        "Transfer-Encoding": "chunked",
        "X-Content-Type-Options": "nosniff",
        "x-envoy-upstream-service-time": "57"
      },
      "ResponseBody": {
        "modelInfo": {
          "modelId": "3f87db49-3554-4a2c-a9fa-7bb97c1ff995",
          "status": "creating",
          "createdDateTime": "2020-08-07T02:39:06Z",
          "lastUpdatedDateTime": "2020-08-07T02:39:06Z"
        }
      }
    },
    {
      "RequestUri": "https://mariari-westus2-formrecognizer.cognitiveservices.azure.com/formrecognizer/v2.0/custom/models/3f87db49-3554-4a2c-a9fa-7bb97c1ff995?includeKeys=true",
      "RequestMethod": "GET",
      "RequestHeaders": {
        "Ocp-Apim-Subscription-Key": "Sanitized",
        "User-Agent": [
          "azsdk-net-AI.FormRecognizer/3.0.0-dev.20200806.1",
          "(.NET Core 4.6.28516.03; Microsoft Windows 10.0.18363 )"
        ],
        "x-ms-client-request-id": "ac12219484b328402819672710a14eef",
        "x-ms-return-client-request-id": "true"
      },
      "RequestBody": null,
      "StatusCode": 200,
      "ResponseHeaders": {
        "apim-request-id": "ae2793d4-85d3-4aeb-9c12-2541c96015b8",
        "Content-Type": "application/json; charset=utf-8",
        "Date": "Fri, 07 Aug 2020 02:39:19 GMT",
        "Strict-Transport-Security": "max-age=31536000; includeSubDomains; preload",
        "Transfer-Encoding": "chunked",
        "X-Content-Type-Options": "nosniff",
        "x-envoy-upstream-service-time": "5047"
      },
      "ResponseBody": {
        "modelInfo": {
          "modelId": "3f87db49-3554-4a2c-a9fa-7bb97c1ff995",
          "status": "creating",
          "createdDateTime": "2020-08-07T02:39:06Z",
          "lastUpdatedDateTime": "2020-08-07T02:39:06Z"
        }
      }
    },
    {
      "RequestUri": "https://mariari-westus2-formrecognizer.cognitiveservices.azure.com/formrecognizer/v2.0/custom/models/3f87db49-3554-4a2c-a9fa-7bb97c1ff995?includeKeys=true",
      "RequestMethod": "GET",
      "RequestHeaders": {
        "Ocp-Apim-Subscription-Key": "Sanitized",
        "User-Agent": [
          "azsdk-net-AI.FormRecognizer/3.0.0-dev.20200806.1",
          "(.NET Core 4.6.28516.03; Microsoft Windows 10.0.18363 )"
        ],
        "x-ms-client-request-id": "63ead5993350f4d25e62edd23b98f25d",
        "x-ms-return-client-request-id": "true"
      },
      "RequestBody": null,
      "StatusCode": 200,
      "ResponseHeaders": {
        "apim-request-id": "7bcc344d-ba58-430d-b8db-6297bc251359",
        "Content-Type": "application/json; charset=utf-8",
        "Date": "Fri, 07 Aug 2020 02:39:20 GMT",
        "Strict-Transport-Security": "max-age=31536000; includeSubDomains; preload",
        "Transfer-Encoding": "chunked",
        "X-Content-Type-Options": "nosniff",
        "x-envoy-upstream-service-time": "21"
      },
      "ResponseBody": {
        "modelInfo": {
          "modelId": "3f87db49-3554-4a2c-a9fa-7bb97c1ff995",
          "status": "ready",
          "createdDateTime": "2020-08-07T02:39:06Z",
          "lastUpdatedDateTime": "2020-08-07T02:39:17Z"
        },
        "keys": {
          "clusters": {
            "0": [
              "Contoso Ltd. Conference will be held on May 28-29, 2020 at the Elm Conference Center in",
              "Included",
              "Maple City, Massachusetts. The conference has sold out of its 1,500 tickets, with a 400 person",
              "Package",
              "Price",
              "Rates:",
              "Vendor #:",
              "Vendor Registration",
              "below, and attach a check made out to:",
              "waitlist. Vendor applications are being accepted through Feb 28, 2020. Please fill in the form"
            ],
            "1": [
              "Company Name:",
              "Contact:",
              "Preferred Package:",
              "Special Requests:",
              "Vendor #:",
              "Vendor Details:"
            ]
          }
        },
        "trainResult": {
          "trainingDocuments": [
            {
              "documentName": "multi1.pdf",
              "pages": 2,
              "errors": [],
              "status": "succeeded"
            },
            {
              "documentName": "multi2.pdf",
              "pages": 2,
              "errors": [],
              "status": "succeeded"
            },
            {
              "documentName": "multi3.pdf",
              "pages": 2,
              "errors": [],
              "status": "succeeded"
            },
            {
              "documentName": "multi4.pdf",
              "pages": 2,
              "errors": [],
              "status": "succeeded"
            },
            {
              "documentName": "multi5.pdf",
              "pages": 2,
              "errors": [],
              "status": "succeeded"
            }
          ],
          "errors": []
        }
      }
    }
  ],
  "Variables": {
    "FORM_RECOGNIZER_API_KEY": "Sanitized",
    "FORM_RECOGNIZER_ENDPOINT": "https://mariari-westus2-formrecognizer.cognitiveservices.azure.com/",
    "FORM_RECOGNIZER_MULTIPAGE_BLOB_CONTAINER_SAS_URL": "https://azuresdktrainingdata.blob.core.windows.net/multipage-vendor-forms?sp=rl\u0026st=2020-06-25T04:55:22Z\u0026se=2021-06-26T04:55:00Z\u0026sv=2019-10-10\u0026sr=c\u0026sig=Z25JFTIsP3tbxDjHP2CK05HxIS9uz1E%2FDaRfjeEUyaU%3D",
    "RandomSeed": "783490199"
  }
}