{
  "Entries": [
    {
      "RequestUri": "https://allkimprim.table.core.windows.net/Tables?$format=application%2Fjson%3Bodata%3Dfullmetadata",
      "RequestMethod": "POST",
      "RequestHeaders": {
        "Accept": "application/json",
        "Authorization": "Sanitized",
        "Content-Length": "33",
        "Content-Type": "application/json; odata=nometadata",
        "DataServiceVersion": "3.0",
        "traceparent": "00-79fcaa7ffdd98849b4ba3db15a9e091b-3778dd13a1350e49-00",
        "User-Agent": [
          "azsdk-net-Data.Tables/1.0.0-dev.20200729.1",
          "(.NET Core 4.6.29017.01; Microsoft Windows 10.0.19041 )"
        ],
        "x-ms-client-request-id": "142cecd7d31d2d75a5c29f8eccd0bb86",
        "x-ms-date": "Wed, 29 Jul 2020 23:38:16 GMT",
        "x-ms-return-client-request-id": "true",
        "x-ms-version": "2019-02-02"
      },
      "RequestBody": {
        "TableName": "testtablepb9bn996"
      },
      "StatusCode": 201,
      "ResponseHeaders": {
        "Cache-Control": "no-cache",
        "Content-Type": "application/json; odata=fullmetadata; streaming=true; charset=utf-8",
        "Date": "Wed, 29 Jul 2020 23:38:13 GMT",
        "Location": "https://allkimprim.table.core.windows.net/Tables(\u0027testtablepb9bn996\u0027)",
        "Server": [
          "Windows-Azure-Table/1.0",
          "Microsoft-HTTPAPI/2.0"
        ],
        "Transfer-Encoding": "chunked",
        "X-Content-Type-Options": "nosniff",
        "x-ms-client-request-id": "142cecd7d31d2d75a5c29f8eccd0bb86",
        "x-ms-request-id": "dce5dcb3-6002-0019-6d01-661f56000000",
        "x-ms-version": "2019-02-02"
      },
      "ResponseBody": {
        "odata.metadata": "https://allkimprim.table.core.windows.net/$metadata#Tables/@Element",
        "odata.type": "allkimprim.Tables",
        "odata.id": "https://allkimprim.table.core.windows.net/Tables(\u0027testtablepb9bn996\u0027)",
        "odata.editLink": "Tables(\u0027testtablepb9bn996\u0027)",
        "TableName": "testtablepb9bn996"
      }
    },
    {
      "RequestUri": "https://allkimprim.table.core.windows.net/testtablepb9bn996(PartitionKey=\u0027somPartition\u0027,RowKey=\u00271\u0027)?$format=application%2Fjson%3Bodata%3Dfullmetadata",
      "RequestMethod": "PUT",
      "RequestHeaders": {
        "Accept": "application/json",
        "Authorization": "Sanitized",
        "Content-Length": "117",
        "Content-Type": "application/json",
        "DataServiceVersion": "3.0",
        "traceparent": "00-3bc5b90b84e5cd468057c68cd94c4c88-12cd368f71003649-00",
        "User-Agent": [
          "azsdk-net-Data.Tables/1.0.0-dev.20200729.1",
          "(.NET Core 4.6.29017.01; Microsoft Windows 10.0.19041 )"
        ],
        "x-ms-client-request-id": "bb0ea30f01da9e7eda4b4622029e8b9e",
        "x-ms-date": "Wed, 29 Jul 2020 23:38:16 GMT",
        "x-ms-return-client-request-id": "true",
        "x-ms-version": "2019-02-02"
      },
      "RequestBody": {
        "StringTypeProperty": "This is the original",
        "PartitionKey": "somPartition",
        "RowKey": "1",
        "Timestamp": null,
        "ETag": null
      },
      "StatusCode": 204,
      "ResponseHeaders": {
        "Cache-Control": "no-cache",
        "Content-Length": "0",
        "Date": "Wed, 29 Jul 2020 23:38:13 GMT",
        "ETag": "W/\u0022datetime\u00272020-07-29T23%3A38%3A14.0734823Z\u0027\u0022",
        "Server": [
          "Windows-Azure-Table/1.0",
          "Microsoft-HTTPAPI/2.0"
        ],
        "X-Content-Type-Options": "nosniff",
        "x-ms-client-request-id": "bb0ea30f01da9e7eda4b4622029e8b9e",
        "x-ms-request-id": "dce5dcb6-6002-0019-6f01-661f56000000",
        "x-ms-version": "2019-02-02"
      },
      "ResponseBody": []
    },
    {
      "RequestUri": "https://allkimprim.table.core.windows.net/testtablepb9bn996()?$format=application%2Fjson%3Bodata%3Dfullmetadata\u0026$filter=PartitionKey%20eq%20%27somPartition%27%20and%20RowKey%20eq%20%271%27",
      "RequestMethod": "GET",
      "RequestHeaders": {
        "Accept": "application/json",
        "Authorization": "Sanitized",
        "DataServiceVersion": "3.0",
        "User-Agent": [
          "azsdk-net-Data.Tables/1.0.0-dev.20200729.1",
          "(.NET Core 4.6.29017.01; Microsoft Windows 10.0.19041 )"
        ],
        "x-ms-client-request-id": "9eea90a13f97e6835f66d933478498be",
        "x-ms-date": "Wed, 29 Jul 2020 23:38:16 GMT",
        "x-ms-return-client-request-id": "true",
        "x-ms-version": "2019-02-02"
      },
      "RequestBody": null,
      "StatusCode": 200,
      "ResponseHeaders": {
        "Cache-Control": "no-cache",
        "Content-Type": "application/json; odata=fullmetadata; streaming=true; charset=utf-8",
        "Date": "Wed, 29 Jul 2020 23:38:13 GMT",
        "Server": [
          "Windows-Azure-Table/1.0",
          "Microsoft-HTTPAPI/2.0"
        ],
        "Transfer-Encoding": "chunked",
        "X-Content-Type-Options": "nosniff",
        "x-ms-client-request-id": "9eea90a13f97e6835f66d933478498be",
        "x-ms-request-id": "dce5dcbc-6002-0019-7301-661f56000000",
        "x-ms-version": "2019-02-02"
      },
      "ResponseBody": {
        "odata.metadata": "https://allkimprim.table.core.windows.net/$metadata#testtablepb9bn996",
        "value": [
          {
            "odata.type": "allkimprim.testtablepb9bn996",
            "odata.id": "https://allkimprim.table.core.windows.net/testtablepb9bn996(PartitionKey=\u0027somPartition\u0027,RowKey=\u00271\u0027)",
            "odata.etag": "W/\u0022datetime\u00272020-07-29T23%3A38%3A14.0734823Z\u0027\u0022",
            "odata.editLink": "testtablepb9bn996(PartitionKey=\u0027somPartition\u0027,RowKey=\u00271\u0027)",
            "PartitionKey": "somPartition",
            "RowKey": "1",
            "Timestamp@odata.type": "Edm.DateTime",
            "Timestamp": "2020-07-29T23:38:14.0734823Z",
            "StringTypeProperty": "This is the original"
          }
        ]
      }
    },
    {
      "RequestUri": "https://allkimprim.table.core.windows.net/testtablepb9bn996(PartitionKey=\u0027somPartition\u0027,RowKey=\u00271\u0027)?$format=application%2Fjson%3Bodata%3Dfullmetadata",
      "RequestMethod": "DELETE",
      "RequestHeaders": {
        "Authorization": "Sanitized",
        "DataServiceVersion": "3.0",
        "If-Match": "*",
        "traceparent": "00-45bc8904a5a0214b89d95f6bf7717e3b-10c6c5a5c270cc4f-00",
        "User-Agent": [
          "azsdk-net-Data.Tables/1.0.0-dev.20200729.1",
          "(.NET Core 4.6.29017.01; Microsoft Windows 10.0.19041 )"
        ],
        "x-ms-client-request-id": "85bb5ae496cfebfdad7542882f0ba323",
        "x-ms-date": "Wed, 29 Jul 2020 23:38:16 GMT",
        "x-ms-return-client-request-id": "true",
        "x-ms-version": "2019-02-02"
      },
      "RequestBody": null,
      "StatusCode": 204,
      "ResponseHeaders": {
        "Cache-Control": "no-cache",
        "Content-Length": "0",
        "Date": "Wed, 29 Jul 2020 23:38:13 GMT",
        "Server": [
          "Windows-Azure-Table/1.0",
          "Microsoft-HTTPAPI/2.0"
        ],
        "X-Content-Type-Options": "nosniff",
        "x-ms-client-request-id": "85bb5ae496cfebfdad7542882f0ba323",
        "x-ms-request-id": "dce5dcbd-6002-0019-7401-661f56000000",
        "x-ms-version": "2019-02-02"
      },
      "ResponseBody": []
    },
    {
      "RequestUri": "https://allkimprim.table.core.windows.net/testtablepb9bn996()?$format=application%2Fjson%3Bodata%3Dfullmetadata\u0026$filter=PartitionKey%20eq%20%27somPartition%27%20and%20RowKey%20eq%20%271%27",
      "RequestMethod": "GET",
      "RequestHeaders": {
        "Accept": "application/json",
        "Authorization": "Sanitized",
        "DataServiceVersion": "3.0",
        "User-Agent": [
          "azsdk-net-Data.Tables/1.0.0-dev.20200729.1",
          "(.NET Core 4.6.29017.01; Microsoft Windows 10.0.19041 )"
        ],
        "x-ms-client-request-id": "402bf014e8d1cf8020275c73284b5756",
        "x-ms-date": "Wed, 29 Jul 2020 23:38:16 GMT",
        "x-ms-return-client-request-id": "true",
        "x-ms-version": "2019-02-02"
      },
      "RequestBody": null,
      "StatusCode": 200,
      "ResponseHeaders": {
        "Cache-Control": "no-cache",
        "Content-Type": "application/json; odata=fullmetadata; streaming=true; charset=utf-8",
        "Date": "Wed, 29 Jul 2020 23:38:13 GMT",
        "Server": [
          "Windows-Azure-Table/1.0",
          "Microsoft-HTTPAPI/2.0"
        ],
        "Transfer-Encoding": "chunked",
        "X-Content-Type-Options": "nosniff",
        "x-ms-client-request-id": "402bf014e8d1cf8020275c73284b5756",
        "x-ms-request-id": "dce5dcbe-6002-0019-7501-661f56000000",
        "x-ms-version": "2019-02-02"
      },
      "ResponseBody": {
        "odata.metadata": "https://allkimprim.table.core.windows.net/$metadata#testtablepb9bn996",
        "value": []
      }
    },
    {
      "RequestUri": "https://allkimprim.table.core.windows.net/testtablepb9bn996(PartitionKey=\u0027somPartition\u0027,RowKey=\u00271\u0027)?$format=application%2Fjson%3Bodata%3Dfullmetadata",
      "RequestMethod": "PUT",
      "RequestHeaders": {
        "Accept": "application/json",
        "Authorization": "Sanitized",
        "Content-Length": "117",
        "Content-Type": "application/json",
        "DataServiceVersion": "3.0",
        "traceparent": "00-2aaa91617748104ba47230733dd858a5-3b2e372ee3f4c245-00",
        "User-Agent": [
          "azsdk-net-Data.Tables/1.0.0-dev.20200729.1",
          "(.NET Core 4.6.29017.01; Microsoft Windows 10.0.19041 )"
        ],
        "x-ms-client-request-id": "a73e87b206e30bce92fff021fcfab754",
        "x-ms-date": "Wed, 29 Jul 2020 23:38:16 GMT",
        "x-ms-return-client-request-id": "true",
        "x-ms-version": "2019-02-02"
      },
      "RequestBody": {
        "StringTypeProperty": "This is the original",
        "PartitionKey": "somPartition",
        "RowKey": "1",
        "Timestamp": null,
        "ETag": null
      },
      "StatusCode": 204,
      "ResponseHeaders": {
        "Cache-Control": "no-cache",
        "Content-Length": "0",
        "Date": "Wed, 29 Jul 2020 23:38:14 GMT",
        "ETag": "W/\u0022datetime\u00272020-07-29T23%3A38%3A14.2786273Z\u0027\u0022",
        "Server": [
          "Windows-Azure-Table/1.0",
          "Microsoft-HTTPAPI/2.0"
        ],
        "X-Content-Type-Options": "nosniff",
        "x-ms-client-request-id": "a73e87b206e30bce92fff021fcfab754",
        "x-ms-request-id": "dce5dcc0-6002-0019-7701-661f56000000",
        "x-ms-version": "2019-02-02"
      },
      "ResponseBody": []
    },
    {
      "RequestUri": "https://allkimprim.table.core.windows.net/testtablepb9bn996()?$format=application%2Fjson%3Bodata%3Dfullmetadata\u0026$filter=PartitionKey%20eq%20%27somPartition%27%20and%20RowKey%20eq%20%271%27",
      "RequestMethod": "GET",
      "RequestHeaders": {
        "Accept": "application/json",
        "Authorization": "Sanitized",
        "DataServiceVersion": "3.0",
        "User-Agent": [
          "azsdk-net-Data.Tables/1.0.0-dev.20200729.1",
          "(.NET Core 4.6.29017.01; Microsoft Windows 10.0.19041 )"
        ],
        "x-ms-client-request-id": "571eb5c35859fbedd9eb64a73989c262",
        "x-ms-date": "Wed, 29 Jul 2020 23:38:16 GMT",
        "x-ms-return-client-request-id": "true",
        "x-ms-version": "2019-02-02"
      },
      "RequestBody": null,
      "StatusCode": 200,
      "ResponseHeaders": {
        "Cache-Control": "no-cache",
        "Content-Type": "application/json; odata=fullmetadata; streaming=true; charset=utf-8",
        "Date": "Wed, 29 Jul 2020 23:38:14 GMT",
        "Server": [
          "Windows-Azure-Table/1.0",
          "Microsoft-HTTPAPI/2.0"
        ],
        "Transfer-Encoding": "chunked",
        "X-Content-Type-Options": "nosniff",
        "x-ms-client-request-id": "571eb5c35859fbedd9eb64a73989c262",
        "x-ms-request-id": "dce5dcc2-6002-0019-7901-661f56000000",
        "x-ms-version": "2019-02-02"
      },
      "ResponseBody": {
        "odata.metadata": "https://allkimprim.table.core.windows.net/$metadata#testtablepb9bn996",
        "value": [
          {
            "odata.type": "allkimprim.testtablepb9bn996",
            "odata.id": "https://allkimprim.table.core.windows.net/testtablepb9bn996(PartitionKey=\u0027somPartition\u0027,RowKey=\u00271\u0027)",
            "odata.etag": "W/\u0022datetime\u00272020-07-29T23%3A38%3A14.2786273Z\u0027\u0022",
            "odata.editLink": "testtablepb9bn996(PartitionKey=\u0027somPartition\u0027,RowKey=\u00271\u0027)",
            "PartitionKey": "somPartition",
            "RowKey": "1",
            "Timestamp@odata.type": "Edm.DateTime",
            "Timestamp": "2020-07-29T23:38:14.2786273Z",
            "StringTypeProperty": "This is the original"
          }
        ]
      }
    },
    {
      "RequestUri": "https://allkimprim.table.core.windows.net/testtablepb9bn996(PartitionKey=\u0027somPartition\u0027,RowKey=\u00271\u0027)?$format=application%2Fjson%3Bodata%3Dfullmetadata",
      "RequestMethod": "DELETE",
      "RequestHeaders": {
        "Authorization": "Sanitized",
        "DataServiceVersion": "3.0",
        "If-Match": "W/\u0022datetime\u00272020-07-29T23%3A38%3A14.0734823Z\u0027\u0022",
        "traceparent": "00-3c0dc0fe7bb2be43b78777a717337284-da36e25e8fc4e447-00",
        "User-Agent": [
          "azsdk-net-Data.Tables/1.0.0-dev.20200729.1",
          "(.NET Core 4.6.29017.01; Microsoft Windows 10.0.19041 )"
        ],
        "x-ms-client-request-id": "a7d6ec1efbcc0e40221fadd2f75ed226",
        "x-ms-date": "Wed, 29 Jul 2020 23:38:17 GMT",
        "x-ms-return-client-request-id": "true",
        "x-ms-version": "2019-02-02"
      },
      "RequestBody": null,
      "StatusCode": 412,
      "ResponseHeaders": {
        "Cache-Control": "no-cache",
        "Content-Type": "application/json; odata=fullmetadata; streaming=true; charset=utf-8",
        "Date": "Wed, 29 Jul 2020 23:38:14 GMT",
        "Server": [
          "Windows-Azure-Table/1.0",
          "Microsoft-HTTPAPI/2.0"
        ],
        "Transfer-Encoding": "chunked",
        "X-Content-Type-Options": "nosniff",
        "x-ms-client-request-id": "a7d6ec1efbcc0e40221fadd2f75ed226",
        "x-ms-request-id": "dce5dcc3-6002-0019-7a01-661f56000000",
        "x-ms-version": "2019-02-02"
      },
      "ResponseBody": {
        "odata.error": {
          "code": "UpdateConditionNotSatisfied",
          "message": {
            "lang": "en-US",
            "value": "The update condition specified in the request was not satisfied.\nRequestId:dce5dcc3-6002-0019-7a01-661f56000000\nTime:2020-07-29T23:38:14.3870031Z"
          }
        }
      }
    },
    {
      "RequestUri": "https://allkimprim.table.core.windows.net/testtablepb9bn996(PartitionKey=\u0027somPartition\u0027,RowKey=\u00271\u0027)?$format=application%2Fjson%3Bodata%3Dfullmetadata",
      "RequestMethod": "DELETE",
      "RequestHeaders": {
        "Authorization": "Sanitized",
        "DataServiceVersion": "3.0",
        "If-Match": "W/\u0022datetime\u00272020-07-29T23%3A38%3A14.2786273Z\u0027\u0022",
        "traceparent": "00-9aa7731040c3d44fbe182b78dc3cf841-70728820c2896341-00",
        "User-Agent": [
          "azsdk-net-Data.Tables/1.0.0-dev.20200729.1",
          "(.NET Core 4.6.29017.01; Microsoft Windows 10.0.19041 )"
        ],
        "x-ms-client-request-id": "73b00770002c5afc9a42cef8a126d208",
        "x-ms-date": "Wed, 29 Jul 2020 23:38:17 GMT",
        "x-ms-return-client-request-id": "true",
        "x-ms-version": "2019-02-02"
      },
      "RequestBody": null,
      "StatusCode": 204,
      "ResponseHeaders": {
        "Cache-Control": "no-cache",
        "Content-Length": "0",
        "Date": "Wed, 29 Jul 2020 23:38:14 GMT",
        "Server": [
          "Windows-Azure-Table/1.0",
          "Microsoft-HTTPAPI/2.0"
        ],
        "X-Content-Type-Options": "nosniff",
        "x-ms-client-request-id": "73b00770002c5afc9a42cef8a126d208",
        "x-ms-request-id": "dce5dcc7-6002-0019-7e01-661f56000000",
        "x-ms-version": "2019-02-02"
      },
      "ResponseBody": []
    },
    {
      "RequestUri": "https://allkimprim.table.core.windows.net/testtablepb9bn996()?$format=application%2Fjson%3Bodata%3Dfullmetadata\u0026$filter=PartitionKey%20eq%20%27somPartition%27%20and%20RowKey%20eq%20%271%27",
      "RequestMethod": "GET",
      "RequestHeaders": {
        "Accept": "application/json",
        "Authorization": "Sanitized",
        "DataServiceVersion": "3.0",
        "User-Agent": [
          "azsdk-net-Data.Tables/1.0.0-dev.20200729.1",
          "(.NET Core 4.6.29017.01; Microsoft Windows 10.0.19041 )"
        ],
        "x-ms-client-request-id": "10038e3c0f24c7877510343aaa1a047a",
        "x-ms-date": "Wed, 29 Jul 2020 23:38:17 GMT",
        "x-ms-return-client-request-id": "true",
        "x-ms-version": "2019-02-02"
      },
      "RequestBody": null,
      "StatusCode": 200,
      "ResponseHeaders": {
        "Cache-Control": "no-cache",
        "Content-Type": "application/json; odata=fullmetadata; streaming=true; charset=utf-8",
        "Date": "Wed, 29 Jul 2020 23:38:14 GMT",
        "Server": [
          "Windows-Azure-Table/1.0",
          "Microsoft-HTTPAPI/2.0"
        ],
        "Transfer-Encoding": "chunked",
        "X-Content-Type-Options": "nosniff",
        "x-ms-client-request-id": "10038e3c0f24c7877510343aaa1a047a",
        "x-ms-request-id": "dce5dcc9-6002-0019-8001-661f56000000",
        "x-ms-version": "2019-02-02"
      },
      "ResponseBody": {
        "odata.metadata": "https://allkimprim.table.core.windows.net/$metadata#testtablepb9bn996",
        "value": []
      }
    },
    {
      "RequestUri": "https://allkimprim.table.core.windows.net/Tables(\u0027testtablepb9bn996\u0027)",
      "RequestMethod": "DELETE",
      "RequestHeaders": {
        "Accept": "application/json",
        "Authorization": "Sanitized",
        "traceparent": "00-3cb686bddeb1a04685ca879cbfc97b56-b5a03cb7261c4a41-00",
        "User-Agent": [
          "azsdk-net-Data.Tables/1.0.0-dev.20200729.1",
          "(.NET Core 4.6.29017.01; Microsoft Windows 10.0.19041 )"
        ],
        "x-ms-client-request-id": "31373e184fd91e36ef7b0d8a2d476cfb",
        "x-ms-date": "Wed, 29 Jul 2020 23:38:17 GMT",
        "x-ms-return-client-request-id": "true",
        "x-ms-version": "2019-02-02"
      },
      "RequestBody": null,
      "StatusCode": 204,
      "ResponseHeaders": {
        "Cache-Control": "no-cache",
        "Content-Length": "0",
        "Date": "Wed, 29 Jul 2020 23:38:14 GMT",
        "Server": [
          "Windows-Azure-Table/1.0",
          "Microsoft-HTTPAPI/2.0"
        ],
        "X-Content-Type-Options": "nosniff",
        "x-ms-client-request-id": "31373e184fd91e36ef7b0d8a2d476cfb",
        "x-ms-request-id": "dce5dcce-6002-0019-0501-661f56000000",
        "x-ms-version": "2019-02-02"
      },
      "ResponseBody": []
    }
  ],
  "Variables": {
    "RandomSeed": "1385473797",
    "TABLES_PRIMARY_STORAGE_ACCOUNT_KEY": "",
    "TABLES_STORAGE_ACCOUNT_NAME": "allkimprim"
  }
}