{
  "Entries": [
    {
      "RequestUri": "https://azsdknet-test-ta.cognitiveservices.azure.com/text/analytics/v3.1-preview.1/entities/linking",
      "RequestMethod": "POST",
      "RequestHeaders": {
        "Content-Length": "192",
        "Content-Type": "application/json",
        "Ocp-Apim-Subscription-Key": "Sanitized",
        "traceparent": "00-7f735e499a57854daca964f6bce75149-f4ab1882da2ae340-00",
        "User-Agent": [
          "azsdk-net-AI.TextAnalytics/1.1.0-dev.20200706.1",
          "(.NET Core 4.6.28516.03; Microsoft Windows 10.0.18363 )"
        ],
        "x-ms-client-request-id": "8170d58ce4a377c7879affbdcb7c4cbb",
        "x-ms-return-client-request-id": "true"
      },
      "RequestBody": {
        "documents": [
          {
            "language": "en",
            "id": "0",
            "text": "Microsoft was founded by Bill Gates and Paul Allen."
          },
          {
            "language": "en",
            "id": "1",
            "text": "Pike place market is my favorite Seattle attraction."
          }
        ]
      },
      "StatusCode": 200,
      "ResponseHeaders": {
        "apim-request-id": "2740bf18-f52f-488d-a1be-a4054fc09c7a",
        "Content-Type": "application/json; charset=utf-8",
        "csp-billing-usage": "CognitiveServices.TextAnalytics.BatchScoring=2",
        "Date": "Mon, 06 Jul 2020 22:03:56 GMT",
        "Strict-Transport-Security": "max-age=31536000; includeSubDomains; preload",
        "Transfer-Encoding": "chunked",
        "X-Content-Type-Options": "nosniff",
        "x-envoy-upstream-service-time": "18"
      },
      "ResponseBody": {
        "documents": [
          {
            "id": "0",
            "entities": [
              {
                "name": "Bill Gates",
                "matches": [
                  {
                    "text": "Bill Gates",
                    "offset": 25,
                    "length": 10,
                    "confidenceScore": 0.52
                  }
                ],
                "language": "en",
                "id": "Bill Gates",
                "url": "https://en.wikipedia.org/wiki/Bill_Gates",
                "dataSource": "Wikipedia"
              },
              {
                "name": "Paul Allen",
                "matches": [
                  {
                    "text": "Paul Allen",
                    "offset": 40,
                    "length": 10,
                    "confidenceScore": 0.54
                  }
                ],
                "language": "en",
                "id": "Paul Allen",
                "url": "https://en.wikipedia.org/wiki/Paul_Allen",
                "dataSource": "Wikipedia"
              },
              {
                "name": "Microsoft",
                "matches": [
                  {
                    "text": "Microsoft",
                    "offset": 0,
                    "length": 9,
                    "confidenceScore": 0.49
                  }
                ],
                "language": "en",
                "id": "Microsoft",
                "url": "https://en.wikipedia.org/wiki/Microsoft",
                "dataSource": "Wikipedia"
              }
            ],
            "warnings": []
          },
          {
            "id": "1",
            "entities": [
              {
                "name": "Pike Place Market",
                "matches": [
                  {
                    "text": "Pike place market",
                    "offset": 0,
                    "length": 17,
                    "confidenceScore": 0.86
                  }
                ],
                "language": "en",
                "id": "Pike Place Market",
                "url": "https://en.wikipedia.org/wiki/Pike_Place_Market",
                "dataSource": "Wikipedia"
              },
              {
                "name": "Seattle",
                "matches": [
                  {
                    "text": "Seattle",
                    "offset": 33,
                    "length": 7,
                    "confidenceScore": 0.27
                  }
                ],
                "language": "en",
                "id": "Seattle",
                "url": "https://en.wikipedia.org/wiki/Seattle",
                "dataSource": "Wikipedia"
              }
            ],
            "warnings": []
          }
        ],
        "errors": [],
        "modelVersion": "2020-02-01"
      }
    }
  ],
  "Variables": {
    "RandomSeed": "749377429",
    "TEXT_ANALYTICS_API_KEY": "Sanitized",
    "TEXT_ANALYTICS_ENDPOINT": "https://azsdknet-test-ta.cognitiveservices.azure.com/"
  }
}