{
  "Entries": [
    {
      "RequestUri": "https://chrissscratch.table.core.windows.net/Tables?$format=application%2Fjson%3Bodata%3Dfullmetadata",
      "RequestMethod": "POST",
      "RequestHeaders": {
        "Accept": "application/json",
        "Authorization": "Sanitized",
        "Content-Length": "33",
        "Content-Type": "application/json; odata=nometadata",
        "DataServiceVersion": "3.0",
        "traceparent": "00-1605719a319af643bdcac27fedeb9a2c-d5af8b49104cec4e-00",
        "User-Agent": [
          "azsdk-net-Data.Tables/1.0.0-dev.20200723.1",
          "(.NET Core 4.6.29017.01; Microsoft Windows 10.0.18363 )"
        ],
        "x-ms-client-request-id": "c6987e219d3580bd6ed12a9c20445987",
        "x-ms-date": "Thu, 23 Jul 2020 14:50:31 GMT",
        "x-ms-return-client-request-id": "true",
        "x-ms-version": "2019-02-02"
      },
      "RequestBody": {
        "TableName": "testtablensh1v1gm"
      },
      "StatusCode": 201,
      "ResponseHeaders": {
        "Cache-Control": "no-cache",
        "Content-Type": "application/json; odata=fullmetadata; streaming=true; charset=utf-8",
        "Date": "Thu, 23 Jul 2020 14:50:31 GMT",
        "Location": "https://chrissscratch.table.core.windows.net/Tables(\u0027testtablensh1v1gm\u0027)",
        "Server": [
          "Windows-Azure-Table/1.0",
          "Microsoft-HTTPAPI/2.0"
        ],
        "Transfer-Encoding": "chunked",
        "X-Content-Type-Options": "nosniff",
        "x-ms-client-request-id": "c6987e219d3580bd6ed12a9c20445987",
        "x-ms-request-id": "351e6f0f-b002-0076-2e00-614054000000",
        "x-ms-version": "2019-02-02"
      },
      "ResponseBody": {
        "odata.metadata": "https://chrissscratch.table.core.windows.net/$metadata#Tables/@Element",
        "odata.type": "chrissscratch.Tables",
        "odata.id": "https://chrissscratch.table.core.windows.net/Tables(\u0027testtablensh1v1gm\u0027)",
        "odata.editLink": "Tables(\u0027testtablensh1v1gm\u0027)",
        "TableName": "testtablensh1v1gm"
      }
    },
    {
      "RequestUri": "https://chrissscratch.table.core.windows.net/?restype=service\u0026comp=properties",
      "RequestMethod": "GET",
      "RequestHeaders": {
        "Authorization": "Sanitized",
        "traceparent": "00-5a681608c227b14b9ab411a794af0ead-e7a6a5ea4a0f7e46-00",
        "User-Agent": [
          "azsdk-net-Data.Tables/1.0.0-dev.20200723.1",
          "(.NET Core 4.6.29017.01; Microsoft Windows 10.0.18363 )"
        ],
        "x-ms-client-request-id": "8a44e9a0fa39f45e391da84080f2047f",
        "x-ms-date": "Thu, 23 Jul 2020 14:50:32 GMT",
        "x-ms-return-client-request-id": "true",
        "x-ms-version": "2019-02-02"
      },
      "RequestBody": null,
      "StatusCode": 200,
      "ResponseHeaders": {
        "Content-Type": "application/xml",
        "Date": "Thu, 23 Jul 2020 14:50:31 GMT",
        "Server": [
          "Windows-Azure-Table/1.0",
          "Microsoft-HTTPAPI/2.0"
        ],
        "Transfer-Encoding": "chunked",
        "x-ms-client-request-id": "8a44e9a0fa39f45e391da84080f2047f",
        "x-ms-request-id": "351e6f41-b002-0076-5d00-614054000000",
        "x-ms-version": "2019-02-02"
      },
      "ResponseBody": "\uFEFF\u003C?xml version=\u00221.0\u0022 encoding=\u0022utf-8\u0022?\u003E\u003CStorageServiceProperties\u003E\u003CLogging\u003E\u003CVersion\u003E1.0\u003C/Version\u003E\u003CRead\u003Efalse\u003C/Read\u003E\u003CWrite\u003Efalse\u003C/Write\u003E\u003CDelete\u003Efalse\u003C/Delete\u003E\u003CRetentionPolicy\u003E\u003CEnabled\u003Efalse\u003C/Enabled\u003E\u003C/RetentionPolicy\u003E\u003C/Logging\u003E\u003CHourMetrics\u003E\u003CVersion\u003E1.0\u003C/Version\u003E\u003CEnabled\u003Etrue\u003C/Enabled\u003E\u003CIncludeAPIs\u003Etrue\u003C/IncludeAPIs\u003E\u003CRetentionPolicy\u003E\u003CEnabled\u003Etrue\u003C/Enabled\u003E\u003CDays\u003E7\u003C/Days\u003E\u003C/RetentionPolicy\u003E\u003C/HourMetrics\u003E\u003CMinuteMetrics\u003E\u003CVersion\u003E1.0\u003C/Version\u003E\u003CEnabled\u003Efalse\u003C/Enabled\u003E\u003CRetentionPolicy\u003E\u003CEnabled\u003Efalse\u003C/Enabled\u003E\u003C/RetentionPolicy\u003E\u003C/MinuteMetrics\u003E\u003CCors /\u003E\u003C/StorageServiceProperties\u003E"
    },
    {
      "RequestUri": "https://chrissscratch.table.core.windows.net/?restype=service\u0026comp=properties",
      "RequestMethod": "PUT",
      "RequestHeaders": {
        "Authorization": "Sanitized",
        "Content-Length": "534",
        "Content-Type": "application/xml",
        "traceparent": "00-c2db9537928a98409b2d0be277e33d2d-4a0ead541893764f-00",
        "User-Agent": [
          "azsdk-net-Data.Tables/1.0.0-dev.20200723.1",
          "(.NET Core 4.6.29017.01; Microsoft Windows 10.0.18363 )"
        ],
        "x-ms-client-request-id": "f183366c50cf8e748155f2daf9eb7840",
        "x-ms-date": "Thu, 23 Jul 2020 14:50:32 GMT",
        "x-ms-return-client-request-id": "true",
        "x-ms-version": "2019-02-02"
      },
      "RequestBody": "\uFEFF\u003CStorageServiceProperties\u003E\u003CLogging\u003E\u003CVersion\u003E1.0\u003C/Version\u003E\u003CDelete\u003Efalse\u003C/Delete\u003E\u003CRead\u003Etrue\u003C/Read\u003E\u003CWrite\u003Efalse\u003C/Write\u003E\u003CRetentionPolicy\u003E\u003CEnabled\u003Efalse\u003C/Enabled\u003E\u003C/RetentionPolicy\u003E\u003C/Logging\u003E\u003CHourMetrics\u003E\u003CVersion\u003E1.0\u003C/Version\u003E\u003CEnabled\u003Etrue\u003C/Enabled\u003E\u003CIncludeAPIs\u003Etrue\u003C/IncludeAPIs\u003E\u003CRetentionPolicy\u003E\u003CEnabled\u003Etrue\u003C/Enabled\u003E\u003CDays\u003E7\u003C/Days\u003E\u003C/RetentionPolicy\u003E\u003C/HourMetrics\u003E\u003CMinuteMetrics\u003E\u003CVersion\u003E1.0\u003C/Version\u003E\u003CEnabled\u003Efalse\u003C/Enabled\u003E\u003CRetentionPolicy\u003E\u003CEnabled\u003Efalse\u003C/Enabled\u003E\u003C/RetentionPolicy\u003E\u003C/MinuteMetrics\u003E\u003CCors /\u003E\u003C/StorageServiceProperties\u003E",
      "StatusCode": 202,
      "ResponseHeaders": {
        "Date": "Thu, 23 Jul 2020 14:50:31 GMT",
        "Server": [
          "Windows-Azure-Table/1.0",
          "Microsoft-HTTPAPI/2.0"
        ],
        "Transfer-Encoding": "chunked",
        "x-ms-client-request-id": "f183366c50cf8e748155f2daf9eb7840",
        "x-ms-request-id": "351e6f4e-b002-0076-6900-614054000000",
        "x-ms-version": "2019-02-02"
      },
      "ResponseBody": []
    },
    {
      "RequestUri": "https://chrissscratch.table.core.windows.net/?restype=service\u0026comp=properties",
      "RequestMethod": "GET",
      "RequestHeaders": {
        "Authorization": "Sanitized",
        "traceparent": "00-98b6081d23b41945add1610bede98996-cce8515072210a4f-00",
        "User-Agent": [
          "azsdk-net-Data.Tables/1.0.0-dev.20200723.1",
          "(.NET Core 4.6.29017.01; Microsoft Windows 10.0.18363 )"
        ],
        "x-ms-client-request-id": "48b9aa751fa226d920a48d18f47c007b",
        "x-ms-date": "Thu, 23 Jul 2020 14:50:52 GMT",
        "x-ms-return-client-request-id": "true",
        "x-ms-version": "2019-02-02"
      },
      "RequestBody": null,
      "StatusCode": 200,
      "ResponseHeaders": {
        "Content-Type": "application/xml",
        "Date": "Thu, 23 Jul 2020 14:50:51 GMT",
        "Server": [
          "Windows-Azure-Table/1.0",
          "Microsoft-HTTPAPI/2.0"
        ],
        "Transfer-Encoding": "chunked",
        "x-ms-client-request-id": "48b9aa751fa226d920a48d18f47c007b",
        "x-ms-request-id": "351e8429-b002-0076-4100-614054000000",
        "x-ms-version": "2019-02-02"
      },
      "ResponseBody": "\uFEFF\u003C?xml version=\u00221.0\u0022 encoding=\u0022utf-8\u0022?\u003E\u003CStorageServiceProperties\u003E\u003CLogging\u003E\u003CVersion\u003E1.0\u003C/Version\u003E\u003CRead\u003Etrue\u003C/Read\u003E\u003CWrite\u003Efalse\u003C/Write\u003E\u003CDelete\u003Efalse\u003C/Delete\u003E\u003CRetentionPolicy\u003E\u003CEnabled\u003Efalse\u003C/Enabled\u003E\u003C/RetentionPolicy\u003E\u003C/Logging\u003E\u003CHourMetrics\u003E\u003CVersion\u003E1.0\u003C/Version\u003E\u003CEnabled\u003Etrue\u003C/Enabled\u003E\u003CIncludeAPIs\u003Etrue\u003C/IncludeAPIs\u003E\u003CRetentionPolicy\u003E\u003CEnabled\u003Etrue\u003C/Enabled\u003E\u003CDays\u003E7\u003C/Days\u003E\u003C/RetentionPolicy\u003E\u003C/HourMetrics\u003E\u003CMinuteMetrics\u003E\u003CVersion\u003E1.0\u003C/Version\u003E\u003CEnabled\u003Efalse\u003C/Enabled\u003E\u003CRetentionPolicy\u003E\u003CEnabled\u003Efalse\u003C/Enabled\u003E\u003C/RetentionPolicy\u003E\u003C/MinuteMetrics\u003E\u003CCors /\u003E\u003C/StorageServiceProperties\u003E"
    },
    {
      "RequestUri": "https://chrissscratch.table.core.windows.net/Tables(\u0027testtablensh1v1gm\u0027)",
      "RequestMethod": "DELETE",
      "RequestHeaders": {
        "Accept": "application/json",
        "Authorization": "Sanitized",
        "traceparent": "00-bc3cb7f826d75f4e9f6e0d1312dade33-81f991addcba3d47-00",
        "User-Agent": [
          "azsdk-net-Data.Tables/1.0.0-dev.20200723.1",
          "(.NET Core 4.6.29017.01; Microsoft Windows 10.0.18363 )"
        ],
        "x-ms-client-request-id": "e92faacd67c150b874b609e30883fa4d",
        "x-ms-date": "Thu, 23 Jul 2020 14:50:52 GMT",
        "x-ms-return-client-request-id": "true",
        "x-ms-version": "2019-02-02"
      },
      "RequestBody": null,
      "StatusCode": 204,
      "ResponseHeaders": {
        "Cache-Control": "no-cache",
        "Content-Length": "0",
        "Date": "Thu, 23 Jul 2020 14:50:52 GMT",
        "Server": [
          "Windows-Azure-Table/1.0",
          "Microsoft-HTTPAPI/2.0"
        ],
        "X-Content-Type-Options": "nosniff",
        "x-ms-client-request-id": "e92faacd67c150b874b609e30883fa4d",
        "x-ms-request-id": "351e8439-b002-0076-5000-614054000000",
        "x-ms-version": "2019-02-02"
      },
      "ResponseBody": []
    }
  ],
  "Variables": {
    "RandomSeed": "2116792601",
    "TABLES_PRIMARY_STORAGE_ACCOUNT_KEY": "",
    "TABLES_STORAGE_ACCOUNT_NAME": "chrissscratch"
  }
}