{
  "Entries": [
    {
      "RequestUri": "https://chrissscratch.table.core.windows.net/Tables?$format=application%2Fjson%3Bodata%3Dfullmetadata",
      "RequestMethod": "POST",
      "RequestHeaders": {
        "Accept": "application/json",
        "Authorization": "Sanitized",
        "Content-Length": "33",
        "Content-Type": "application/json; odata=nometadata",
        "DataServiceVersion": "3.0",
        "traceparent": "00-a78ec711ac5f0f4db807ecde9ac25e7f-53ec88ce45a7a345-00",
        "User-Agent": [
          "azsdk-net-Data.Tables/1.0.0-dev.20200717.1",
          "(.NET Core 4.6.29017.01; Microsoft Windows 10.0.18363 )"
        ],
        "x-ms-client-request-id": "49a8fb530e6b2a029ab3d9b3129aa6e3",
        "x-ms-date": "Fri, 17 Jul 2020 22:10:14 GMT",
        "x-ms-return-client-request-id": "true",
        "x-ms-version": "2019-02-02"
      },
      "RequestBody": {
        "TableName": "testtable9cqd6ut9"
      },
      "StatusCode": 201,
      "ResponseHeaders": {
        "Cache-Control": "no-cache",
        "Content-Type": "application/json; odata=fullmetadata; streaming=true; charset=utf-8",
        "Date": "Fri, 17 Jul 2020 22:10:13 GMT",
        "Location": "https://chrissscratch.table.core.windows.net/Tables(\u0027testtable9cqd6ut9\u0027)",
        "Server": [
          "Windows-Azure-Table/1.0",
          "Microsoft-HTTPAPI/2.0"
        ],
        "Transfer-Encoding": "chunked",
        "X-Content-Type-Options": "nosniff",
        "x-ms-client-request-id": "49a8fb530e6b2a029ab3d9b3129aa6e3",
        "x-ms-request-id": "9b334d1d-4002-002c-3887-5c46d5000000",
        "x-ms-version": "2019-02-02"
      },
      "ResponseBody": {
        "odata.metadata": "https://chrissscratch.table.core.windows.net/$metadata#Tables/@Element",
        "odata.type": "chrissscratch.Tables",
        "odata.id": "https://chrissscratch.table.core.windows.net/Tables(\u0027testtable9cqd6ut9\u0027)",
        "odata.editLink": "Tables(\u0027testtable9cqd6ut9\u0027)",
        "TableName": "testtable9cqd6ut9"
      }
    },
    {
      "RequestUri": "https://chrissscratch.table.core.windows.net/Tables?$format=application%2Fjson%3Bodata%3Dfullmetadata",
      "RequestMethod": "POST",
      "RequestHeaders": {
        "Accept": "application/json",
        "Authorization": "Sanitized",
        "Content-Length": "33",
        "Content-Type": "application/json; odata=nometadata",
        "DataServiceVersion": "3.0",
        "traceparent": "00-391c7caab79e6a49be3d2e3c27b042a4-91785ff5d6475741-00",
        "User-Agent": [
          "azsdk-net-Data.Tables/1.0.0-dev.20200717.1",
          "(.NET Core 4.6.29017.01; Microsoft Windows 10.0.18363 )"
        ],
        "x-ms-client-request-id": "1797db478043b29a90da10d4e3903acc",
        "x-ms-date": "Fri, 17 Jul 2020 22:10:14 GMT",
        "x-ms-return-client-request-id": "true",
        "x-ms-version": "2019-02-02"
      },
      "RequestBody": {
        "TableName": "testtablekudhucwx"
      },
      "StatusCode": 201,
      "ResponseHeaders": {
        "Cache-Control": "no-cache",
        "Content-Type": "application/json; odata=fullmetadata; streaming=true; charset=utf-8",
        "Date": "Fri, 17 Jul 2020 22:10:13 GMT",
        "Location": "https://chrissscratch.table.core.windows.net/Tables(\u0027testtablekudhucwx\u0027)",
        "Server": [
          "Windows-Azure-Table/1.0",
          "Microsoft-HTTPAPI/2.0"
        ],
        "Transfer-Encoding": "chunked",
        "X-Content-Type-Options": "nosniff",
        "x-ms-client-request-id": "1797db478043b29a90da10d4e3903acc",
        "x-ms-request-id": "9b334d24-4002-002c-3e87-5c46d5000000",
        "x-ms-version": "2019-02-02"
      },
      "ResponseBody": {
        "odata.metadata": "https://chrissscratch.table.core.windows.net/$metadata#Tables/@Element",
        "odata.type": "chrissscratch.Tables",
        "odata.id": "https://chrissscratch.table.core.windows.net/Tables(\u0027testtablekudhucwx\u0027)",
        "odata.editLink": "Tables(\u0027testtablekudhucwx\u0027)",
        "TableName": "testtablekudhucwx"
      }
    },
    {
      "RequestUri": "https://chrissscratch.table.core.windows.net/Tables?$format=application%2Fjson%3Bodata%3Dfullmetadata",
      "RequestMethod": "POST",
      "RequestHeaders": {
        "Accept": "application/json",
        "Authorization": "Sanitized",
        "Content-Length": "33",
        "Content-Type": "application/json; odata=nometadata",
        "DataServiceVersion": "3.0",
        "traceparent": "00-07daa84e33d69646b8f70265da46a908-0c2435adcf869744-00",
        "User-Agent": [
          "azsdk-net-Data.Tables/1.0.0-dev.20200717.1",
          "(.NET Core 4.6.29017.01; Microsoft Windows 10.0.18363 )"
        ],
        "x-ms-client-request-id": "ee2b54ab9c9f1ff20236018f77eae719",
        "x-ms-date": "Fri, 17 Jul 2020 22:10:14 GMT",
        "x-ms-return-client-request-id": "true",
        "x-ms-version": "2019-02-02"
      },
      "RequestBody": {
        "TableName": "testtablevkcwdk2z"
      },
      "StatusCode": 201,
      "ResponseHeaders": {
        "Cache-Control": "no-cache",
        "Content-Type": "application/json; odata=fullmetadata; streaming=true; charset=utf-8",
        "Date": "Fri, 17 Jul 2020 22:10:13 GMT",
        "Location": "https://chrissscratch.table.core.windows.net/Tables(\u0027testtablevkcwdk2z\u0027)",
        "Server": [
          "Windows-Azure-Table/1.0",
          "Microsoft-HTTPAPI/2.0"
        ],
        "Transfer-Encoding": "chunked",
        "X-Content-Type-Options": "nosniff",
        "x-ms-client-request-id": "ee2b54ab9c9f1ff20236018f77eae719",
        "x-ms-request-id": "9b334d32-4002-002c-4b87-5c46d5000000",
        "x-ms-version": "2019-02-02"
      },
      "ResponseBody": {
        "odata.metadata": "https://chrissscratch.table.core.windows.net/$metadata#Tables/@Element",
        "odata.type": "chrissscratch.Tables",
        "odata.id": "https://chrissscratch.table.core.windows.net/Tables(\u0027testtablevkcwdk2z\u0027)",
        "odata.editLink": "Tables(\u0027testtablevkcwdk2z\u0027)",
        "TableName": "testtablevkcwdk2z"
      }
    },
    {
      "RequestUri": "https://chrissscratch.table.core.windows.net/Tables?$format=application%2Fjson%3Bodata%3Dfullmetadata",
      "RequestMethod": "POST",
      "RequestHeaders": {
        "Accept": "application/json",
        "Authorization": "Sanitized",
        "Content-Length": "33",
        "Content-Type": "application/json; odata=nometadata",
        "DataServiceVersion": "3.0",
        "traceparent": "00-4c87c6f3861ea14ca66a3453dd9095a9-79339e78546d6243-00",
        "User-Agent": [
          "azsdk-net-Data.Tables/1.0.0-dev.20200717.1",
          "(.NET Core 4.6.29017.01; Microsoft Windows 10.0.18363 )"
        ],
        "x-ms-client-request-id": "02652e9af6cff0d4bee16cee55ab13f3",
        "x-ms-date": "Fri, 17 Jul 2020 22:10:14 GMT",
        "x-ms-return-client-request-id": "true",
        "x-ms-version": "2019-02-02"
      },
      "RequestBody": {
        "TableName": "testtablew8v0kzax"
      },
      "StatusCode": 201,
      "ResponseHeaders": {
        "Cache-Control": "no-cache",
        "Content-Type": "application/json; odata=fullmetadata; streaming=true; charset=utf-8",
        "Date": "Fri, 17 Jul 2020 22:10:13 GMT",
        "Location": "https://chrissscratch.table.core.windows.net/Tables(\u0027testtablew8v0kzax\u0027)",
        "Server": [
          "Windows-Azure-Table/1.0",
          "Microsoft-HTTPAPI/2.0"
        ],
        "Transfer-Encoding": "chunked",
        "X-Content-Type-Options": "nosniff",
        "x-ms-client-request-id": "02652e9af6cff0d4bee16cee55ab13f3",
        "x-ms-request-id": "9b334d3c-4002-002c-5387-5c46d5000000",
        "x-ms-version": "2019-02-02"
      },
      "ResponseBody": {
        "odata.metadata": "https://chrissscratch.table.core.windows.net/$metadata#Tables/@Element",
        "odata.type": "chrissscratch.Tables",
        "odata.id": "https://chrissscratch.table.core.windows.net/Tables(\u0027testtablew8v0kzax\u0027)",
        "odata.editLink": "Tables(\u0027testtablew8v0kzax\u0027)",
        "TableName": "testtablew8v0kzax"
      }
    },
    {
      "RequestUri": "https://chrissscratch.table.core.windows.net/Tables?$format=application%2Fjson%3Bodata%3Dfullmetadata",
      "RequestMethod": "POST",
      "RequestHeaders": {
        "Accept": "application/json",
        "Authorization": "Sanitized",
        "Content-Length": "33",
        "Content-Type": "application/json; odata=nometadata",
        "DataServiceVersion": "3.0",
        "traceparent": "00-68dfe147d2eaab44aae2557e89e5b58c-3c95b653d679cb4a-00",
        "User-Agent": [
          "azsdk-net-Data.Tables/1.0.0-dev.20200717.1",
          "(.NET Core 4.6.29017.01; Microsoft Windows 10.0.18363 )"
        ],
        "x-ms-client-request-id": "77e94abce533d92c5421547036f04f0b",
        "x-ms-date": "Fri, 17 Jul 2020 22:10:14 GMT",
        "x-ms-return-client-request-id": "true",
        "x-ms-version": "2019-02-02"
      },
      "RequestBody": {
        "TableName": "testtablehiw8h3cq"
      },
      "StatusCode": 201,
      "ResponseHeaders": {
        "Cache-Control": "no-cache",
        "Content-Type": "application/json; odata=fullmetadata; streaming=true; charset=utf-8",
        "Date": "Fri, 17 Jul 2020 22:10:13 GMT",
        "Location": "https://chrissscratch.table.core.windows.net/Tables(\u0027testtablehiw8h3cq\u0027)",
        "Server": [
          "Windows-Azure-Table/1.0",
          "Microsoft-HTTPAPI/2.0"
        ],
        "Transfer-Encoding": "chunked",
        "X-Content-Type-Options": "nosniff",
        "x-ms-client-request-id": "77e94abce533d92c5421547036f04f0b",
        "x-ms-request-id": "9b334d4d-4002-002c-5e87-5c46d5000000",
        "x-ms-version": "2019-02-02"
      },
      "ResponseBody": {
        "odata.metadata": "https://chrissscratch.table.core.windows.net/$metadata#Tables/@Element",
        "odata.type": "chrissscratch.Tables",
        "odata.id": "https://chrissscratch.table.core.windows.net/Tables(\u0027testtablehiw8h3cq\u0027)",
        "odata.editLink": "Tables(\u0027testtablehiw8h3cq\u0027)",
        "TableName": "testtablehiw8h3cq"
      }
    },
    {
      "RequestUri": "https://chrissscratch.table.core.windows.net/Tables?$format=application%2Fjson%3Bodata%3Dfullmetadata",
      "RequestMethod": "POST",
      "RequestHeaders": {
        "Accept": "application/json",
        "Authorization": "Sanitized",
        "Content-Length": "33",
        "Content-Type": "application/json; odata=nometadata",
        "DataServiceVersion": "3.0",
        "traceparent": "00-122081b154ad9447a237363f06dfc729-9ef52b737feb6f49-00",
        "User-Agent": [
          "azsdk-net-Data.Tables/1.0.0-dev.20200717.1",
          "(.NET Core 4.6.29017.01; Microsoft Windows 10.0.18363 )"
        ],
        "x-ms-client-request-id": "984f2f1353ffef7bd98645850d5dbcd9",
        "x-ms-date": "Fri, 17 Jul 2020 22:10:14 GMT",
        "x-ms-return-client-request-id": "true",
        "x-ms-version": "2019-02-02"
      },
      "RequestBody": {
        "TableName": "testtablewe6y0yh4"
      },
      "StatusCode": 201,
      "ResponseHeaders": {
        "Cache-Control": "no-cache",
        "Content-Type": "application/json; odata=fullmetadata; streaming=true; charset=utf-8",
        "Date": "Fri, 17 Jul 2020 22:10:13 GMT",
        "Location": "https://chrissscratch.table.core.windows.net/Tables(\u0027testtablewe6y0yh4\u0027)",
        "Server": [
          "Windows-Azure-Table/1.0",
          "Microsoft-HTTPAPI/2.0"
        ],
        "Transfer-Encoding": "chunked",
        "X-Content-Type-Options": "nosniff",
        "x-ms-client-request-id": "984f2f1353ffef7bd98645850d5dbcd9",
        "x-ms-request-id": "9b334d5a-4002-002c-6a87-5c46d5000000",
        "x-ms-version": "2019-02-02"
      },
      "ResponseBody": {
        "odata.metadata": "https://chrissscratch.table.core.windows.net/$metadata#Tables/@Element",
        "odata.type": "chrissscratch.Tables",
        "odata.id": "https://chrissscratch.table.core.windows.net/Tables(\u0027testtablewe6y0yh4\u0027)",
        "odata.editLink": "Tables(\u0027testtablewe6y0yh4\u0027)",
        "TableName": "testtablewe6y0yh4"
      }
    },
    {
      "RequestUri": "https://chrissscratch.table.core.windows.net/Tables?$format=application%2Fjson%3Bodata%3Dfullmetadata",
      "RequestMethod": "POST",
      "RequestHeaders": {
        "Accept": "application/json",
        "Authorization": "Sanitized",
        "Content-Length": "33",
        "Content-Type": "application/json; odata=nometadata",
        "DataServiceVersion": "3.0",
        "traceparent": "00-aa24b5c3a00ae04ea330f82993c3a211-dea470726477c146-00",
        "User-Agent": [
          "azsdk-net-Data.Tables/1.0.0-dev.20200717.1",
          "(.NET Core 4.6.29017.01; Microsoft Windows 10.0.18363 )"
        ],
        "x-ms-client-request-id": "7e4bc7a1bfd9c461867b63039594da01",
        "x-ms-date": "Fri, 17 Jul 2020 22:10:14 GMT",
        "x-ms-return-client-request-id": "true",
        "x-ms-version": "2019-02-02"
      },
      "RequestBody": {
        "TableName": "testtablehun9spbb"
      },
      "StatusCode": 201,
      "ResponseHeaders": {
        "Cache-Control": "no-cache",
        "Content-Type": "application/json; odata=fullmetadata; streaming=true; charset=utf-8",
        "Date": "Fri, 17 Jul 2020 22:10:13 GMT",
        "Location": "https://chrissscratch.table.core.windows.net/Tables(\u0027testtablehun9spbb\u0027)",
        "Server": [
          "Windows-Azure-Table/1.0",
          "Microsoft-HTTPAPI/2.0"
        ],
        "Transfer-Encoding": "chunked",
        "X-Content-Type-Options": "nosniff",
        "x-ms-client-request-id": "7e4bc7a1bfd9c461867b63039594da01",
        "x-ms-request-id": "9b334d60-4002-002c-6f87-5c46d5000000",
        "x-ms-version": "2019-02-02"
      },
      "ResponseBody": {
        "odata.metadata": "https://chrissscratch.table.core.windows.net/$metadata#Tables/@Element",
        "odata.type": "chrissscratch.Tables",
        "odata.id": "https://chrissscratch.table.core.windows.net/Tables(\u0027testtablehun9spbb\u0027)",
        "odata.editLink": "Tables(\u0027testtablehun9spbb\u0027)",
        "TableName": "testtablehun9spbb"
      }
    },
    {
      "RequestUri": "https://chrissscratch.table.core.windows.net/Tables?$format=application%2Fjson%3Bodata%3Dfullmetadata",
      "RequestMethod": "POST",
      "RequestHeaders": {
        "Accept": "application/json",
        "Authorization": "Sanitized",
        "Content-Length": "33",
        "Content-Type": "application/json; odata=nometadata",
        "DataServiceVersion": "3.0",
        "traceparent": "00-d92be9fdb0028b46abf61e843df085f8-8911ebabf81ed149-00",
        "User-Agent": [
          "azsdk-net-Data.Tables/1.0.0-dev.20200717.1",
          "(.NET Core 4.6.29017.01; Microsoft Windows 10.0.18363 )"
        ],
        "x-ms-client-request-id": "ebe0f754905e71167257f63707fd151a",
        "x-ms-date": "Fri, 17 Jul 2020 22:10:14 GMT",
        "x-ms-return-client-request-id": "true",
        "x-ms-version": "2019-02-02"
      },
      "RequestBody": {
        "TableName": "testtableyabu2sii"
      },
      "StatusCode": 201,
      "ResponseHeaders": {
        "Cache-Control": "no-cache",
        "Content-Type": "application/json; odata=fullmetadata; streaming=true; charset=utf-8",
        "Date": "Fri, 17 Jul 2020 22:10:13 GMT",
        "Location": "https://chrissscratch.table.core.windows.net/Tables(\u0027testtableyabu2sii\u0027)",
        "Server": [
          "Windows-Azure-Table/1.0",
          "Microsoft-HTTPAPI/2.0"
        ],
        "Transfer-Encoding": "chunked",
        "X-Content-Type-Options": "nosniff",
        "x-ms-client-request-id": "ebe0f754905e71167257f63707fd151a",
        "x-ms-request-id": "9b334d67-4002-002c-7587-5c46d5000000",
        "x-ms-version": "2019-02-02"
      },
      "ResponseBody": {
        "odata.metadata": "https://chrissscratch.table.core.windows.net/$metadata#Tables/@Element",
        "odata.type": "chrissscratch.Tables",
        "odata.id": "https://chrissscratch.table.core.windows.net/Tables(\u0027testtableyabu2sii\u0027)",
        "odata.editLink": "Tables(\u0027testtableyabu2sii\u0027)",
        "TableName": "testtableyabu2sii"
      }
    },
    {
      "RequestUri": "https://chrissscratch.table.core.windows.net/Tables?$format=application%2Fjson%3Bodata%3Dfullmetadata",
      "RequestMethod": "POST",
      "RequestHeaders": {
        "Accept": "application/json",
        "Authorization": "Sanitized",
        "Content-Length": "33",
        "Content-Type": "application/json; odata=nometadata",
        "DataServiceVersion": "3.0",
        "traceparent": "00-02393aad6c33d9458791118619521d72-cf73fe8d1253f64a-00",
        "User-Agent": [
          "azsdk-net-Data.Tables/1.0.0-dev.20200717.1",
          "(.NET Core 4.6.29017.01; Microsoft Windows 10.0.18363 )"
        ],
        "x-ms-client-request-id": "f28e99b70c0bd64dca4729e2de7665f6",
        "x-ms-date": "Fri, 17 Jul 2020 22:10:14 GMT",
        "x-ms-return-client-request-id": "true",
        "x-ms-version": "2019-02-02"
      },
      "RequestBody": {
        "TableName": "testtablepfz3b0i2"
      },
      "StatusCode": 201,
      "ResponseHeaders": {
        "Cache-Control": "no-cache",
        "Content-Type": "application/json; odata=fullmetadata; streaming=true; charset=utf-8",
        "Date": "Fri, 17 Jul 2020 22:10:13 GMT",
        "Location": "https://chrissscratch.table.core.windows.net/Tables(\u0027testtablepfz3b0i2\u0027)",
        "Server": [
          "Windows-Azure-Table/1.0",
          "Microsoft-HTTPAPI/2.0"
        ],
        "Transfer-Encoding": "chunked",
        "X-Content-Type-Options": "nosniff",
        "x-ms-client-request-id": "f28e99b70c0bd64dca4729e2de7665f6",
        "x-ms-request-id": "9b334d70-4002-002c-7d87-5c46d5000000",
        "x-ms-version": "2019-02-02"
      },
      "ResponseBody": {
        "odata.metadata": "https://chrissscratch.table.core.windows.net/$metadata#Tables/@Element",
        "odata.type": "chrissscratch.Tables",
        "odata.id": "https://chrissscratch.table.core.windows.net/Tables(\u0027testtablepfz3b0i2\u0027)",
        "odata.editLink": "Tables(\u0027testtablepfz3b0i2\u0027)",
        "TableName": "testtablepfz3b0i2"
      }
    },
    {
      "RequestUri": "https://chrissscratch.table.core.windows.net/Tables?$format=application%2Fjson%3Bodata%3Dfullmetadata",
      "RequestMethod": "POST",
      "RequestHeaders": {
        "Accept": "application/json",
        "Authorization": "Sanitized",
        "Content-Length": "33",
        "Content-Type": "application/json; odata=nometadata",
        "DataServiceVersion": "3.0",
        "traceparent": "00-3b2a75e16994a64ca7b364460f8f598d-19c5118266fc8248-00",
        "User-Agent": [
          "azsdk-net-Data.Tables/1.0.0-dev.20200717.1",
          "(.NET Core 4.6.29017.01; Microsoft Windows 10.0.18363 )"
        ],
        "x-ms-client-request-id": "298c7c4f6acb9b0ab2bf33c501236566",
        "x-ms-date": "Fri, 17 Jul 2020 22:10:14 GMT",
        "x-ms-return-client-request-id": "true",
        "x-ms-version": "2019-02-02"
      },
      "RequestBody": {
        "TableName": "testtable3ab94esl"
      },
      "StatusCode": 201,
      "ResponseHeaders": {
        "Cache-Control": "no-cache",
        "Content-Type": "application/json; odata=fullmetadata; streaming=true; charset=utf-8",
        "Date": "Fri, 17 Jul 2020 22:10:13 GMT",
        "Location": "https://chrissscratch.table.core.windows.net/Tables(\u0027testtable3ab94esl\u0027)",
        "Server": [
          "Windows-Azure-Table/1.0",
          "Microsoft-HTTPAPI/2.0"
        ],
        "Transfer-Encoding": "chunked",
        "X-Content-Type-Options": "nosniff",
        "x-ms-client-request-id": "298c7c4f6acb9b0ab2bf33c501236566",
        "x-ms-request-id": "9b334d7b-4002-002c-0587-5c46d5000000",
        "x-ms-version": "2019-02-02"
      },
      "ResponseBody": {
        "odata.metadata": "https://chrissscratch.table.core.windows.net/$metadata#Tables/@Element",
        "odata.type": "chrissscratch.Tables",
        "odata.id": "https://chrissscratch.table.core.windows.net/Tables(\u0027testtable3ab94esl\u0027)",
        "odata.editLink": "Tables(\u0027testtable3ab94esl\u0027)",
        "TableName": "testtable3ab94esl"
      }
    },
    {
      "RequestUri": "https://chrissscratch.table.core.windows.net/Tables?$format=application%2Fjson%3Bodata%3Dfullmetadata",
      "RequestMethod": "POST",
      "RequestHeaders": {
        "Accept": "application/json",
        "Authorization": "Sanitized",
        "Content-Length": "33",
        "Content-Type": "application/json; odata=nometadata",
        "DataServiceVersion": "3.0",
        "traceparent": "00-7de570040367be44a5c3d64eb0930437-928de6482be7d04e-00",
        "User-Agent": [
          "azsdk-net-Data.Tables/1.0.0-dev.20200717.1",
          "(.NET Core 4.6.29017.01; Microsoft Windows 10.0.18363 )"
        ],
        "x-ms-client-request-id": "082d081b062714829fe5a28e80230b5f",
        "x-ms-date": "Fri, 17 Jul 2020 22:10:14 GMT",
        "x-ms-return-client-request-id": "true",
        "x-ms-version": "2019-02-02"
      },
      "RequestBody": {
        "TableName": "testtableiury2tn6"
      },
      "StatusCode": 201,
      "ResponseHeaders": {
        "Cache-Control": "no-cache",
        "Content-Type": "application/json; odata=fullmetadata; streaming=true; charset=utf-8",
        "Date": "Fri, 17 Jul 2020 22:10:13 GMT",
        "Location": "https://chrissscratch.table.core.windows.net/Tables(\u0027testtableiury2tn6\u0027)",
        "Server": [
          "Windows-Azure-Table/1.0",
          "Microsoft-HTTPAPI/2.0"
        ],
        "Transfer-Encoding": "chunked",
        "X-Content-Type-Options": "nosniff",
        "x-ms-client-request-id": "082d081b062714829fe5a28e80230b5f",
        "x-ms-request-id": "9b334d87-4002-002c-0e87-5c46d5000000",
        "x-ms-version": "2019-02-02"
      },
      "ResponseBody": {
        "odata.metadata": "https://chrissscratch.table.core.windows.net/$metadata#Tables/@Element",
        "odata.type": "chrissscratch.Tables",
        "odata.id": "https://chrissscratch.table.core.windows.net/Tables(\u0027testtableiury2tn6\u0027)",
        "odata.editLink": "Tables(\u0027testtableiury2tn6\u0027)",
        "TableName": "testtableiury2tn6"
      }
    },
    {
      "RequestUri": "https://chrissscratch.table.core.windows.net/Tables?$format=application%2Fjson%3Bodata%3Dfullmetadata\u0026$filter=TableName%20eq%20%27testtable9cqd6ut9%27",
      "RequestMethod": "GET",
      "RequestHeaders": {
        "Accept": "application/json",
        "Authorization": "Sanitized",
        "DataServiceVersion": "3.0",
        "User-Agent": [
          "azsdk-net-Data.Tables/1.0.0-dev.20200717.1",
          "(.NET Core 4.6.29017.01; Microsoft Windows 10.0.18363 )"
        ],
        "x-ms-client-request-id": "1f2f8d3ca04341f48c2a337e3538d41d",
        "x-ms-date": "Fri, 17 Jul 2020 22:10:14 GMT",
        "x-ms-return-client-request-id": "true",
        "x-ms-version": "2019-02-02"
      },
      "RequestBody": null,
      "StatusCode": 200,
      "ResponseHeaders": {
        "Cache-Control": "no-cache",
        "Content-Type": "application/json; odata=fullmetadata; streaming=true; charset=utf-8",
        "Date": "Fri, 17 Jul 2020 22:10:13 GMT",
        "Server": [
          "Windows-Azure-Table/1.0",
          "Microsoft-HTTPAPI/2.0"
        ],
        "Transfer-Encoding": "chunked",
        "X-Content-Type-Options": "nosniff",
        "x-ms-client-request-id": "1f2f8d3ca04341f48c2a337e3538d41d",
        "x-ms-request-id": "9b334d9c-4002-002c-1f87-5c46d5000000",
        "x-ms-version": "2019-02-02"
      },
      "ResponseBody": {
        "odata.metadata": "https://chrissscratch.table.core.windows.net/$metadata#Tables",
        "value": [
          {
            "odata.type": "chrissscratch.Tables",
            "odata.id": "https://chrissscratch.table.core.windows.net/Tables(\u0027testtable9cqd6ut9\u0027)",
            "odata.editLink": "Tables(\u0027testtable9cqd6ut9\u0027)",
            "TableName": "testtable9cqd6ut9"
          }
        ]
      }
    },
    {
      "RequestUri": "https://chrissscratch.table.core.windows.net/Tables(\u0027testtablekudhucwx\u0027)",
      "RequestMethod": "DELETE",
      "RequestHeaders": {
        "Accept": "application/json",
        "Authorization": "Sanitized",
        "traceparent": "00-00f6f9143e3e5d408552c9d534da5e68-ee57c216a3485645-00",
        "User-Agent": [
          "azsdk-net-Data.Tables/1.0.0-dev.20200717.1",
          "(.NET Core 4.6.29017.01; Microsoft Windows 10.0.18363 )"
        ],
        "x-ms-client-request-id": "c30ede41023cac743c1e251b80d7e6e6",
        "x-ms-date": "Fri, 17 Jul 2020 22:10:14 GMT",
        "x-ms-return-client-request-id": "true",
        "x-ms-version": "2019-02-02"
      },
      "RequestBody": null,
      "StatusCode": 204,
      "ResponseHeaders": {
        "Cache-Control": "no-cache",
        "Content-Length": "0",
        "Date": "Fri, 17 Jul 2020 22:10:13 GMT",
        "Server": [
          "Windows-Azure-Table/1.0",
          "Microsoft-HTTPAPI/2.0"
        ],
        "X-Content-Type-Options": "nosniff",
        "x-ms-client-request-id": "c30ede41023cac743c1e251b80d7e6e6",
        "x-ms-request-id": "9b334da7-4002-002c-2a87-5c46d5000000",
        "x-ms-version": "2019-02-02"
      },
      "ResponseBody": []
    },
    {
      "RequestUri": "https://chrissscratch.table.core.windows.net/Tables(\u0027testtablevkcwdk2z\u0027)",
      "RequestMethod": "DELETE",
      "RequestHeaders": {
        "Accept": "application/json",
        "Authorization": "Sanitized",
        "traceparent": "00-bacec4fe81114d46a66c98be5e9e7519-110ffced83dd124e-00",
        "User-Agent": [
          "azsdk-net-Data.Tables/1.0.0-dev.20200717.1",
          "(.NET Core 4.6.29017.01; Microsoft Windows 10.0.18363 )"
        ],
        "x-ms-client-request-id": "46830d141c027a6a14ec7bfdd204df66",
        "x-ms-date": "Fri, 17 Jul 2020 22:10:14 GMT",
        "x-ms-return-client-request-id": "true",
        "x-ms-version": "2019-02-02"
      },
      "RequestBody": null,
      "StatusCode": 204,
      "ResponseHeaders": {
        "Cache-Control": "no-cache",
        "Content-Length": "0",
        "Date": "Fri, 17 Jul 2020 22:10:13 GMT",
        "Server": [
          "Windows-Azure-Table/1.0",
          "Microsoft-HTTPAPI/2.0"
        ],
        "X-Content-Type-Options": "nosniff",
        "x-ms-client-request-id": "46830d141c027a6a14ec7bfdd204df66",
        "x-ms-request-id": "9b334dae-4002-002c-3087-5c46d5000000",
        "x-ms-version": "2019-02-02"
      },
      "ResponseBody": []
    },
    {
      "RequestUri": "https://chrissscratch.table.core.windows.net/Tables(\u0027testtablew8v0kzax\u0027)",
      "RequestMethod": "DELETE",
      "RequestHeaders": {
        "Accept": "application/json",
        "Authorization": "Sanitized",
        "traceparent": "00-c9d99080baed094eaaee1e958dd43a75-c62fd514a305f940-00",
        "User-Agent": [
          "azsdk-net-Data.Tables/1.0.0-dev.20200717.1",
          "(.NET Core 4.6.29017.01; Microsoft Windows 10.0.18363 )"
        ],
        "x-ms-client-request-id": "a24d851147153a231983e2247bd8c0b4",
        "x-ms-date": "Fri, 17 Jul 2020 22:10:15 GMT",
        "x-ms-return-client-request-id": "true",
        "x-ms-version": "2019-02-02"
      },
      "RequestBody": null,
      "StatusCode": 204,
      "ResponseHeaders": {
        "Cache-Control": "no-cache",
        "Content-Length": "0",
        "Date": "Fri, 17 Jul 2020 22:10:14 GMT",
        "Server": [
          "Windows-Azure-Table/1.0",
          "Microsoft-HTTPAPI/2.0"
        ],
        "X-Content-Type-Options": "nosniff",
        "x-ms-client-request-id": "a24d851147153a231983e2247bd8c0b4",
        "x-ms-request-id": "9b334db5-4002-002c-3787-5c46d5000000",
        "x-ms-version": "2019-02-02"
      },
      "ResponseBody": []
    },
    {
      "RequestUri": "https://chrissscratch.table.core.windows.net/Tables(\u0027testtablehiw8h3cq\u0027)",
      "RequestMethod": "DELETE",
      "RequestHeaders": {
        "Accept": "application/json",
        "Authorization": "Sanitized",
        "traceparent": "00-66ea3069bf1a274e917640326874ed27-ae4b5dd6f8f2244a-00",
        "User-Agent": [
          "azsdk-net-Data.Tables/1.0.0-dev.20200717.1",
          "(.NET Core 4.6.29017.01; Microsoft Windows 10.0.18363 )"
        ],
        "x-ms-client-request-id": "27694d448eb5251a7393af4f8677da38",
        "x-ms-date": "Fri, 17 Jul 2020 22:10:15 GMT",
        "x-ms-return-client-request-id": "true",
        "x-ms-version": "2019-02-02"
      },
      "RequestBody": null,
      "StatusCode": 204,
      "ResponseHeaders": {
        "Cache-Control": "no-cache",
        "Content-Length": "0",
        "Date": "Fri, 17 Jul 2020 22:10:14 GMT",
        "Server": [
          "Windows-Azure-Table/1.0",
          "Microsoft-HTTPAPI/2.0"
        ],
        "X-Content-Type-Options": "nosniff",
        "x-ms-client-request-id": "27694d448eb5251a7393af4f8677da38",
        "x-ms-request-id": "9b334db9-4002-002c-3b87-5c46d5000000",
        "x-ms-version": "2019-02-02"
      },
      "ResponseBody": []
    },
    {
      "RequestUri": "https://chrissscratch.table.core.windows.net/Tables(\u0027testtablewe6y0yh4\u0027)",
      "RequestMethod": "DELETE",
      "RequestHeaders": {
        "Accept": "application/json",
        "Authorization": "Sanitized",
        "traceparent": "00-f4a6d3a44bc7df4181bf3e755d97b6f6-9afef6c1a70f9b43-00",
        "User-Agent": [
          "azsdk-net-Data.Tables/1.0.0-dev.20200717.1",
          "(.NET Core 4.6.29017.01; Microsoft Windows 10.0.18363 )"
        ],
        "x-ms-client-request-id": "fb0abe3f438accd1ea492c7f3946ff3b",
        "x-ms-date": "Fri, 17 Jul 2020 22:10:15 GMT",
        "x-ms-return-client-request-id": "true",
        "x-ms-version": "2019-02-02"
      },
      "RequestBody": null,
      "StatusCode": 204,
      "ResponseHeaders": {
        "Cache-Control": "no-cache",
        "Content-Length": "0",
        "Date": "Fri, 17 Jul 2020 22:10:14 GMT",
        "Server": [
          "Windows-Azure-Table/1.0",
          "Microsoft-HTTPAPI/2.0"
        ],
        "X-Content-Type-Options": "nosniff",
        "x-ms-client-request-id": "fb0abe3f438accd1ea492c7f3946ff3b",
        "x-ms-request-id": "9b334dc2-4002-002c-4487-5c46d5000000",
        "x-ms-version": "2019-02-02"
      },
      "ResponseBody": []
    },
    {
      "RequestUri": "https://chrissscratch.table.core.windows.net/Tables(\u0027testtablehun9spbb\u0027)",
      "RequestMethod": "DELETE",
      "RequestHeaders": {
        "Accept": "application/json",
        "Authorization": "Sanitized",
        "traceparent": "00-04f974005d5ee24aa13c6ed841d26578-c34471019f3a8242-00",
        "User-Agent": [
          "azsdk-net-Data.Tables/1.0.0-dev.20200717.1",
          "(.NET Core 4.6.29017.01; Microsoft Windows 10.0.18363 )"
        ],
        "x-ms-client-request-id": "85b8c72cb79a83b16b272e8198d3b4a2",
        "x-ms-date": "Fri, 17 Jul 2020 22:10:15 GMT",
        "x-ms-return-client-request-id": "true",
        "x-ms-version": "2019-02-02"
      },
      "RequestBody": null,
      "StatusCode": 204,
      "ResponseHeaders": {
        "Cache-Control": "no-cache",
        "Content-Length": "0",
        "Date": "Fri, 17 Jul 2020 22:10:14 GMT",
        "Server": [
          "Windows-Azure-Table/1.0",
          "Microsoft-HTTPAPI/2.0"
        ],
        "X-Content-Type-Options": "nosniff",
        "x-ms-client-request-id": "85b8c72cb79a83b16b272e8198d3b4a2",
        "x-ms-request-id": "9b334dcd-4002-002c-4e87-5c46d5000000",
        "x-ms-version": "2019-02-02"
      },
      "ResponseBody": []
    },
    {
      "RequestUri": "https://chrissscratch.table.core.windows.net/Tables(\u0027testtableyabu2sii\u0027)",
      "RequestMethod": "DELETE",
      "RequestHeaders": {
        "Accept": "application/json",
        "Authorization": "Sanitized",
        "traceparent": "00-08992d2c4d58594d93fe738d6105c3bd-6da4ac43e7dae74b-00",
        "User-Agent": [
          "azsdk-net-Data.Tables/1.0.0-dev.20200717.1",
          "(.NET Core 4.6.29017.01; Microsoft Windows 10.0.18363 )"
        ],
        "x-ms-client-request-id": "bce4aaa8c4cd002a7b9d3d6b629aeb2d",
        "x-ms-date": "Fri, 17 Jul 2020 22:10:15 GMT",
        "x-ms-return-client-request-id": "true",
        "x-ms-version": "2019-02-02"
      },
      "RequestBody": null,
      "StatusCode": 204,
      "ResponseHeaders": {
        "Cache-Control": "no-cache",
        "Content-Length": "0",
        "Date": "Fri, 17 Jul 2020 22:10:14 GMT",
        "Server": [
          "Windows-Azure-Table/1.0",
          "Microsoft-HTTPAPI/2.0"
        ],
        "X-Content-Type-Options": "nosniff",
        "x-ms-client-request-id": "bce4aaa8c4cd002a7b9d3d6b629aeb2d",
        "x-ms-request-id": "9b334dd7-4002-002c-5887-5c46d5000000",
        "x-ms-version": "2019-02-02"
      },
      "ResponseBody": []
    },
    {
      "RequestUri": "https://chrissscratch.table.core.windows.net/Tables(\u0027testtablepfz3b0i2\u0027)",
      "RequestMethod": "DELETE",
      "RequestHeaders": {
        "Accept": "application/json",
        "Authorization": "Sanitized",
        "traceparent": "00-7ef1028af9535a44baee97a50917deb5-720fa52c09f90e45-00",
        "User-Agent": [
          "azsdk-net-Data.Tables/1.0.0-dev.20200717.1",
          "(.NET Core 4.6.29017.01; Microsoft Windows 10.0.18363 )"
        ],
        "x-ms-client-request-id": "be22739454be889d0d87906215503416",
        "x-ms-date": "Fri, 17 Jul 2020 22:10:15 GMT",
        "x-ms-return-client-request-id": "true",
        "x-ms-version": "2019-02-02"
      },
      "RequestBody": null,
      "StatusCode": 204,
      "ResponseHeaders": {
        "Cache-Control": "no-cache",
        "Content-Length": "0",
        "Date": "Fri, 17 Jul 2020 22:10:14 GMT",
        "Server": [
          "Windows-Azure-Table/1.0",
          "Microsoft-HTTPAPI/2.0"
        ],
        "X-Content-Type-Options": "nosniff",
        "x-ms-client-request-id": "be22739454be889d0d87906215503416",
        "x-ms-request-id": "9b334de0-4002-002c-5f87-5c46d5000000",
        "x-ms-version": "2019-02-02"
      },
      "ResponseBody": []
    },
    {
      "RequestUri": "https://chrissscratch.table.core.windows.net/Tables(\u0027testtable3ab94esl\u0027)",
      "RequestMethod": "DELETE",
      "RequestHeaders": {
        "Accept": "application/json",
        "Authorization": "Sanitized",
        "traceparent": "00-7ddfbe68747fa24da8a9fe288cd83ae0-c825e520eaee5647-00",
        "User-Agent": [
          "azsdk-net-Data.Tables/1.0.0-dev.20200717.1",
          "(.NET Core 4.6.29017.01; Microsoft Windows 10.0.18363 )"
        ],
        "x-ms-client-request-id": "8fd689944361686d9cb709fd794520d0",
        "x-ms-date": "Fri, 17 Jul 2020 22:10:15 GMT",
        "x-ms-return-client-request-id": "true",
        "x-ms-version": "2019-02-02"
      },
      "RequestBody": null,
      "StatusCode": 204,
      "ResponseHeaders": {
        "Cache-Control": "no-cache",
        "Content-Length": "0",
        "Date": "Fri, 17 Jul 2020 22:10:14 GMT",
        "Server": [
          "Windows-Azure-Table/1.0",
          "Microsoft-HTTPAPI/2.0"
        ],
        "X-Content-Type-Options": "nosniff",
        "x-ms-client-request-id": "8fd689944361686d9cb709fd794520d0",
        "x-ms-request-id": "9b334de4-4002-002c-6187-5c46d5000000",
        "x-ms-version": "2019-02-02"
      },
      "ResponseBody": []
    },
    {
      "RequestUri": "https://chrissscratch.table.core.windows.net/Tables(\u0027testtableiury2tn6\u0027)",
      "RequestMethod": "DELETE",
      "RequestHeaders": {
        "Accept": "application/json",
        "Authorization": "Sanitized",
        "traceparent": "00-239326faab4d6545b78a6b25fcb05faf-76a6b419680e034a-00",
        "User-Agent": [
          "azsdk-net-Data.Tables/1.0.0-dev.20200717.1",
          "(.NET Core 4.6.29017.01; Microsoft Windows 10.0.18363 )"
        ],
        "x-ms-client-request-id": "24ed013cf5b154e30d5baf4634c8eb2b",
        "x-ms-date": "Fri, 17 Jul 2020 22:10:15 GMT",
        "x-ms-return-client-request-id": "true",
        "x-ms-version": "2019-02-02"
      },
      "RequestBody": null,
      "StatusCode": 204,
      "ResponseHeaders": {
        "Cache-Control": "no-cache",
        "Content-Length": "0",
        "Date": "Fri, 17 Jul 2020 22:10:14 GMT",
        "Server": [
          "Windows-Azure-Table/1.0",
          "Microsoft-HTTPAPI/2.0"
        ],
        "X-Content-Type-Options": "nosniff",
        "x-ms-client-request-id": "24ed013cf5b154e30d5baf4634c8eb2b",
        "x-ms-request-id": "9b334dec-4002-002c-6787-5c46d5000000",
        "x-ms-version": "2019-02-02"
      },
      "ResponseBody": []
    },
    {
      "RequestUri": "https://chrissscratch.table.core.windows.net/Tables(\u0027testtable9cqd6ut9\u0027)",
      "RequestMethod": "DELETE",
      "RequestHeaders": {
        "Accept": "application/json",
        "Authorization": "Sanitized",
        "traceparent": "00-4d6e05184516cb4e9e1e276d770c419f-c3ce32f15f1b514e-00",
        "User-Agent": [
          "azsdk-net-Data.Tables/1.0.0-dev.20200717.1",
          "(.NET Core 4.6.29017.01; Microsoft Windows 10.0.18363 )"
        ],
        "x-ms-client-request-id": "d8d727685cc451cb05ba22074b9f0fc7",
        "x-ms-date": "Fri, 17 Jul 2020 22:10:15 GMT",
        "x-ms-return-client-request-id": "true",
        "x-ms-version": "2019-02-02"
      },
      "RequestBody": null,
      "StatusCode": 204,
      "ResponseHeaders": {
        "Cache-Control": "no-cache",
        "Content-Length": "0",
        "Date": "Fri, 17 Jul 2020 22:10:14 GMT",
        "Server": [
          "Windows-Azure-Table/1.0",
          "Microsoft-HTTPAPI/2.0"
        ],
        "X-Content-Type-Options": "nosniff",
        "x-ms-client-request-id": "d8d727685cc451cb05ba22074b9f0fc7",
        "x-ms-request-id": "9b334df2-4002-002c-6c87-5c46d5000000",
        "x-ms-version": "2019-02-02"
      },
      "ResponseBody": []
    }
  ],
  "Variables": {
    "RandomSeed": "1360834546",
    "TABLES_PRIMARY_STORAGE_ACCOUNT_KEY": "",
    "TABLES_STORAGE_ACCOUNT_NAME": "chrissscratch"
  }
}