{
  "Entries": [
    {
      "RequestUri": "https://FakeHost.net/devices/bulkDeviceUpdate2058308758?api-version=2020-03-13",
      "RequestMethod": "PUT",
      "RequestHeaders": {
        "Authorization": "Sanitized",
        "Content-Length": "60",
        "Content-Type": "application/json",
        "If-Match": "\u0022\u0022",
        "User-Agent": [
          "azsdk-net-Iot.Hub.Service/1.0.0-dev.20200728.1",
          "(.NET Core 4.6.29017.01; Microsoft Windows 10.0.18363 )"
        ],
        "x-ms-client-request-id": "641381e4f4e82e72fdd64d15ec9f16ee",
        "x-ms-return-client-request-id": "true"
      },
      "RequestBody": {
        "deviceId": "bulkDeviceUpdate2058308758",
        "status": "enabled"
      },
      "StatusCode": 200,
      "ResponseHeaders": {
        "Content-Length": "628",
        "Content-Type": "application/json; charset=utf-8",
        "Date": "Tue, 28 Jul 2020 22:17:07 GMT",
        "ETag": "\u0022MTExMzQ2NjY=\u0022",
        "Server": "Microsoft-HTTPAPI/2.0",
        "Vary": "Origin",
        "x-ms-request-id": "024e9c03-828c-4dcc-9574-e76f508ea270"
      },
      "ResponseBody": {
        "deviceId": "bulkDeviceUpdate2058308758",
        "generationId": "637315714273797623",
        "etag": "MTExMzQ2NjY=",
        "connectionState": "Disconnected",
        "status": "enabled",
        "statusReason": null,
        "connectionStateUpdatedTime": "0001-01-01T00:00:00",
        "statusUpdatedTime": "0001-01-01T00:00:00",
        "lastActivityTime": "0001-01-01T00:00:00",
        "cloudToDeviceMessageCount": 0,
        "authentication": {
          "symmetricKey": {
            "primaryKey": "qohH1VG4ikTOwu1H2NRmrIte3d/aNy9oXJIvHq8KYv0=",
            "secondaryKey": "W8JOk6jHYhxTyYrQjD6Eq0I5p/hTkSyr2DaPdotQYz4="
          },
          "x509Thumbprint": {
            "primaryThumbprint": null,
            "secondaryThumbprint": null
          },
          "type": "sas"
        },
        "capabilities": {
          "iotEdge": false
        },
        "parentScopes": []
      }
    },
    {
      "RequestUri": "https://FakeHost.net/devices/bulkDeviceUpdate1689940095?api-version=2020-03-13",
      "RequestMethod": "PUT",
      "RequestHeaders": {
        "Authorization": "Sanitized",
        "Content-Length": "60",
        "Content-Type": "application/json",
        "If-Match": "\u0022\u0022",
        "User-Agent": [
          "azsdk-net-Iot.Hub.Service/1.0.0-dev.20200728.1",
          "(.NET Core 4.6.29017.01; Microsoft Windows 10.0.18363 )"
        ],
        "x-ms-client-request-id": "3e1134d9471886feac1982596376afac",
        "x-ms-return-client-request-id": "true"
      },
      "RequestBody": {
        "deviceId": "bulkDeviceUpdate1689940095",
        "status": "enabled"
      },
      "StatusCode": 200,
      "ResponseHeaders": {
        "Content-Length": "628",
        "Content-Type": "application/json; charset=utf-8",
        "Date": "Tue, 28 Jul 2020 22:17:07 GMT",
        "ETag": "\u0022MTA0NzcwNTQz\u0022",
        "Server": "Microsoft-HTTPAPI/2.0",
        "Vary": "Origin",
        "x-ms-request-id": "8144a9b5-088a-4114-acde-b99c9e16ed4a"
      },
      "ResponseBody": {
        "deviceId": "bulkDeviceUpdate1689940095",
        "generationId": "637315714274422535",
        "etag": "MTA0NzcwNTQz",
        "connectionState": "Disconnected",
        "status": "enabled",
        "statusReason": null,
        "connectionStateUpdatedTime": "0001-01-01T00:00:00",
        "statusUpdatedTime": "0001-01-01T00:00:00",
        "lastActivityTime": "0001-01-01T00:00:00",
        "cloudToDeviceMessageCount": 0,
        "authentication": {
          "symmetricKey": {
            "primaryKey": "laJwzIzDMrGHCYLMSNhMtRKiylDYWiob\u002BvAIQzIC2k0=",
            "secondaryKey": "NM8FugEnoW9pw\u002Bmcctc3CVCGv4ALdVBRalIxXrxNxs8="
          },
          "x509Thumbprint": {
            "primaryThumbprint": null,
            "secondaryThumbprint": null
          },
          "type": "sas"
        },
        "capabilities": {
          "iotEdge": false
        },
        "parentScopes": []
      }
    },
    {
      "RequestUri": "https://FakeHost.net/devices?api-version=2020-03-13",
      "RequestMethod": "POST",
      "RequestHeaders": {
        "Authorization": "Sanitized",
        "Content-Length": "659",
        "Content-Type": "application/json",
        "User-Agent": [
          "azsdk-net-Iot.Hub.Service/1.0.0-dev.20200728.1",
          "(.NET Core 4.6.29017.01; Microsoft Windows 10.0.18363 )"
        ],
        "x-ms-client-request-id": "2f40eae5d092ea9e0fe7504fb5c8118a",
        "x-ms-return-client-request-id": "true"
      },
      "RequestBody": "[{\u0022id\u0022:\u0022bulkDeviceUpdate2058308758\u0022,\u0022eTag\u0022:\u0022MTExMzQ2NjY=\u0022,\u0022importMode\u0022:\u0022update\u0022,\u0022status\u0022:\u0022disabled\u0022,\u0022authentication\u0022:{\u0022symmetricKey\u0022:{\u0022primaryKey\u0022:\u0022qohH1VG4ikTOwu1H2NRmrIte3d/aNy9oXJIvHq8KYv0=\u0022,\u0022secondaryKey\u0022:\u0022W8JOk6jHYhxTyYrQjD6Eq0I5p/hTkSyr2DaPdotQYz4=\u0022},\u0022x509Thumbprint\u0022:{},\u0022type\u0022:\u0022sas\u0022},\u0022capabilities\u0022:{\u0022iotEdge\u0022:false}},{\u0022id\u0022:\u0022bulkDeviceUpdate1689940095\u0022,\u0022eTag\u0022:\u0022MTA0NzcwNTQz\u0022,\u0022importMode\u0022:\u0022update\u0022,\u0022status\u0022:\u0022disabled\u0022,\u0022authentication\u0022:{\u0022symmetricKey\u0022:{\u0022primaryKey\u0022:\u0022laJwzIzDMrGHCYLMSNhMtRKiylDYWiob\\u002BvAIQzIC2k0=\u0022,\u0022secondaryKey\u0022:\u0022NM8FugEnoW9pw\\u002Bmcctc3CVCGv4ALdVBRalIxXrxNxs8=\u0022},\u0022x509Thumbprint\u0022:{},\u0022type\u0022:\u0022sas\u0022},\u0022capabilities\u0022:{\u0022iotEdge\u0022:false}}]",
      "StatusCode": 200,
      "ResponseHeaders": {
        "Content-Length": "47",
        "Content-Type": "application/json; charset=utf-8",
        "Date": "Tue, 28 Jul 2020 22:17:10 GMT",
        "Server": "Microsoft-HTTPAPI/2.0",
        "Vary": "Origin",
        "x-ms-request-id": "58a8f07f-0702-4099-9906-75ecef021102"
      },
      "ResponseBody": {
        "isSuccessful": true,
        "errors": [],
        "warnings": []
      }
    },
    {
      "RequestUri": "https://FakeHost.net/devices/bulkDeviceUpdate2058308758?api-version=2020-03-13",
      "RequestMethod": "GET",
      "RequestHeaders": {
        "Authorization": "Sanitized",
        "User-Agent": [
          "azsdk-net-Iot.Hub.Service/1.0.0-dev.20200728.1",
          "(.NET Core 4.6.29017.01; Microsoft Windows 10.0.18363 )"
        ],
        "x-ms-client-request-id": "c655ea9f58983acb15de3cdaefd49a5f",
        "x-ms-return-client-request-id": "true"
      },
      "RequestBody": null,
      "StatusCode": 200,
      "ResponseHeaders": {
        "Content-Length": "622",
        "Content-Type": "application/json; charset=utf-8",
        "Date": "Tue, 28 Jul 2020 22:17:10 GMT",
        "ETag": "\u0022MTExMzQ2Njc=\u0022",
        "Server": "Microsoft-HTTPAPI/2.0",
        "Vary": "Origin",
        "x-ms-request-id": "1c130462-a9b2-4397-8558-b1077620ddd5"
      },
      "ResponseBody": {
        "deviceId": "bulkDeviceUpdate2058308758",
        "generationId": "637315714273797623",
        "etag": "MTExMzQ2Njc=",
        "connectionState": "Disconnected",
        "status": "disabled",
        "statusReason": null,
        "connectionStateUpdatedTime": "0001-01-01T00:00:00Z",
        "statusUpdatedTime": "2020-07-28T22:17:11.0591802Z",
        "lastActivityTime": "0001-01-01T00:00:00Z",
        "cloudToDeviceMessageCount": 0,
        "authentication": {
          "symmetricKey": {
            "primaryKey": "qohH1VG4ikTOwu1H2NRmrIte3d/aNy9oXJIvHq8KYv0=",
            "secondaryKey": "W8JOk6jHYhxTyYrQjD6Eq0I5p/hTkSyr2DaPdotQYz4="
          },
          "x509Thumbprint": {
            "primaryThumbprint": null,
            "secondaryThumbprint": null
          },
          "type": "sas"
        },
        "capabilities": {
          "iotEdge": false
        }
      }
    },
    {
      "RequestUri": "https://FakeHost.net/devices/bulkDeviceUpdate1689940095?api-version=2020-03-13",
      "RequestMethod": "GET",
      "RequestHeaders": {
        "Authorization": "Sanitized",
        "User-Agent": [
          "azsdk-net-Iot.Hub.Service/1.0.0-dev.20200728.1",
          "(.NET Core 4.6.29017.01; Microsoft Windows 10.0.18363 )"
        ],
        "x-ms-client-request-id": "b407689dbed608ed95262e31f6aed0e3",
        "x-ms-return-client-request-id": "true"
      },
      "RequestBody": null,
      "StatusCode": 200,
      "ResponseHeaders": {
        "Content-Length": "622",
        "Content-Type": "application/json; charset=utf-8",
        "Date": "Tue, 28 Jul 2020 22:17:12 GMT",
        "ETag": "\u0022MTA0NzcwNTQ0\u0022",
        "Server": "Microsoft-HTTPAPI/2.0",
        "Vary": "Origin",
        "x-ms-request-id": "5070d8bb-03b4-4dec-81a7-335e9d175b45"
      },
      "ResponseBody": {
        "deviceId": "bulkDeviceUpdate1689940095",
        "generationId": "637315714274422535",
        "etag": "MTA0NzcwNTQ0",
        "connectionState": "Disconnected",
        "status": "disabled",
        "statusReason": null,
        "connectionStateUpdatedTime": "0001-01-01T00:00:00Z",
        "statusUpdatedTime": "2020-07-28T22:17:11.0591802Z",
        "lastActivityTime": "0001-01-01T00:00:00Z",
        "cloudToDeviceMessageCount": 0,
        "authentication": {
          "symmetricKey": {
            "primaryKey": "laJwzIzDMrGHCYLMSNhMtRKiylDYWiob\u002BvAIQzIC2k0=",
            "secondaryKey": "NM8FugEnoW9pw\u002Bmcctc3CVCGv4ALdVBRalIxXrxNxs8="
          },
          "x509Thumbprint": {
            "primaryThumbprint": null,
            "secondaryThumbprint": null
          },
          "type": "sas"
        },
        "capabilities": {
          "iotEdge": false
        }
      }
    },
    {
      "RequestUri": "https://FakeHost.net/devices?api-version=2020-03-13",
      "RequestMethod": "POST",
      "RequestHeaders": {
        "Authorization": "Sanitized",
        "Content-Length": "161",
        "Content-Type": "application/json",
        "User-Agent": [
          "azsdk-net-Iot.Hub.Service/1.0.0-dev.20200728.1",
          "(.NET Core 4.6.29017.01; Microsoft Windows 10.0.18363 )"
        ],
        "x-ms-client-request-id": "79baf707e8218d141f051ab494c4fa3b",
        "x-ms-return-client-request-id": "true"
      },
      "RequestBody": "[{\u0022id\u0022:\u0022bulkDeviceUpdate2058308758\u0022,\u0022eTag\u0022:\u0022MTExMzQ2NjY=\u0022,\u0022importMode\u0022:\u0022delete\u0022},{\u0022id\u0022:\u0022bulkDeviceUpdate1689940095\u0022,\u0022eTag\u0022:\u0022MTA0NzcwNTQz\u0022,\u0022importMode\u0022:\u0022delete\u0022}]",
      "StatusCode": 200,
      "ResponseHeaders": {
        "Content-Length": "47",
        "Content-Type": "application/json; charset=utf-8",
        "Date": "Tue, 28 Jul 2020 22:17:22 GMT",
        "Server": "Microsoft-HTTPAPI/2.0",
        "Vary": "Origin",
        "x-ms-request-id": "46cd6406-ad2e-403f-922e-d3a40e945eca"
      },
      "ResponseBody": {
        "isSuccessful": true,
        "errors": [],
        "warnings": []
      }
    }
  ],
  "Variables": {
    "IOT_HUB_CONNECTION_STRING": "HostName=FakeHost.net;SharedAccessKeyName=iothubowner;SharedAccessKey=Kg==;",
    "RandomSeed": "1759351927"
  }
}