{
  "Entries": [
    {
      "RequestUri": "http://seanstagetest.file.core.windows.net/?restype=service\u0026comp=properties",
      "RequestMethod": "GET",
      "RequestHeaders": {
        "Authorization": "Sanitized",
        "traceparent": "00-1827ba978e35194188dcf1f485c6e5b8-5b95b92a95da3341-00",
        "User-Agent": [
          "azsdk-net-Storage.Files.Shares/12.2.0-dev.20200305.1",
          "(.NET Core 4.6.28325.01; Microsoft Windows 10.0.18363 )"
        ],
        "x-ms-client-request-id": "0a1c8c19-ade0-3261-eacb-91f8d6aa5342",
        "x-ms-date": "Thu, 05 Mar 2020 21:47:21 GMT",
        "x-ms-return-client-request-id": "true",
        "x-ms-version": "2019-12-12"
      },
      "RequestBody": null,
      "StatusCode": 200,
      "ResponseHeaders": {
        "Access-Control-Allow-Origin": "*",
        "Content-Type": "application/xml",
        "Date": "Thu, 05 Mar 2020 21:47:21 GMT",
        "Server": [
          "Windows-Azure-File/1.0",
          "Microsoft-HTTPAPI/2.0"
        ],
        "Transfer-Encoding": "chunked",
        "x-ms-client-request-id": "0a1c8c19-ade0-3261-eacb-91f8d6aa5342",
        "x-ms-request-id": "c9ef6cbc-f01a-0012-2237-f3e9eb000000",
        "x-ms-version": "2019-12-12"
      },
      "ResponseBody": "\uFEFF\u003C?xml version=\u00221.0\u0022 encoding=\u0022utf-8\u0022?\u003E\u003CStorageServiceProperties\u003E\u003CHourMetrics\u003E\u003CVersion\u003E1.0\u003C/Version\u003E\u003CEnabled\u003Efalse\u003C/Enabled\u003E\u003CRetentionPolicy\u003E\u003CEnabled\u003Etrue\u003C/Enabled\u003E\u003CDays\u003E1\u003C/Days\u003E\u003C/RetentionPolicy\u003E\u003C/HourMetrics\u003E\u003CMinuteMetrics\u003E\u003CVersion\u003E1.0\u003C/Version\u003E\u003CEnabled\u003Etrue\u003C/Enabled\u003E\u003CIncludeAPIs\u003Efalse\u003C/IncludeAPIs\u003E\u003CRetentionPolicy\u003E\u003CEnabled\u003Etrue\u003C/Enabled\u003E\u003CDays\u003E8\u003C/Days\u003E\u003C/RetentionPolicy\u003E\u003C/MinuteMetrics\u003E\u003CCors\u003E\u003CCorsRule\u003E\u003CAllowedMethods\u003EPUT,GET\u003C/AllowedMethods\u003E\u003CAllowedOrigins\u003E*\u003C/AllowedOrigins\u003E\u003CAllowedHeaders\u003Ex-ms-meta-abc,x-ms-meta-data*,x-ms-meta-target*\u003C/AllowedHeaders\u003E\u003CExposedHeaders\u003Ex-ms-meta-*\u003C/ExposedHeaders\u003E\u003CMaxAgeInSeconds\u003E1000\u003C/MaxAgeInSeconds\u003E\u003C/CorsRule\u003E\u003C/Cors\u003E\u003C/StorageServiceProperties\u003E"
    }
  ],
  "Variables": {
    "RandomSeed": "2126056990",
    "Storage_TestConfigDefault": "ProductionTenant\nseanstagetest\nU2FuaXRpemVk\nhttps://seanstagetest.blob.core.windows.net\nhttp://seanstagetest.file.core.windows.net\nhttp://seanstagetest.queue.core.windows.net\nhttp://seanstagetest.table.core.windows.net\n\n\n\n\nhttp://seanstagetest-secondary.blob.core.windows.net\nhttp://seanstagetest-secondary.file.core.windows.net\nhttp://seanstagetest-secondary.queue.core.windows.net\nhttp://seanstagetest-secondary.table.core.windows.net\n\nSanitized\n\n\nCloud\nBlobEndpoint=https://seanstagetest.blob.core.windows.net/;QueueEndpoint=http://seanstagetest.queue.core.windows.net/;FileEndpoint=http://seanstagetest.file.core.windows.net/;BlobSecondaryEndpoint=http://seanstagetest-secondary.blob.core.windows.net/;QueueSecondaryEndpoint=http://seanstagetest-secondary.queue.core.windows.net/;FileSecondaryEndpoint=http://seanstagetest-secondary.file.core.windows.net/;AccountName=seanstagetest;AccountKey=Sanitized\nseanscope1"
  }
}