{
  "Entries": [
    {
      "RequestUri": "https://seanmcccanary.blob.core.windows.net/test-container-0ecec652-b28b-5e66-6547-5ae1a8f05589?restype=container",
      "RequestMethod": "PUT",
      "RequestHeaders": {
        "Authorization": "Sanitized",
        "traceparent": "00-79a8f820021aaa498a787e757104348c-0f12d8282b648646-00",
        "User-Agent": [
          "azsdk-net-Storage.Blobs/12.5.0-dev.20200402.1",
          "(.NET Core 4.6.28325.01; Microsoft Windows 10.0.18362 )"
        ],
        "x-ms-blob-public-access": "container",
        "x-ms-client-request-id": "27535a5c-c19d-7ffc-5afe-2dcd09ccf8ff",
        "x-ms-date": "Thu, 02 Apr 2020 23:43:19 GMT",
        "x-ms-return-client-request-id": "true",
        "x-ms-version": "2019-12-12"
      },
      "RequestBody": null,
      "StatusCode": 201,
      "ResponseHeaders": {
        "Content-Length": "0",
        "Date": "Thu, 02 Apr 2020 23:43:18 GMT",
        "ETag": "\u00220x8D7D75F9F658D2E\u0022",
        "Last-Modified": "Thu, 02 Apr 2020 23:43:19 GMT",
        "Server": [
          "Windows-Azure-Blob/1.0",
          "Microsoft-HTTPAPI/2.0"
        ],
        "x-ms-client-request-id": "27535a5c-c19d-7ffc-5afe-2dcd09ccf8ff",
        "x-ms-request-id": "b977ec7c-001e-005b-0348-09749b000000",
        "x-ms-version": "2019-12-12"
      },
      "ResponseBody": []
    },
    {
      "RequestUri": "https://seanmcccanary.blob.core.windows.net/test-container-0ecec652-b28b-5e66-6547-5ae1a8f05589/test-blob-958a9ab0-e279-5169-fd1d-71f748f422ef",
      "RequestMethod": "PUT",
      "RequestHeaders": {
        "Authorization": "Sanitized",
        "Content-Length": "1024",
        "traceparent": "00-b5dbc7ac7baea94a9d84dc1054aa3a64-02c65a22967efb47-00",
        "User-Agent": [
          "azsdk-net-Storage.Blobs/12.5.0-dev.20200402.1",
          "(.NET Core 4.6.28325.01; Microsoft Windows 10.0.18362 )"
        ],
        "x-ms-blob-type": "BlockBlob",
        "x-ms-client-request-id": "c6c0759b-20e4-5f04-4cc7-92c6baaaa4e8",
        "x-ms-date": "Thu, 02 Apr 2020 23:43:20 GMT",
        "x-ms-return-client-request-id": "true",
        "x-ms-version": "2019-12-12"
      },
      "RequestBody": "62bXH7R8WJsZh4DBQdmdLLUnhE2dLewNNDdU7InePMHRcKJZYXJ/4AK3DRVAOz2BYAAY4keqYr16yep8KGsSO0q/8NE3RMtCp6RK5iDWzfn60ouIxlp6Jw7k35eHAreWpdLLgEtsShw11TuiX3udo/vxglXgiXXwRcjCUmQzu6Tss0FNC0yujYhvUvAf18iSRjycloBithtd2zuCqve3AhqWtas6T5euQ/TMcTeE0G0ALwsolyQkiv0l8DARK\u002BORt1DViCIcWPek7VKLlkXk2ArNgnrrjmv1ciuuFF5nnRcRO7nmrkhL49cUhKrRmPO3QRglQ6lppSjl4Bb2bkOYPE87elqL/SnCgp6i1grBI9o39tJGQVltp5WQAc4yVHWUfEdalh2YK0TuY8ALxs4eJLw8v3dwUfv1zdLF\u002B/xajy0pDlrCZo28nsqOWN2ZYuHHctwS9ZX9IytMZMhK0zBHk9OS4rh0W70vfyCt4vkdXGvx/YkfSJmYK\u002BoudgLEccuaRsQJBoAoUhYf4nZ1UEEyLgddWdWnKEo5\u002BrbOReS7ag1VEps0FFbqyKtyAGUjI9qo/Ej7Zxj18h55zwvJWgwxZHhoHz2m/RmwcpEqNCflFtfbJUmcvwP1XyB9u0RKIG2eQZztugOdAv8uSvSHy732lLk07jXDlaR0cr8dKULVZlEji/OL91vTPiNKbXUPbpRihiaLFjI426v4eEdDgNm9WeSiYz/Ja5xdYK8ReSguZQQquqIbSU8e6rBIkn4TkL5KjBSRbQtVmBqKLrWDJmGDyhNDGMU2og\u002BUg3iOgdgdSdDxx\u002BwUnPj51SKHkRuZm8ROxchr0Hf5E\u002BoE/emSxhZBbOTlkV91bi0aSkOirhDz\u002Bue0QLwQsnhY\u002BLMBD58OZw4LRSQ3tAll2FabUIYzVmXZEQIC3YZaMbprjJmrc1\u002BODOI1l2jsvEXdT2dldWHyJKJOJ/6cDIqIsBRqyyhwuWT3DUSj/r787VW9JI0e9bxYeWf3XExh8QBYrOdUgfAdbZUCbmgdTyXjUjmp3\u002Bf8abtXElHBeF0YlhtESlLXp2xkoLb3HIZUOypBFAoStxIYXEMr/G6eW/Q46dhM2ATTC6rNRD8wBU00A9YngGRTBt4JK\u002B4Oq6v9xUTCvjKuB2IlbQhgRHPS51b29/mYd9uQ5eP5Q6wWxV//z3/7bkYahft0ARJc8sFrNkSXGLSxZU1oMtlPtMS1D6ioYHXz13gQ23H9I3XJNPIhjgxofqyrTWoxkjxsy9A2vvJqs5JMd17LhzxCs0HYn/7mLSa3TZH7/RMKwkU8oxChxmWDXoBg1ReunPZwaJkoWPM\u002Bhp6qfnFgb7V\u002BQbUZj\u002BQsoezcVUB9hlcOCQ==",
      "StatusCode": 201,
      "ResponseHeaders": {
        "Content-Length": "0",
        "Content-MD5": "N/J4fWKDBG13mqvYJEW94Q==",
        "Date": "Thu, 02 Apr 2020 23:43:18 GMT",
        "ETag": "\u00220x8D7D75F9F722EDA\u0022",
        "Last-Modified": "Thu, 02 Apr 2020 23:43:19 GMT",
        "Server": [
          "Windows-Azure-Blob/1.0",
          "Microsoft-HTTPAPI/2.0"
        ],
        "x-ms-client-request-id": "c6c0759b-20e4-5f04-4cc7-92c6baaaa4e8",
        "x-ms-content-crc64": "iG42g3Rt2qE=",
        "x-ms-request-id": "b977ec85-001e-005b-0848-09749b000000",
        "x-ms-request-server-encrypted": "true",
        "x-ms-version": "2019-12-12"
      },
      "ResponseBody": []
    },
    {
      "RequestUri": "https://seanmcccanary.blob.core.windows.net/test-container-0ecec652-b28b-5e66-6547-5ae1a8f05589/test-blob-a4b25033-adc4-a374-8746-cdcd95669e3c",
      "RequestMethod": "PUT",
      "RequestHeaders": {
        "Authorization": "Sanitized",
        "Content-Length": "1024",
        "traceparent": "00-76127e3b61aba54bb9edac3ea117849d-14ce51bc35fb0040-00",
        "User-Agent": [
          "azsdk-net-Storage.Blobs/12.5.0-dev.20200402.1",
          "(.NET Core 4.6.28325.01; Microsoft Windows 10.0.18362 )"
        ],
        "x-ms-blob-type": "BlockBlob",
        "x-ms-client-request-id": "63cf6407-5a0e-ee82-001d-3e9d5237c9e6",
        "x-ms-date": "Thu, 02 Apr 2020 23:43:20 GMT",
        "x-ms-return-client-request-id": "true",
        "x-ms-version": "2019-12-12"
      },
      "RequestBody": "62bXH7R8WJsZh4DBQdmdLLUnhE2dLewNNDdU7InePMHRcKJZYXJ/4AK3DRVAOz2BYAAY4keqYr16yep8KGsSO0q/8NE3RMtCp6RK5iDWzfn60ouIxlp6Jw7k35eHAreWpdLLgEtsShw11TuiX3udo/vxglXgiXXwRcjCUmQzu6Tss0FNC0yujYhvUvAf18iSRjycloBithtd2zuCqve3AhqWtas6T5euQ/TMcTeE0G0ALwsolyQkiv0l8DARK\u002BORt1DViCIcWPek7VKLlkXk2ArNgnrrjmv1ciuuFF5nnRcRO7nmrkhL49cUhKrRmPO3QRglQ6lppSjl4Bb2bkOYPE87elqL/SnCgp6i1grBI9o39tJGQVltp5WQAc4yVHWUfEdalh2YK0TuY8ALxs4eJLw8v3dwUfv1zdLF\u002B/xajy0pDlrCZo28nsqOWN2ZYuHHctwS9ZX9IytMZMhK0zBHk9OS4rh0W70vfyCt4vkdXGvx/YkfSJmYK\u002BoudgLEccuaRsQJBoAoUhYf4nZ1UEEyLgddWdWnKEo5\u002BrbOReS7ag1VEps0FFbqyKtyAGUjI9qo/Ej7Zxj18h55zwvJWgwxZHhoHz2m/RmwcpEqNCflFtfbJUmcvwP1XyB9u0RKIG2eQZztugOdAv8uSvSHy732lLk07jXDlaR0cr8dKULVZlEji/OL91vTPiNKbXUPbpRihiaLFjI426v4eEdDgNm9WeSiYz/Ja5xdYK8ReSguZQQquqIbSU8e6rBIkn4TkL5KjBSRbQtVmBqKLrWDJmGDyhNDGMU2og\u002BUg3iOgdgdSdDxx\u002BwUnPj51SKHkRuZm8ROxchr0Hf5E\u002BoE/emSxhZBbOTlkV91bi0aSkOirhDz\u002Bue0QLwQsnhY\u002BLMBD58OZw4LRSQ3tAll2FabUIYzVmXZEQIC3YZaMbprjJmrc1\u002BODOI1l2jsvEXdT2dldWHyJKJOJ/6cDIqIsBRqyyhwuWT3DUSj/r787VW9JI0e9bxYeWf3XExh8QBYrOdUgfAdbZUCbmgdTyXjUjmp3\u002Bf8abtXElHBeF0YlhtESlLXp2xkoLb3HIZUOypBFAoStxIYXEMr/G6eW/Q46dhM2ATTC6rNRD8wBU00A9YngGRTBt4JK\u002B4Oq6v9xUTCvjKuB2IlbQhgRHPS51b29/mYd9uQ5eP5Q6wWxV//z3/7bkYahft0ARJc8sFrNkSXGLSxZU1oMtlPtMS1D6ioYHXz13gQ23H9I3XJNPIhjgxofqyrTWoxkjxsy9A2vvJqs5JMd17LhzxCs0HYn/7mLSa3TZH7/RMKwkU8oxChxmWDXoBg1ReunPZwaJkoWPM\u002Bhp6qfnFgb7V\u002BQbUZj\u002BQsoezcVUB9hlcOCQ==",
      "StatusCode": 201,
      "ResponseHeaders": {
        "Content-Length": "0",
        "Content-MD5": "N/J4fWKDBG13mqvYJEW94Q==",
        "Date": "Thu, 02 Apr 2020 23:43:18 GMT",
        "ETag": "\u00220x8D7D75F9F7E8D2C\u0022",
        "Last-Modified": "Thu, 02 Apr 2020 23:43:19 GMT",
        "Server": [
          "Windows-Azure-Blob/1.0",
          "Microsoft-HTTPAPI/2.0"
        ],
        "x-ms-client-request-id": "63cf6407-5a0e-ee82-001d-3e9d5237c9e6",
        "x-ms-content-crc64": "iG42g3Rt2qE=",
        "x-ms-request-id": "b977ec96-001e-005b-1748-09749b000000",
        "x-ms-request-server-encrypted": "true",
        "x-ms-version": "2019-12-12"
      },
      "ResponseBody": []
    },
    {
      "RequestUri": "https://seanmcccanary.blob.core.windows.net/test-container-0ecec652-b28b-5e66-6547-5ae1a8f05589/test-blob-a4b25033-adc4-a374-8746-cdcd95669e3c",
      "RequestMethod": "PUT",
      "RequestHeaders": {
        "Authorization": "Sanitized",
        "traceparent": "00-a6cc3a2513c32d498d040cfa1b4b4de6-5e10243ed36b864e-00",
        "User-Agent": [
          "azsdk-net-Storage.Blobs/12.5.0-dev.20200402.1",
          "(.NET Core 4.6.28325.01; Microsoft Windows 10.0.18362 )"
        ],
        "x-ms-client-request-id": "31c5b1bc-3a96-c22d-a96d-d1161c6e57a5",
        "x-ms-copy-source": "https://seanmcccanary.blob.core.windows.net/test-container-0ecec652-b28b-5e66-6547-5ae1a8f05589/test-blob-958a9ab0-e279-5169-fd1d-71f748f422ef",
        "x-ms-date": "Thu, 02 Apr 2020 23:43:20 GMT",
        "x-ms-return-client-request-id": "true",
        "x-ms-version": "2019-12-12"
      },
      "RequestBody": null,
      "StatusCode": 202,
      "ResponseHeaders": {
        "Content-Length": "0",
        "Date": "Thu, 02 Apr 2020 23:43:18 GMT",
        "ETag": "\u00220x8D7D75F9F8B87D1\u0022",
        "Last-Modified": "Thu, 02 Apr 2020 23:43:19 GMT",
        "Server": [
          "Windows-Azure-Blob/1.0",
          "Microsoft-HTTPAPI/2.0"
        ],
        "x-ms-client-request-id": "31c5b1bc-3a96-c22d-a96d-d1161c6e57a5",
        "x-ms-copy-id": "0804901e-b093-4e55-86d7-1f7bc664429e",
        "x-ms-copy-status": "success",
        "x-ms-request-id": "b977ec9d-001e-005b-1c48-09749b000000",
        "x-ms-version": "2019-12-12"
      },
      "ResponseBody": []
    },
    {
      "RequestUri": "https://seanmcccanary.blob.core.windows.net/test-container-0ecec652-b28b-5e66-6547-5ae1a8f05589?restype=container",
      "RequestMethod": "DELETE",
      "RequestHeaders": {
        "Authorization": "Sanitized",
        "traceparent": "00-a8bf22fc6d922d4f8c55e944484fef70-69757fd818c8c34b-00",
        "User-Agent": [
          "azsdk-net-Storage.Blobs/12.5.0-dev.20200402.1",
          "(.NET Core 4.6.28325.01; Microsoft Windows 10.0.18362 )"
        ],
        "x-ms-client-request-id": "a1e003f4-9771-ee4f-27e6-e5e0009ebbd5",
        "x-ms-date": "Thu, 02 Apr 2020 23:43:20 GMT",
        "x-ms-return-client-request-id": "true",
        "x-ms-version": "2019-12-12"
      },
      "RequestBody": null,
      "StatusCode": 202,
      "ResponseHeaders": {
        "Content-Length": "0",
        "Date": "Thu, 02 Apr 2020 23:43:18 GMT",
        "Server": [
          "Windows-Azure-Blob/1.0",
          "Microsoft-HTTPAPI/2.0"
        ],
        "x-ms-client-request-id": "a1e003f4-9771-ee4f-27e6-e5e0009ebbd5",
        "x-ms-request-id": "b977eca5-001e-005b-2148-09749b000000",
        "x-ms-version": "2019-12-12"
      },
      "ResponseBody": []
    },
    {
      "RequestUri": "https://seanmcccanary.blob.core.windows.net/test-container-672321b0-0302-c198-e290-819f1b272fb6?restype=container",
      "RequestMethod": "PUT",
      "RequestHeaders": {
        "Authorization": "Sanitized",
        "traceparent": "00-117db2c9ec585240b66f2d6e1e5efd9c-96bff4f11488204a-00",
        "User-Agent": [
          "azsdk-net-Storage.Blobs/12.5.0-dev.20200402.1",
          "(.NET Core 4.6.28325.01; Microsoft Windows 10.0.18362 )"
        ],
        "x-ms-blob-public-access": "container",
        "x-ms-client-request-id": "7155483b-eecf-f157-6a1e-bfe115b0d200",
        "x-ms-date": "Thu, 02 Apr 2020 23:43:20 GMT",
        "x-ms-return-client-request-id": "true",
        "x-ms-version": "2019-12-12"
      },
      "RequestBody": null,
      "StatusCode": 201,
      "ResponseHeaders": {
        "Content-Length": "0",
        "Date": "Thu, 02 Apr 2020 23:43:18 GMT",
        "ETag": "\u00220x8D7D75F9FCB998D\u0022",
        "Last-Modified": "Thu, 02 Apr 2020 23:43:19 GMT",
        "Server": [
          "Windows-Azure-Blob/1.0",
          "Microsoft-HTTPAPI/2.0"
        ],
        "x-ms-client-request-id": "7155483b-eecf-f157-6a1e-bfe115b0d200",
        "x-ms-request-id": "0ea782e8-001e-0064-4348-09bc38000000",
        "x-ms-version": "2019-12-12"
      },
      "ResponseBody": []
    },
    {
      "RequestUri": "https://seanmcccanary.blob.core.windows.net/test-container-672321b0-0302-c198-e290-819f1b272fb6/test-blob-169b5b33-4c42-9ec9-7526-4046acdce353",
      "RequestMethod": "PUT",
      "RequestHeaders": {
        "Authorization": "Sanitized",
        "Content-Length": "1024",
        "traceparent": "00-9fddf18888a045409febd5d160817d37-7e10249e73f5e14d-00",
        "User-Agent": [
          "azsdk-net-Storage.Blobs/12.5.0-dev.20200402.1",
          "(.NET Core 4.6.28325.01; Microsoft Windows 10.0.18362 )"
        ],
        "x-ms-blob-type": "BlockBlob",
        "x-ms-client-request-id": "0ba0498e-f52a-af43-8cad-8b0435bf2058",
        "x-ms-date": "Thu, 02 Apr 2020 23:43:20 GMT",
        "x-ms-return-client-request-id": "true",
        "x-ms-version": "2019-12-12"
      },
      "RequestBody": "ti/JiHyiSPrtT4hNBdus9FpwY9LSveYoIDCub/ZTvi/i/QbmI62UmQBahIBmCeuPcsqGpE3/LvhIoWdM9NgDmZBYagjVxtGt3MrSdzlmwRZEHvwszBnh488OnoJFR6QnVurvDZ/juqz52MiDLba/4eBQB9Xc1813d4c5xidPZ5QlqiBOd7N3YWRQM/NRXrUYT7yh9T/PS38deJYYqfOEqnEzXYOVcGkt2aZwi6PZJhjRIHdrrXJUVV6hMf8cXrdxzImCHQAxg95SdBuZX7/cRFJ\u002BR4l7Gfz\u002B3ggl9D9qEHru/78ZVggXn52ZGDlWu/aexe2tnhcu9bONhD74DI6f6GOgq18Awu1JZqfs4gDCpyMRhi9SvHJjwAkMjNLJHpMO\u002BTDWtg\u002BWngL/YzdwQROyytwb54ZfTSvwPetW8zUbf0cU3ejQ7PEUeugsUlk68371WsL1rjcMr6wE5XgkQKrN4\u002BTwXGMq4d3rB2ydMvrStklsYJlyJtEPBy48zAd47zo9X250SpcbynjlCqfKb32xMS4ut98RWr0T4FQ07hXVchcyYNKMXWuyUZYhjRspRZixi5rZSThaLAWwYWpC5txiEJeQmA6qJNPDe2VJ8Myh6Zq8g2J7/Cje1zPN2/wAcGu5vn2EmayJB2bGFc7TETw4DnfPhWJ55hNvscDb3EnXwgv5jzFPHVDuM3z8teZaC8b3lMyEMOsIQNdpFefrriod7lPC2YEK6fEn4VHmfTEtFKb640d8U5Eg8U9Z5QhoAoVR3saTlzJE7avbXE\u002BZIsKlPABB8crjoJvBougysATpvt7LlZ5rmXxztfWcofZBhs6MtKgHJxG6bT4r0vVKEjym8p5wzYwkOqOEzTvVRv\u002BkfxsZpvxb4ZfNESdgP8eHKaO49a5Y0LlBZ3kFg1nV5Sc\u002Bh1LZMGtASxAGo7xlxPrb/KSYHFFQS65i1z6CVl4\u002B\u002BCsAIbh0rfg3eKqdUi383KN/KYa0PMnV7Tukd1ktvfSxyKqQZKNCZ0\u002BrYKOms/mAZfqaAy3YibthKjN80DWfCrq17ImDa3gAPMI2CdwlLjpCIxJekrrH2T/vLzlvxZYZDFbp8cdv/fmCmsZqoYDeO/z4Oa0jQHcA7hJKkzw\u002BkHYrHPyGPD1z0yUY3PjzXDe/EPM9dozp9czf6AK0JWm8QwlQPoSDWP\u002B\u002BhWaHC2R\u002BDJHbioNJARnqQicvp1Q7v667XJjuox6yO7f0fvEmYepoYNtw2Zrmc0LvZftdU7Grg8W4zK/Lj2lzKE/MVYInxOE8x0Z4yuYT1ehW/z0iVOcGSfssbZU7nNFy/bBLGh3AyKAaIYtqMrnfpPbGdZArUdNnxgyG\u002B1ZMACt1Bcw1yLvLlTacBw==",
      "StatusCode": 201,
      "ResponseHeaders": {
        "Content-Length": "0",
        "Content-MD5": "fM7zi4JYGxtqpDvTaBxIlg==",
        "Date": "Thu, 02 Apr 2020 23:43:19 GMT",
        "ETag": "\u00220x8D7D75F9FD98EDF\u0022",
        "Last-Modified": "Thu, 02 Apr 2020 23:43:19 GMT",
        "Server": [
          "Windows-Azure-Blob/1.0",
          "Microsoft-HTTPAPI/2.0"
        ],
        "x-ms-client-request-id": "0ba0498e-f52a-af43-8cad-8b0435bf2058",
        "x-ms-content-crc64": "dv3vBkdJxk8=",
        "x-ms-request-id": "0ea782f8-001e-0064-4c48-09bc38000000",
        "x-ms-request-server-encrypted": "true",
        "x-ms-version": "2019-12-12"
      },
      "ResponseBody": []
    },
    {
      "RequestUri": "https://seanmcccanary.blob.core.windows.net/test-container-672321b0-0302-c198-e290-819f1b272fb6/test-blob-5cb967e4-526a-1239-fba5-e956a2ee637a",
      "RequestMethod": "PUT",
      "RequestHeaders": {
        "Authorization": "Sanitized",
        "Content-Length": "1024",
        "traceparent": "00-43e8b45ab500b040a4227bd6bfc4a609-91a52356c775eb4f-00",
        "User-Agent": [
          "azsdk-net-Storage.Blobs/12.5.0-dev.20200402.1",
          "(.NET Core 4.6.28325.01; Microsoft Windows 10.0.18362 )"
        ],
        "x-ms-blob-type": "BlockBlob",
        "x-ms-client-request-id": "d3f651cc-8341-3cef-0f8e-0f850ced0c9e",
        "x-ms-date": "Thu, 02 Apr 2020 23:43:20 GMT",
        "x-ms-return-client-request-id": "true",
        "x-ms-version": "2019-12-12"
      },
      "RequestBody": "ti/JiHyiSPrtT4hNBdus9FpwY9LSveYoIDCub/ZTvi/i/QbmI62UmQBahIBmCeuPcsqGpE3/LvhIoWdM9NgDmZBYagjVxtGt3MrSdzlmwRZEHvwszBnh488OnoJFR6QnVurvDZ/juqz52MiDLba/4eBQB9Xc1813d4c5xidPZ5QlqiBOd7N3YWRQM/NRXrUYT7yh9T/PS38deJYYqfOEqnEzXYOVcGkt2aZwi6PZJhjRIHdrrXJUVV6hMf8cXrdxzImCHQAxg95SdBuZX7/cRFJ\u002BR4l7Gfz\u002B3ggl9D9qEHru/78ZVggXn52ZGDlWu/aexe2tnhcu9bONhD74DI6f6GOgq18Awu1JZqfs4gDCpyMRhi9SvHJjwAkMjNLJHpMO\u002BTDWtg\u002BWngL/YzdwQROyytwb54ZfTSvwPetW8zUbf0cU3ejQ7PEUeugsUlk68371WsL1rjcMr6wE5XgkQKrN4\u002BTwXGMq4d3rB2ydMvrStklsYJlyJtEPBy48zAd47zo9X250SpcbynjlCqfKb32xMS4ut98RWr0T4FQ07hXVchcyYNKMXWuyUZYhjRspRZixi5rZSThaLAWwYWpC5txiEJeQmA6qJNPDe2VJ8Myh6Zq8g2J7/Cje1zPN2/wAcGu5vn2EmayJB2bGFc7TETw4DnfPhWJ55hNvscDb3EnXwgv5jzFPHVDuM3z8teZaC8b3lMyEMOsIQNdpFefrriod7lPC2YEK6fEn4VHmfTEtFKb640d8U5Eg8U9Z5QhoAoVR3saTlzJE7avbXE\u002BZIsKlPABB8crjoJvBougysATpvt7LlZ5rmXxztfWcofZBhs6MtKgHJxG6bT4r0vVKEjym8p5wzYwkOqOEzTvVRv\u002BkfxsZpvxb4ZfNESdgP8eHKaO49a5Y0LlBZ3kFg1nV5Sc\u002Bh1LZMGtASxAGo7xlxPrb/KSYHFFQS65i1z6CVl4\u002B\u002BCsAIbh0rfg3eKqdUi383KN/KYa0PMnV7Tukd1ktvfSxyKqQZKNCZ0\u002BrYKOms/mAZfqaAy3YibthKjN80DWfCrq17ImDa3gAPMI2CdwlLjpCIxJekrrH2T/vLzlvxZYZDFbp8cdv/fmCmsZqoYDeO/z4Oa0jQHcA7hJKkzw\u002BkHYrHPyGPD1z0yUY3PjzXDe/EPM9dozp9czf6AK0JWm8QwlQPoSDWP\u002B\u002BhWaHC2R\u002BDJHbioNJARnqQicvp1Q7v667XJjuox6yO7f0fvEmYepoYNtw2Zrmc0LvZftdU7Grg8W4zK/Lj2lzKE/MVYInxOE8x0Z4yuYT1ehW/z0iVOcGSfssbZU7nNFy/bBLGh3AyKAaIYtqMrnfpPbGdZArUdNnxgyG\u002B1ZMACt1Bcw1yLvLlTacBw==",
      "StatusCode": 201,
      "ResponseHeaders": {
        "Content-Length": "0",
        "Content-MD5": "fM7zi4JYGxtqpDvTaBxIlg==",
        "Date": "Thu, 02 Apr 2020 23:43:19 GMT",
        "ETag": "\u00220x8D7D75F9FE6B09F\u0022",
        "Last-Modified": "Thu, 02 Apr 2020 23:43:20 GMT",
        "Server": [
          "Windows-Azure-Blob/1.0",
          "Microsoft-HTTPAPI/2.0"
        ],
        "x-ms-client-request-id": "d3f651cc-8341-3cef-0f8e-0f850ced0c9e",
        "x-ms-content-crc64": "dv3vBkdJxk8=",
        "x-ms-request-id": "0ea78302-001e-0064-5448-09bc38000000",
        "x-ms-request-server-encrypted": "true",
        "x-ms-version": "2019-12-12"
      },
      "ResponseBody": []
    },
    {
      "RequestUri": "https://seanmcccanary.blob.core.windows.net/test-container-672321b0-0302-c198-e290-819f1b272fb6/test-blob-5cb967e4-526a-1239-fba5-e956a2ee637a",
      "RequestMethod": "PUT",
      "RequestHeaders": {
        "Authorization": "Sanitized",
        "If-Modified-Since": "Wed, 01 Apr 2020 23:43:19 GMT",
        "traceparent": "00-207a33f067d7124f9be7648ae8eb63d2-06492dc5e861864f-00",
        "User-Agent": [
          "azsdk-net-Storage.Blobs/12.5.0-dev.20200402.1",
          "(.NET Core 4.6.28325.01; Microsoft Windows 10.0.18362 )"
        ],
        "x-ms-client-request-id": "508a7ae5-8ff7-c338-f77c-53adc8a30f07",
        "x-ms-copy-source": "https://seanmcccanary.blob.core.windows.net/test-container-672321b0-0302-c198-e290-819f1b272fb6/test-blob-169b5b33-4c42-9ec9-7526-4046acdce353",
        "x-ms-date": "Thu, 02 Apr 2020 23:43:21 GMT",
        "x-ms-return-client-request-id": "true",
        "x-ms-version": "2019-12-12"
      },
      "RequestBody": null,
      "StatusCode": 202,
      "ResponseHeaders": {
        "Content-Length": "0",
        "Date": "Thu, 02 Apr 2020 23:43:19 GMT",
        "ETag": "\u00220x8D7D75F9FF495D3\u0022",
        "Last-Modified": "Thu, 02 Apr 2020 23:43:20 GMT",
        "Server": [
          "Windows-Azure-Blob/1.0",
          "Microsoft-HTTPAPI/2.0"
        ],
        "x-ms-client-request-id": "508a7ae5-8ff7-c338-f77c-53adc8a30f07",
        "x-ms-copy-id": "ded8ef18-18cc-4d3f-a58c-e6a77e69b61e",
        "x-ms-copy-status": "success",
        "x-ms-request-id": "0ea7830a-001e-0064-5a48-09bc38000000",
        "x-ms-version": "2019-12-12"
      },
      "ResponseBody": []
    },
    {
      "RequestUri": "https://seanmcccanary.blob.core.windows.net/test-container-672321b0-0302-c198-e290-819f1b272fb6?restype=container",
      "RequestMethod": "DELETE",
      "RequestHeaders": {
        "Authorization": "Sanitized",
        "traceparent": "00-3e864c7c6458f84b974cf85bfa251447-cd20cdaa9dd4b544-00",
        "User-Agent": [
          "azsdk-net-Storage.Blobs/12.5.0-dev.20200402.1",
          "(.NET Core 4.6.28325.01; Microsoft Windows 10.0.18362 )"
        ],
        "x-ms-client-request-id": "919f6f11-bc63-baa6-d7fa-568a696e439a",
        "x-ms-date": "Thu, 02 Apr 2020 23:43:21 GMT",
        "x-ms-return-client-request-id": "true",
        "x-ms-version": "2019-12-12"
      },
      "RequestBody": null,
      "StatusCode": 202,
      "ResponseHeaders": {
        "Content-Length": "0",
        "Date": "Thu, 02 Apr 2020 23:43:19 GMT",
        "Server": [
          "Windows-Azure-Blob/1.0",
          "Microsoft-HTTPAPI/2.0"
        ],
        "x-ms-client-request-id": "919f6f11-bc63-baa6-d7fa-568a696e439a",
        "x-ms-request-id": "0ea78317-001e-0064-6648-09bc38000000",
        "x-ms-version": "2019-12-12"
      },
      "ResponseBody": []
    },
    {
      "RequestUri": "https://seanmcccanary.blob.core.windows.net/test-container-753c5f8e-f842-7302-137b-1a0cfa95a755?restype=container",
      "RequestMethod": "PUT",
      "RequestHeaders": {
        "Authorization": "Sanitized",
        "traceparent": "00-19e42efeb4e1cc44ae988c25c7f76b04-d5e646c855b44641-00",
        "User-Agent": [
          "azsdk-net-Storage.Blobs/12.5.0-dev.20200402.1",
          "(.NET Core 4.6.28325.01; Microsoft Windows 10.0.18362 )"
        ],
        "x-ms-blob-public-access": "container",
        "x-ms-client-request-id": "bc15faa7-3165-19b4-6d2c-7de7a199bf42",
        "x-ms-date": "Thu, 02 Apr 2020 23:43:21 GMT",
        "x-ms-return-client-request-id": "true",
        "x-ms-version": "2019-12-12"
      },
      "RequestBody": null,
      "StatusCode": 201,
      "ResponseHeaders": {
        "Content-Length": "0",
        "Date": "Thu, 02 Apr 2020 23:43:19 GMT",
        "ETag": "\u00220x8D7D75FA0355B00\u0022",
        "Last-Modified": "Thu, 02 Apr 2020 23:43:20 GMT",
        "Server": [
          "Windows-Azure-Blob/1.0",
          "Microsoft-HTTPAPI/2.0"
        ],
        "x-ms-client-request-id": "bc15faa7-3165-19b4-6d2c-7de7a199bf42",
        "x-ms-request-id": "094e65d4-a01e-006d-3948-09f9eb000000",
        "x-ms-version": "2019-12-12"
      },
      "ResponseBody": []
    },
    {
      "RequestUri": "https://seanmcccanary.blob.core.windows.net/test-container-753c5f8e-f842-7302-137b-1a0cfa95a755/test-blob-ab5fd471-5e7a-9125-464d-f21de376b561",
      "RequestMethod": "PUT",
      "RequestHeaders": {
        "Authorization": "Sanitized",
        "Content-Length": "1024",
        "traceparent": "00-3d25b9035e369a4ba52310a5098eda97-efc603b17092f444-00",
        "User-Agent": [
          "azsdk-net-Storage.Blobs/12.5.0-dev.20200402.1",
          "(.NET Core 4.6.28325.01; Microsoft Windows 10.0.18362 )"
        ],
        "x-ms-blob-type": "BlockBlob",
        "x-ms-client-request-id": "f5910539-fbaf-7339-570b-8b2612b69034",
        "x-ms-date": "Thu, 02 Apr 2020 23:43:21 GMT",
        "x-ms-return-client-request-id": "true",
        "x-ms-version": "2019-12-12"
      },
      "RequestBody": "UwC1DNLqlhC66P0lS2BXN9ZTZf9/6vCkqYLr2P\u002B8st5daU8aJpn0vGQEAXwzj80M1EYRTTTAw2gQEWJP/r4R/jUex\u002BERPRE8X6ibeuhzcBq13gS5qmWqnabmChQ2pb6m8wNHFcfr\u002B5c01O6LJEiAnKFImiC6V1PQdCo7KzL8Brrq9YflLFtSyeJthdZ2HnhdZW5z7Qud65yvdqCcsNBkN840oS/BmnBF9tE9TdJ9WVWy3sXEiRivTAnqNba6thgSCE0HQn1InMr9Lfc5YJ7KMRxL6tIKoK21hVQm1mW6iz\u002B4KkSEdRfXaUH6xlwhdetqIAOZbstGB2efUr0pIsVlQ6G3gTVZRrwFdICQENpRlA9ou7ZhIBx0cSPd5CNZrkZ8lYK6afO2ENpHlPpKtveNTr2twGYOAyOFQxASfGGYq8U6FHpXlyocsqrcGYwhKbsrT5Zlq\u002B3fbZFfNSXjo5R4r\u002Bg0EKJ8NbeTkQ68MuqWYxpU5izLMgDXWqbp92EFOQ4WY2qj7RgZrxrf0hrfIzqnyNELjrxnrXzoXLb7kj1VjVf/ps9/83YCOzcS7GDl\u002BDZrQi\u002BQ\u002BapSrrXuu5BhHRzciUTC4H1rJ9VbCVOFVcEcAmSAkFAOxZOsrPcZkDjmoB0aNWIbIxe4/xpZNPBXzFj00rgr4Y3MzcSxFTOFUpeddWg2ax9fAN9Mx5A1tJCiVeCfJL5/ur\u002BPTWidag3kMqyDvL\u002BIIGE5ldHZ3hn9lhg0Dr9T5i7YHbqopx23wZbRaJTjsvjQGjR/Zo/tptumkbdPaFxNkUx\u002Bq58F4HlDgdM6B3aEGeQgZPSL04Cf63beAhVmaFg6g9dIZQdZyjq6POS7sp5lIXjTLgRowr3L378oJt1k3Bh6AISeO7Pcx5m50Jec4znYeeCckzpU0sAZfYZHMaRcVl/LQLEaxubE9mdqrvIlL/uGT639x0neJi3DhL4tlZb1XXk40KKHvrL62J3S6STO9E6KwOH3Xo8W7RqDVkEnl2HRdVB47V5Z/5H6A\u002B\u002BsCz0J9ZBwotS0/f7qIuOIA2dw0kA7AXPTVQbvMcFP/FugauHdemCxt/SNHHdRjst70PspiTGucAnJNZ\u002BKgXASZQGjSrgCq4kHvxpLruX7gsc7c2DFJXIp8fnXE0TBJjaDerZ2rkQSeSVyIsoWYsEkzrPYTg0PTD\u002BOeVi\u002BKphERZjkxzMvhdSCKPk7UgOoE484s0WQ6NgodC135zTrVE6NLdwxMpqN9UnfVSYU1Po85mbJhndStF3Au1MGt52fl9OqriUmd\u002BD0qr38sZOxFJ8zOwDNIs7XOnl/cHdGhz2rP75SaSXUFW\u002BG1Nu5VgLKDqaz0nyc0nQF03SrpwZorSKAUA==",
      "StatusCode": 201,
      "ResponseHeaders": {
        "Content-Length": "0",
        "Content-MD5": "4p1AtV7UFoCNgNsmi3T4FA==",
        "Date": "Thu, 02 Apr 2020 23:43:19 GMT",
        "ETag": "\u00220x8D7D75FA042C3F9\u0022",
        "Last-Modified": "Thu, 02 Apr 2020 23:43:20 GMT",
        "Server": [
          "Windows-Azure-Blob/1.0",
          "Microsoft-HTTPAPI/2.0"
        ],
        "x-ms-client-request-id": "f5910539-fbaf-7339-570b-8b2612b69034",
        "x-ms-content-crc64": "1e\u002BnEbmPSNI=",
        "x-ms-request-id": "094e65ea-a01e-006d-4a48-09f9eb000000",
        "x-ms-request-server-encrypted": "true",
        "x-ms-version": "2019-12-12"
      },
      "ResponseBody": []
    },
    {
      "RequestUri": "https://seanmcccanary.blob.core.windows.net/test-container-753c5f8e-f842-7302-137b-1a0cfa95a755/test-blob-1a97a4f1-bf6d-0441-8a12-15c935b72828",
      "RequestMethod": "PUT",
      "RequestHeaders": {
        "Authorization": "Sanitized",
        "Content-Length": "1024",
        "traceparent": "00-ee7075028a443d4588ec518fcc6f8743-1ab9a5277f50f94b-00",
        "User-Agent": [
          "azsdk-net-Storage.Blobs/12.5.0-dev.20200402.1",
          "(.NET Core 4.6.28325.01; Microsoft Windows 10.0.18362 )"
        ],
        "x-ms-blob-type": "BlockBlob",
        "x-ms-client-request-id": "c47cf420-0d86-794b-c48d-6b9ce5703d9f",
        "x-ms-date": "Thu, 02 Apr 2020 23:43:21 GMT",
        "x-ms-return-client-request-id": "true",
        "x-ms-version": "2019-12-12"
      },
      "RequestBody": "UwC1DNLqlhC66P0lS2BXN9ZTZf9/6vCkqYLr2P\u002B8st5daU8aJpn0vGQEAXwzj80M1EYRTTTAw2gQEWJP/r4R/jUex\u002BERPRE8X6ibeuhzcBq13gS5qmWqnabmChQ2pb6m8wNHFcfr\u002B5c01O6LJEiAnKFImiC6V1PQdCo7KzL8Brrq9YflLFtSyeJthdZ2HnhdZW5z7Qud65yvdqCcsNBkN840oS/BmnBF9tE9TdJ9WVWy3sXEiRivTAnqNba6thgSCE0HQn1InMr9Lfc5YJ7KMRxL6tIKoK21hVQm1mW6iz\u002B4KkSEdRfXaUH6xlwhdetqIAOZbstGB2efUr0pIsVlQ6G3gTVZRrwFdICQENpRlA9ou7ZhIBx0cSPd5CNZrkZ8lYK6afO2ENpHlPpKtveNTr2twGYOAyOFQxASfGGYq8U6FHpXlyocsqrcGYwhKbsrT5Zlq\u002B3fbZFfNSXjo5R4r\u002Bg0EKJ8NbeTkQ68MuqWYxpU5izLMgDXWqbp92EFOQ4WY2qj7RgZrxrf0hrfIzqnyNELjrxnrXzoXLb7kj1VjVf/ps9/83YCOzcS7GDl\u002BDZrQi\u002BQ\u002BapSrrXuu5BhHRzciUTC4H1rJ9VbCVOFVcEcAmSAkFAOxZOsrPcZkDjmoB0aNWIbIxe4/xpZNPBXzFj00rgr4Y3MzcSxFTOFUpeddWg2ax9fAN9Mx5A1tJCiVeCfJL5/ur\u002BPTWidag3kMqyDvL\u002BIIGE5ldHZ3hn9lhg0Dr9T5i7YHbqopx23wZbRaJTjsvjQGjR/Zo/tptumkbdPaFxNkUx\u002Bq58F4HlDgdM6B3aEGeQgZPSL04Cf63beAhVmaFg6g9dIZQdZyjq6POS7sp5lIXjTLgRowr3L378oJt1k3Bh6AISeO7Pcx5m50Jec4znYeeCckzpU0sAZfYZHMaRcVl/LQLEaxubE9mdqrvIlL/uGT639x0neJi3DhL4tlZb1XXk40KKHvrL62J3S6STO9E6KwOH3Xo8W7RqDVkEnl2HRdVB47V5Z/5H6A\u002B\u002BsCz0J9ZBwotS0/f7qIuOIA2dw0kA7AXPTVQbvMcFP/FugauHdemCxt/SNHHdRjst70PspiTGucAnJNZ\u002BKgXASZQGjSrgCq4kHvxpLruX7gsc7c2DFJXIp8fnXE0TBJjaDerZ2rkQSeSVyIsoWYsEkzrPYTg0PTD\u002BOeVi\u002BKphERZjkxzMvhdSCKPk7UgOoE484s0WQ6NgodC135zTrVE6NLdwxMpqN9UnfVSYU1Po85mbJhndStF3Au1MGt52fl9OqriUmd\u002BD0qr38sZOxFJ8zOwDNIs7XOnl/cHdGhz2rP75SaSXUFW\u002BG1Nu5VgLKDqaz0nyc0nQF03SrpwZorSKAUA==",
      "StatusCode": 201,
      "ResponseHeaders": {
        "Content-Length": "0",
        "Content-MD5": "4p1AtV7UFoCNgNsmi3T4FA==",
        "Date": "Thu, 02 Apr 2020 23:43:20 GMT",
        "ETag": "\u00220x8D7D75FA0505B02\u0022",
        "Last-Modified": "Thu, 02 Apr 2020 23:43:20 GMT",
        "Server": [
          "Windows-Azure-Blob/1.0",
          "Microsoft-HTTPAPI/2.0"
        ],
        "x-ms-client-request-id": "c47cf420-0d86-794b-c48d-6b9ce5703d9f",
        "x-ms-content-crc64": "1e\u002BnEbmPSNI=",
        "x-ms-request-id": "094e65ed-a01e-006d-4d48-09f9eb000000",
        "x-ms-request-server-encrypted": "true",
        "x-ms-version": "2019-12-12"
      },
      "ResponseBody": []
    },
    {
      "RequestUri": "https://seanmcccanary.blob.core.windows.net/test-container-753c5f8e-f842-7302-137b-1a0cfa95a755/test-blob-1a97a4f1-bf6d-0441-8a12-15c935b72828",
      "RequestMethod": "PUT",
      "RequestHeaders": {
        "Authorization": "Sanitized",
        "If-Unmodified-Since": "Fri, 03 Apr 2020 23:43:19 GMT",
        "traceparent": "00-a14a5a527a5e9d47a6ad3a8bbb8a1bc7-7333426e6ed7fb46-00",
        "User-Agent": [
          "azsdk-net-Storage.Blobs/12.5.0-dev.20200402.1",
          "(.NET Core 4.6.28325.01; Microsoft Windows 10.0.18362 )"
        ],
        "x-ms-client-request-id": "41a837d8-633a-19a2-ef69-19585415f0e8",
        "x-ms-copy-source": "https://seanmcccanary.blob.core.windows.net/test-container-753c5f8e-f842-7302-137b-1a0cfa95a755/test-blob-ab5fd471-5e7a-9125-464d-f21de376b561",
        "x-ms-date": "Thu, 02 Apr 2020 23:43:21 GMT",
        "x-ms-return-client-request-id": "true",
        "x-ms-version": "2019-12-12"
      },
      "RequestBody": null,
      "StatusCode": 202,
      "ResponseHeaders": {
        "Content-Length": "0",
        "Date": "Thu, 02 Apr 2020 23:43:20 GMT",
        "ETag": "\u00220x8D7D75FA05E4032\u0022",
        "Last-Modified": "Thu, 02 Apr 2020 23:43:20 GMT",
        "Server": [
          "Windows-Azure-Blob/1.0",
          "Microsoft-HTTPAPI/2.0"
        ],
        "x-ms-client-request-id": "41a837d8-633a-19a2-ef69-19585415f0e8",
        "x-ms-copy-id": "067085c3-4310-4150-a54b-bc7bbc359cf2",
        "x-ms-copy-status": "success",
        "x-ms-request-id": "094e65f9-a01e-006d-5848-09f9eb000000",
        "x-ms-version": "2019-12-12"
      },
      "ResponseBody": []
    },
    {
      "RequestUri": "https://seanmcccanary.blob.core.windows.net/test-container-753c5f8e-f842-7302-137b-1a0cfa95a755?restype=container",
      "RequestMethod": "DELETE",
      "RequestHeaders": {
        "Authorization": "Sanitized",
        "traceparent": "00-329f54c85dfc834889343b9f44b4c485-7070014d259ae043-00",
        "User-Agent": [
          "azsdk-net-Storage.Blobs/12.5.0-dev.20200402.1",
          "(.NET Core 4.6.28325.01; Microsoft Windows 10.0.18362 )"
        ],
        "x-ms-client-request-id": "adc4036a-fcc7-7f65-c0e7-e86999f7dedc",
        "x-ms-date": "Thu, 02 Apr 2020 23:43:21 GMT",
        "x-ms-return-client-request-id": "true",
        "x-ms-version": "2019-12-12"
      },
      "RequestBody": null,
      "StatusCode": 202,
      "ResponseHeaders": {
        "Content-Length": "0",
        "Date": "Thu, 02 Apr 2020 23:43:20 GMT",
        "Server": [
          "Windows-Azure-Blob/1.0",
          "Microsoft-HTTPAPI/2.0"
        ],
        "x-ms-client-request-id": "adc4036a-fcc7-7f65-c0e7-e86999f7dedc",
        "x-ms-request-id": "094e6606-a01e-006d-6348-09f9eb000000",
        "x-ms-version": "2019-12-12"
      },
      "ResponseBody": []
    },
    {
      "RequestUri": "https://seanmcccanary.blob.core.windows.net/test-container-8b26d8d0-a31c-7544-2b3a-9cf092ddcdcf?restype=container",
      "RequestMethod": "PUT",
      "RequestHeaders": {
        "Authorization": "Sanitized",
        "traceparent": "00-f2abf5df3d773942b1ae7a045d7b3fd9-8b84c258efe20c44-00",
        "User-Agent": [
          "azsdk-net-Storage.Blobs/12.5.0-dev.20200402.1",
          "(.NET Core 4.6.28325.01; Microsoft Windows 10.0.18362 )"
        ],
        "x-ms-blob-public-access": "container",
        "x-ms-client-request-id": "73f4f56b-98f8-c66a-be4e-828d5f74ede3",
        "x-ms-date": "Thu, 02 Apr 2020 23:43:21 GMT",
        "x-ms-return-client-request-id": "true",
        "x-ms-version": "2019-12-12"
      },
      "RequestBody": null,
      "StatusCode": 201,
      "ResponseHeaders": {
        "Content-Length": "0",
        "Date": "Thu, 02 Apr 2020 23:43:20 GMT",
        "ETag": "\u00220x8D7D75FA09F4016\u0022",
        "Last-Modified": "Thu, 02 Apr 2020 23:43:21 GMT",
        "Server": [
          "Windows-Azure-Blob/1.0",
          "Microsoft-HTTPAPI/2.0"
        ],
        "x-ms-client-request-id": "73f4f56b-98f8-c66a-be4e-828d5f74ede3",
        "x-ms-request-id": "10722bc5-101e-0025-8048-09e4dc000000",
        "x-ms-version": "2019-12-12"
      },
      "ResponseBody": []
    },
    {
      "RequestUri": "https://seanmcccanary.blob.core.windows.net/test-container-8b26d8d0-a31c-7544-2b3a-9cf092ddcdcf/test-blob-48290249-8243-0465-49e3-c74e33849e5a",
      "RequestMethod": "PUT",
      "RequestHeaders": {
        "Authorization": "Sanitized",
        "Content-Length": "1024",
        "traceparent": "00-c3a1c583e69ca2498c036cfec7c7f6c5-3abd2ed4ec90544f-00",
        "User-Agent": [
          "azsdk-net-Storage.Blobs/12.5.0-dev.20200402.1",
          "(.NET Core 4.6.28325.01; Microsoft Windows 10.0.18362 )"
        ],
        "x-ms-blob-type": "BlockBlob",
        "x-ms-client-request-id": "a8755a29-537d-064d-a527-cc04a1e474de",
        "x-ms-date": "Thu, 02 Apr 2020 23:43:22 GMT",
        "x-ms-return-client-request-id": "true",
        "x-ms-version": "2019-12-12"
      },
      "RequestBody": "GRkkBgmNio23Hid65Qn8iWXuhJzoWdatKCeSA8CTqO\u002B02iFffs6k3mpmvNpx7\u002BC0UfkncPBQ\u002BsBCdt7h\u002BofNI3U3xQronAuXSqUxgZz8PDhG3bHHazj/ZN9gHAfwwuTjmZlkOSnWzLTtkCZKHnkjRjqlmxzWBbc9OGEqh4AEp4fBTucDlwIPcBH82dsRtEVmPdbMSifHDZThJgDIq0Q06eieic\u002BRIK44lioL2SzcK4MbxEqqN1xg\u002BUFTInABRsXMyO/ycyt11R0nlLT8vDNoBft9rOf6irGMPo\u002BOPf09Nk9lPhA86bhXpe4tgqOoYz0N6xx1hJne0j0\u002BZjWc55gf6V1kln0iKxtCJQf4zQgN5NpRgFHhyLG1h2zT/YODu71VDphGQ8zA678BMl\u002BS5QU1MIFaSmdGPSGrrw8QTy6Yv2lJor5vx6ENkZWR4JVSI6Fnnc0BKHFWDtB3mpS9r5uRaHP1SUJGxmjgTbjStV2MWItuqbFglpf385Pu9y0NUOL5/3chXdpeIddkINu5g1ly6kEITwbpMdHb/VWuV8470/zV2bXmavuxD4fa\u002B3W8Pm86ewzrBAHcD86lRl\u002BEr8kIKU3e46qki4BFVj9\u002BDzVcH77mdNvCUM77\u002BcnmQSScLV\u002B\u002B0tIo3lvElvCMpa7BXQCYSSagnTvtRth\u002B4unhvUpcqSngwDxjM0FjId7rNaogOZzJTvj9\u002B48j0Iz5qfty49ilMPyE4Z3DNRXlPXxdARAuXqhMF29SXq2avO\u002BwaolF8D4FRgWunFj/BRjiGL4Txs97y0tSJctpU9FO6SStEsuLn0w9V7sLf8JPTRJWcEbuh/UgNZ8\u002B8stym/MzX7IzUfNNVnhy1W4UcEuJAte5E\u002BKLYGIvjd0sTayBy7zH1yAPHPseCBnOfLGGC8VTte/zuIgQqP9PBMQWIQnL8AmyTJkqeebcmgrIvOOwqIEY2Je9jRI0ty4hwBc3COcQAoun1L8sKTwJFx19R\u002Bscn1xC/klxDmP3fpRqCbnOpJIjuLpXCNPC7K9btHX0tm9CBCC79Qqdn/MosFUqwR\u002BCOnOLWY8xxJaIgBGZFVrtAsglKASYE66HhRjGL1h\u002BlyqP2HkCaVzgEUCKM3X4A4mZOq2NBZka6ibEA9R3apU9CujnCT3g6plrRRbEDeA5j4GOLfSq8JGRde1TPWWIaKaqTCmMEflMuE8UIsCCVt1Gi3RS6D2hkxlXVpRPja0049xwGcC2rH2HQXSkls7RDh4QDLHxNYBpCbkPNbtl/Sui3z7kEjwcj9/2yqbI/PxLhUd2PoD7Q61bBhAGp3bCIkRJAbaP7Pzi9H3S\u002BmrZoQy9xK9z7r\u002BrppyRiAssFehoM6hif/tFvJhKlA==",
      "StatusCode": 201,
      "ResponseHeaders": {
        "Content-Length": "0",
        "Content-MD5": "tnX8lvEqDjgbXl89tMziYQ==",
        "Date": "Thu, 02 Apr 2020 23:43:20 GMT",
        "ETag": "\u00220x8D7D75FA0AC956E\u0022",
        "Last-Modified": "Thu, 02 Apr 2020 23:43:21 GMT",
        "Server": [
          "Windows-Azure-Blob/1.0",
          "Microsoft-HTTPAPI/2.0"
        ],
        "x-ms-client-request-id": "a8755a29-537d-064d-a527-cc04a1e474de",
        "x-ms-content-crc64": "Vwwl\u002BBJqmOo=",
        "x-ms-request-id": "10722be6-101e-0025-1b48-09e4dc000000",
        "x-ms-request-server-encrypted": "true",
        "x-ms-version": "2019-12-12"
      },
      "ResponseBody": []
    },
    {
      "RequestUri": "https://seanmcccanary.blob.core.windows.net/test-container-8b26d8d0-a31c-7544-2b3a-9cf092ddcdcf/test-blob-bd2ba0e0-5834-6bde-6dbf-81800b43f3d1",
      "RequestMethod": "PUT",
      "RequestHeaders": {
        "Authorization": "Sanitized",
        "Content-Length": "1024",
        "traceparent": "00-0b66a22d9ab7da46aa75d920209333b3-7ea3e6bc347d2b45-00",
        "User-Agent": [
          "azsdk-net-Storage.Blobs/12.5.0-dev.20200402.1",
          "(.NET Core 4.6.28325.01; Microsoft Windows 10.0.18362 )"
        ],
        "x-ms-blob-type": "BlockBlob",
        "x-ms-client-request-id": "7140984d-4a4c-d0e2-7c0a-3abed2cdfa61",
        "x-ms-date": "Thu, 02 Apr 2020 23:43:22 GMT",
        "x-ms-return-client-request-id": "true",
        "x-ms-version": "2019-12-12"
      },
      "RequestBody": "GRkkBgmNio23Hid65Qn8iWXuhJzoWdatKCeSA8CTqO\u002B02iFffs6k3mpmvNpx7\u002BC0UfkncPBQ\u002BsBCdt7h\u002BofNI3U3xQronAuXSqUxgZz8PDhG3bHHazj/ZN9gHAfwwuTjmZlkOSnWzLTtkCZKHnkjRjqlmxzWBbc9OGEqh4AEp4fBTucDlwIPcBH82dsRtEVmPdbMSifHDZThJgDIq0Q06eieic\u002BRIK44lioL2SzcK4MbxEqqN1xg\u002BUFTInABRsXMyO/ycyt11R0nlLT8vDNoBft9rOf6irGMPo\u002BOPf09Nk9lPhA86bhXpe4tgqOoYz0N6xx1hJne0j0\u002BZjWc55gf6V1kln0iKxtCJQf4zQgN5NpRgFHhyLG1h2zT/YODu71VDphGQ8zA678BMl\u002BS5QU1MIFaSmdGPSGrrw8QTy6Yv2lJor5vx6ENkZWR4JVSI6Fnnc0BKHFWDtB3mpS9r5uRaHP1SUJGxmjgTbjStV2MWItuqbFglpf385Pu9y0NUOL5/3chXdpeIddkINu5g1ly6kEITwbpMdHb/VWuV8470/zV2bXmavuxD4fa\u002B3W8Pm86ewzrBAHcD86lRl\u002BEr8kIKU3e46qki4BFVj9\u002BDzVcH77mdNvCUM77\u002BcnmQSScLV\u002B\u002B0tIo3lvElvCMpa7BXQCYSSagnTvtRth\u002B4unhvUpcqSngwDxjM0FjId7rNaogOZzJTvj9\u002B48j0Iz5qfty49ilMPyE4Z3DNRXlPXxdARAuXqhMF29SXq2avO\u002BwaolF8D4FRgWunFj/BRjiGL4Txs97y0tSJctpU9FO6SStEsuLn0w9V7sLf8JPTRJWcEbuh/UgNZ8\u002B8stym/MzX7IzUfNNVnhy1W4UcEuJAte5E\u002BKLYGIvjd0sTayBy7zH1yAPHPseCBnOfLGGC8VTte/zuIgQqP9PBMQWIQnL8AmyTJkqeebcmgrIvOOwqIEY2Je9jRI0ty4hwBc3COcQAoun1L8sKTwJFx19R\u002Bscn1xC/klxDmP3fpRqCbnOpJIjuLpXCNPC7K9btHX0tm9CBCC79Qqdn/MosFUqwR\u002BCOnOLWY8xxJaIgBGZFVrtAsglKASYE66HhRjGL1h\u002BlyqP2HkCaVzgEUCKM3X4A4mZOq2NBZka6ibEA9R3apU9CujnCT3g6plrRRbEDeA5j4GOLfSq8JGRde1TPWWIaKaqTCmMEflMuE8UIsCCVt1Gi3RS6D2hkxlXVpRPja0049xwGcC2rH2HQXSkls7RDh4QDLHxNYBpCbkPNbtl/Sui3z7kEjwcj9/2yqbI/PxLhUd2PoD7Q61bBhAGp3bCIkRJAbaP7Pzi9H3S\u002BmrZoQy9xK9z7r\u002BrppyRiAssFehoM6hif/tFvJhKlA==",
      "StatusCode": 201,
      "ResponseHeaders": {
        "Content-Length": "0",
        "Content-MD5": "tnX8lvEqDjgbXl89tMziYQ==",
        "Date": "Thu, 02 Apr 2020 23:43:20 GMT",
        "ETag": "\u00220x8D7D75FA0B9DE42\u0022",
        "Last-Modified": "Thu, 02 Apr 2020 23:43:21 GMT",
        "Server": [
          "Windows-Azure-Blob/1.0",
          "Microsoft-HTTPAPI/2.0"
        ],
        "x-ms-client-request-id": "7140984d-4a4c-d0e2-7c0a-3abed2cdfa61",
        "x-ms-content-crc64": "Vwwl\u002BBJqmOo=",
        "x-ms-request-id": "10722bfc-101e-0025-2f48-09e4dc000000",
        "x-ms-request-server-encrypted": "true",
        "x-ms-version": "2019-12-12"
      },
      "ResponseBody": []
    },
    {
      "RequestUri": "https://seanmcccanary.blob.core.windows.net/test-container-8b26d8d0-a31c-7544-2b3a-9cf092ddcdcf/test-blob-bd2ba0e0-5834-6bde-6dbf-81800b43f3d1",
      "RequestMethod": "HEAD",
      "RequestHeaders": {
        "Authorization": "Sanitized",
        "traceparent": "00-45cabd702cc5cf4ab8ecde33c06a65c2-7773940ed8bc8c4b-00",
        "User-Agent": [
          "azsdk-net-Storage.Blobs/12.5.0-dev.20200402.1",
          "(.NET Core 4.6.28325.01; Microsoft Windows 10.0.18362 )"
        ],
        "x-ms-client-request-id": "72329ff7-8102-9184-ce54-5c04ba1ef4e3",
        "x-ms-date": "Thu, 02 Apr 2020 23:43:22 GMT",
        "x-ms-return-client-request-id": "true",
        "x-ms-version": "2019-12-12"
      },
      "RequestBody": null,
      "StatusCode": 200,
      "ResponseHeaders": {
        "Accept-Ranges": "bytes",
        "Content-Length": "1024",
        "Content-MD5": "tnX8lvEqDjgbXl89tMziYQ==",
        "Content-Type": "application/octet-stream",
        "Date": "Thu, 02 Apr 2020 23:43:20 GMT",
        "ETag": "\u00220x8D7D75FA0B9DE42\u0022",
        "Last-Modified": "Thu, 02 Apr 2020 23:43:21 GMT",
        "Server": [
          "Windows-Azure-Blob/1.0",
          "Microsoft-HTTPAPI/2.0"
        ],
        "x-ms-access-tier": "Hot",
        "x-ms-access-tier-inferred": "true",
        "x-ms-blob-type": "BlockBlob",
        "x-ms-client-request-id": "72329ff7-8102-9184-ce54-5c04ba1ef4e3",
        "x-ms-creation-time": "Thu, 02 Apr 2020 23:43:21 GMT",
        "x-ms-lease-state": "available",
        "x-ms-lease-status": "unlocked",
        "x-ms-request-id": "10722c08-101e-0025-3b48-09e4dc000000",
        "x-ms-server-encrypted": "true",
        "x-ms-version": "2019-12-12"
      },
      "ResponseBody": []
    },
    {
      "RequestUri": "https://seanmcccanary.blob.core.windows.net/test-container-8b26d8d0-a31c-7544-2b3a-9cf092ddcdcf/test-blob-bd2ba0e0-5834-6bde-6dbf-81800b43f3d1",
      "RequestMethod": "PUT",
      "RequestHeaders": {
        "Authorization": "Sanitized",
        "If-Match": "\u00220x8D7D75FA0B9DE42\u0022",
        "traceparent": "00-43fae346c6ee8b409d21e3814cb70268-af77c1acda276943-00",
        "User-Agent": [
          "azsdk-net-Storage.Blobs/12.5.0-dev.20200402.1",
          "(.NET Core 4.6.28325.01; Microsoft Windows 10.0.18362 )"
        ],
        "x-ms-client-request-id": "32c75eb1-889a-b25e-7598-226b3fc930a4",
        "x-ms-copy-source": "https://seanmcccanary.blob.core.windows.net/test-container-8b26d8d0-a31c-7544-2b3a-9cf092ddcdcf/test-blob-48290249-8243-0465-49e3-c74e33849e5a",
        "x-ms-date": "Thu, 02 Apr 2020 23:43:22 GMT",
        "x-ms-return-client-request-id": "true",
        "x-ms-version": "2019-12-12"
      },
      "RequestBody": null,
      "StatusCode": 202,
      "ResponseHeaders": {
        "Content-Length": "0",
        "Date": "Thu, 02 Apr 2020 23:43:20 GMT",
        "ETag": "\u00220x8D7D75FA0D4E53A\u0022",
        "Last-Modified": "Thu, 02 Apr 2020 23:43:21 GMT",
        "Server": [
          "Windows-Azure-Blob/1.0",
          "Microsoft-HTTPAPI/2.0"
        ],
        "x-ms-client-request-id": "32c75eb1-889a-b25e-7598-226b3fc930a4",
        "x-ms-copy-id": "1fdbfc9f-5a90-40ce-a437-062f753d7a57",
        "x-ms-copy-status": "success",
        "x-ms-request-id": "10722c1b-101e-0025-4e48-09e4dc000000",
        "x-ms-version": "2019-12-12"
      },
      "ResponseBody": []
    },
    {
      "RequestUri": "https://seanmcccanary.blob.core.windows.net/test-container-8b26d8d0-a31c-7544-2b3a-9cf092ddcdcf?restype=container",
      "RequestMethod": "DELETE",
      "RequestHeaders": {
        "Authorization": "Sanitized",
        "traceparent": "00-331318fa43cebf4d98b93435b470cd48-885bb5a860097e46-00",
        "User-Agent": [
          "azsdk-net-Storage.Blobs/12.5.0-dev.20200402.1",
          "(.NET Core 4.6.28325.01; Microsoft Windows 10.0.18362 )"
        ],
        "x-ms-client-request-id": "5c533090-c157-db48-8ca6-a2ceb5b772ff",
        "x-ms-date": "Thu, 02 Apr 2020 23:43:22 GMT",
        "x-ms-return-client-request-id": "true",
        "x-ms-version": "2019-12-12"
      },
      "RequestBody": null,
      "StatusCode": 202,
      "ResponseHeaders": {
        "Content-Length": "0",
        "Date": "Thu, 02 Apr 2020 23:43:20 GMT",
        "Server": [
          "Windows-Azure-Blob/1.0",
          "Microsoft-HTTPAPI/2.0"
        ],
        "x-ms-client-request-id": "5c533090-c157-db48-8ca6-a2ceb5b772ff",
        "x-ms-request-id": "10722c30-101e-0025-6248-09e4dc000000",
        "x-ms-version": "2019-12-12"
      },
      "ResponseBody": []
    },
    {
      "RequestUri": "https://seanmcccanary.blob.core.windows.net/test-container-12770925-a29a-6f35-e8a7-b519e0b1dfd8?restype=container",
      "RequestMethod": "PUT",
      "RequestHeaders": {
        "Authorization": "Sanitized",
        "traceparent": "00-f206c6efee034b448c97c4317d4efc1c-69df5bf87c60c94e-00",
        "User-Agent": [
          "azsdk-net-Storage.Blobs/12.5.0-dev.20200402.1",
          "(.NET Core 4.6.28325.01; Microsoft Windows 10.0.18362 )"
        ],
        "x-ms-blob-public-access": "container",
        "x-ms-client-request-id": "c987a80e-4226-ee27-fae4-74af0c2ffbda",
        "x-ms-date": "Thu, 02 Apr 2020 23:43:22 GMT",
        "x-ms-return-client-request-id": "true",
        "x-ms-version": "2019-12-12"
      },
      "RequestBody": null,
      "StatusCode": 201,
      "ResponseHeaders": {
        "Content-Length": "0",
        "Date": "Thu, 02 Apr 2020 23:43:21 GMT",
        "ETag": "\u00220x8D7D75FA115EAF8\u0022",
        "Last-Modified": "Thu, 02 Apr 2020 23:43:22 GMT",
        "Server": [
          "Windows-Azure-Blob/1.0",
          "Microsoft-HTTPAPI/2.0"
        ],
        "x-ms-client-request-id": "c987a80e-4226-ee27-fae4-74af0c2ffbda",
        "x-ms-request-id": "8e692c12-701e-007e-2e48-09dde7000000",
        "x-ms-version": "2019-12-12"
      },
      "ResponseBody": []
    },
    {
      "RequestUri": "https://seanmcccanary.blob.core.windows.net/test-container-12770925-a29a-6f35-e8a7-b519e0b1dfd8/test-blob-d3aa7430-2e1d-4af5-c877-de9acc495440",
      "RequestMethod": "PUT",
      "RequestHeaders": {
        "Authorization": "Sanitized",
        "Content-Length": "1024",
        "traceparent": "00-9352105b11e4e64cbd8d496e598351da-34db4ef34e1be94a-00",
        "User-Agent": [
          "azsdk-net-Storage.Blobs/12.5.0-dev.20200402.1",
          "(.NET Core 4.6.28325.01; Microsoft Windows 10.0.18362 )"
        ],
        "x-ms-blob-type": "BlockBlob",
        "x-ms-client-request-id": "f8e32416-0d18-11c6-883c-89147c9e79c9",
        "x-ms-date": "Thu, 02 Apr 2020 23:43:22 GMT",
        "x-ms-return-client-request-id": "true",
        "x-ms-version": "2019-12-12"
      },
      "RequestBody": "x8mJVNxiiVK8yDAEDOTQQD3uCjcqFbICOewUkV6dorKbu4nVHhbqrB41DF0RI\u002BIWEzRyHSXDsLIWhxrvTfjzHyV\u002BaFBb\u002BiImBF4Z9AhU8BYK/n0qKoSN1wvWv5b7\u002Bl4mQe04k7qRuhkSSxjGqrupwpcE5E96yfWg8JBFhDuLKwr/87MbHFxbeURkGN5rxi1PLPz/9hUPrHj4l6IpSzXdhiAOxrYIjqU6qWsKFbEWNSpi9lc\u002BjDX08EY7I4S5MS0OhpG\u002BXf92R55XxE2qBJbH4WJ4xlXdn/nrGtZvzGsggHc\u002B\u002B44fV9cq666558jnSuywdEEiQWrXMeeY00MpBnoyNkTVbAgHp4qKTdunI7gxA8/qv1gq/j4MZsqnhoSUAeQzh7GDEt3jqMy3mPOPMA0uZ9BzPkchCDcFyAU\u002BYCEF9Uz2c5wGrfHyBheMcmVLfTW8eB\u002B0IcKdEX55fknXpEiqsaKnmbxxKLnegTgwlZbSuUvQgecBUdSJWGEejS\u002BnGmHO4cHDpON5S1Bl1aCKbXzop8T9ByNgqWDOHUBaUpqKN2fWYbPUDhVoVjaWm3w0/\u002BrlNeZqqRI\u002Bbjhg9IaiHvi22504tAzIE5iulbHsyg3jmR1VdR2zII1Ul/J7dBmPxTg94MDe\u002B0veHCJOvBRhUqMrfFtoTKnbAroQ4x0ZTZ9\u002BH894rulMBZ7Sd1j6ZWR580VPUPe\u002BJnmPYt0GzRcuxM6D0JxE6KO63ne8ltVQ4J1Wl/DYyv2ov/lW6UwLRjiGpLKKd5XHNAuhlHGAAY\u002BjPoJArzYnVvrR2xCj7f5Xrpg/NvEixmgIj2LlNjWMJ71psqrJy5cBX064uZyEJEYMSebZQcuegXgZOB/TQh/ERLNTOTpUjeMBPdejag3MhGob2OxPs\u002BbyyzExsJJ3Lhwu83TpMOoMuLwD1wP0\u002BhdrTbS0t2kzdZHMYW4JIt1QiQ\u002B6dHeY4lOADyAwTNvj/dAaxmPewnaz\u002B33iHc98A5bes070OoWg0mpgNKdJAim26GOd7lt6ccaYBnn5tsWDAwyJUZmM78NKevP4fY7OafhUKzRr3xQ6ZEGHWzMMpxul3TGbv7GQKfmgUnRogfM4yp2ApIuQGCT4T\u002BxXBZOPPtPXU6BdM6lHxAE7y4yg0uNOTpGWjAKQFMUMo3DFOSRmEBSgkC1S25bzOeCJVUyYWHwICbYB\u002BbLQRj7bUI85govd1Lp4/0K2\u002B3L6o1MiB794dEvzvDBtZBdi0EnudosHubdUrICSH1g6Ug1EB1Zerj9/Y9xERcVbb3CiFi74x4Xn8\u002BmczVo/5VTyuWoiKV3BAyEJbxKvwnTx\u002BTwQ8AkqQYuIXBNtwuHkP36HUotbOEYS4RIN7ldyOA==",
      "StatusCode": 201,
      "ResponseHeaders": {
        "Content-Length": "0",
        "Content-MD5": "\u002By0nndYz2HG5l9Sfx/FsNQ==",
        "Date": "Thu, 02 Apr 2020 23:43:21 GMT",
        "ETag": "\u00220x8D7D75FA123FDEA\u0022",
        "Last-Modified": "Thu, 02 Apr 2020 23:43:22 GMT",
        "Server": [
          "Windows-Azure-Blob/1.0",
          "Microsoft-HTTPAPI/2.0"
        ],
        "x-ms-client-request-id": "f8e32416-0d18-11c6-883c-89147c9e79c9",
        "x-ms-content-crc64": "wpHemhdUsP4=",
        "x-ms-request-id": "8e692c30-701e-007e-4748-09dde7000000",
        "x-ms-request-server-encrypted": "true",
        "x-ms-version": "2019-12-12"
      },
      "ResponseBody": []
    },
    {
      "RequestUri": "https://seanmcccanary.blob.core.windows.net/test-container-12770925-a29a-6f35-e8a7-b519e0b1dfd8/test-blob-c9ccd28d-dd27-bf10-8b14-122631e653ab",
      "RequestMethod": "PUT",
      "RequestHeaders": {
        "Authorization": "Sanitized",
        "Content-Length": "1024",
        "traceparent": "00-5cac2a0c3331344cadee3d3d5e7144f5-9d4fb35de5637640-00",
        "User-Agent": [
          "azsdk-net-Storage.Blobs/12.5.0-dev.20200402.1",
          "(.NET Core 4.6.28325.01; Microsoft Windows 10.0.18362 )"
        ],
        "x-ms-blob-type": "BlockBlob",
        "x-ms-client-request-id": "2481347d-8950-390c-1423-6d04fb9fdfa1",
        "x-ms-date": "Thu, 02 Apr 2020 23:43:23 GMT",
        "x-ms-return-client-request-id": "true",
        "x-ms-version": "2019-12-12"
      },
      "RequestBody": "x8mJVNxiiVK8yDAEDOTQQD3uCjcqFbICOewUkV6dorKbu4nVHhbqrB41DF0RI\u002BIWEzRyHSXDsLIWhxrvTfjzHyV\u002BaFBb\u002BiImBF4Z9AhU8BYK/n0qKoSN1wvWv5b7\u002Bl4mQe04k7qRuhkSSxjGqrupwpcE5E96yfWg8JBFhDuLKwr/87MbHFxbeURkGN5rxi1PLPz/9hUPrHj4l6IpSzXdhiAOxrYIjqU6qWsKFbEWNSpi9lc\u002BjDX08EY7I4S5MS0OhpG\u002BXf92R55XxE2qBJbH4WJ4xlXdn/nrGtZvzGsggHc\u002B\u002B44fV9cq666558jnSuywdEEiQWrXMeeY00MpBnoyNkTVbAgHp4qKTdunI7gxA8/qv1gq/j4MZsqnhoSUAeQzh7GDEt3jqMy3mPOPMA0uZ9BzPkchCDcFyAU\u002BYCEF9Uz2c5wGrfHyBheMcmVLfTW8eB\u002B0IcKdEX55fknXpEiqsaKnmbxxKLnegTgwlZbSuUvQgecBUdSJWGEejS\u002BnGmHO4cHDpON5S1Bl1aCKbXzop8T9ByNgqWDOHUBaUpqKN2fWYbPUDhVoVjaWm3w0/\u002BrlNeZqqRI\u002Bbjhg9IaiHvi22504tAzIE5iulbHsyg3jmR1VdR2zII1Ul/J7dBmPxTg94MDe\u002B0veHCJOvBRhUqMrfFtoTKnbAroQ4x0ZTZ9\u002BH894rulMBZ7Sd1j6ZWR580VPUPe\u002BJnmPYt0GzRcuxM6D0JxE6KO63ne8ltVQ4J1Wl/DYyv2ov/lW6UwLRjiGpLKKd5XHNAuhlHGAAY\u002BjPoJArzYnVvrR2xCj7f5Xrpg/NvEixmgIj2LlNjWMJ71psqrJy5cBX064uZyEJEYMSebZQcuegXgZOB/TQh/ERLNTOTpUjeMBPdejag3MhGob2OxPs\u002BbyyzExsJJ3Lhwu83TpMOoMuLwD1wP0\u002BhdrTbS0t2kzdZHMYW4JIt1QiQ\u002B6dHeY4lOADyAwTNvj/dAaxmPewnaz\u002B33iHc98A5bes070OoWg0mpgNKdJAim26GOd7lt6ccaYBnn5tsWDAwyJUZmM78NKevP4fY7OafhUKzRr3xQ6ZEGHWzMMpxul3TGbv7GQKfmgUnRogfM4yp2ApIuQGCT4T\u002BxXBZOPPtPXU6BdM6lHxAE7y4yg0uNOTpGWjAKQFMUMo3DFOSRmEBSgkC1S25bzOeCJVUyYWHwICbYB\u002BbLQRj7bUI85govd1Lp4/0K2\u002B3L6o1MiB794dEvzvDBtZBdi0EnudosHubdUrICSH1g6Ug1EB1Zerj9/Y9xERcVbb3CiFi74x4Xn8\u002BmczVo/5VTyuWoiKV3BAyEJbxKvwnTx\u002BTwQ8AkqQYuIXBNtwuHkP36HUotbOEYS4RIN7ldyOA==",
      "StatusCode": 201,
      "ResponseHeaders": {
        "Content-Length": "0",
        "Content-MD5": "\u002By0nndYz2HG5l9Sfx/FsNQ==",
        "Date": "Thu, 02 Apr 2020 23:43:21 GMT",
        "ETag": "\u00220x8D7D75FA13146C1\u0022",
        "Last-Modified": "Thu, 02 Apr 2020 23:43:22 GMT",
        "Server": [
          "Windows-Azure-Blob/1.0",
          "Microsoft-HTTPAPI/2.0"
        ],
        "x-ms-client-request-id": "2481347d-8950-390c-1423-6d04fb9fdfa1",
        "x-ms-content-crc64": "wpHemhdUsP4=",
        "x-ms-request-id": "8e692c50-701e-007e-6748-09dde7000000",
        "x-ms-request-server-encrypted": "true",
        "x-ms-version": "2019-12-12"
      },
      "ResponseBody": []
    },
    {
      "RequestUri": "https://seanmcccanary.blob.core.windows.net/test-container-12770925-a29a-6f35-e8a7-b519e0b1dfd8/test-blob-c9ccd28d-dd27-bf10-8b14-122631e653ab",
      "RequestMethod": "PUT",
      "RequestHeaders": {
        "Authorization": "Sanitized",
        "If-None-Match": "\u0022garbage\u0022",
        "traceparent": "00-ebf3158986407b41ba8d4c4f84925bbd-70c7b19bdc7c2e43-00",
        "User-Agent": [
          "azsdk-net-Storage.Blobs/12.5.0-dev.20200402.1",
          "(.NET Core 4.6.28325.01; Microsoft Windows 10.0.18362 )"
        ],
        "x-ms-client-request-id": "fca9effa-2f65-9a5b-9d4a-9343ed2338be",
        "x-ms-copy-source": "https://seanmcccanary.blob.core.windows.net/test-container-12770925-a29a-6f35-e8a7-b519e0b1dfd8/test-blob-d3aa7430-2e1d-4af5-c877-de9acc495440",
        "x-ms-date": "Thu, 02 Apr 2020 23:43:23 GMT",
        "x-ms-return-client-request-id": "true",
        "x-ms-version": "2019-12-12"
      },
      "RequestBody": null,
      "StatusCode": 202,
      "ResponseHeaders": {
        "Content-Length": "0",
        "Date": "Thu, 02 Apr 2020 23:43:21 GMT",
        "ETag": "\u00220x8D7D75FA13F04DE\u0022",
        "Last-Modified": "Thu, 02 Apr 2020 23:43:22 GMT",
        "Server": [
          "Windows-Azure-Blob/1.0",
          "Microsoft-HTTPAPI/2.0"
        ],
        "x-ms-client-request-id": "fca9effa-2f65-9a5b-9d4a-9343ed2338be",
        "x-ms-copy-id": "bae9acf4-3bcc-47fd-843d-eb098dda8a5f",
        "x-ms-copy-status": "success",
        "x-ms-request-id": "8e692c67-701e-007e-7e48-09dde7000000",
        "x-ms-version": "2019-12-12"
      },
      "ResponseBody": []
    },
    {
      "RequestUri": "https://seanmcccanary.blob.core.windows.net/test-container-12770925-a29a-6f35-e8a7-b519e0b1dfd8?restype=container",
      "RequestMethod": "DELETE",
      "RequestHeaders": {
        "Authorization": "Sanitized",
        "traceparent": "00-24ac456a2656f540b036b6961d629dda-baa62f088a5beb43-00",
        "User-Agent": [
          "azsdk-net-Storage.Blobs/12.5.0-dev.20200402.1",
          "(.NET Core 4.6.28325.01; Microsoft Windows 10.0.18362 )"
        ],
        "x-ms-client-request-id": "0b09b64a-e3f6-b93c-8355-33cf3e1f4487",
        "x-ms-date": "Thu, 02 Apr 2020 23:43:23 GMT",
        "x-ms-return-client-request-id": "true",
        "x-ms-version": "2019-12-12"
      },
      "RequestBody": null,
      "StatusCode": 202,
      "ResponseHeaders": {
        "Content-Length": "0",
        "Date": "Thu, 02 Apr 2020 23:43:21 GMT",
        "Server": [
          "Windows-Azure-Blob/1.0",
          "Microsoft-HTTPAPI/2.0"
        ],
        "x-ms-client-request-id": "0b09b64a-e3f6-b93c-8355-33cf3e1f4487",
        "x-ms-request-id": "8e692c6c-701e-007e-0348-09dde7000000",
        "x-ms-version": "2019-12-12"
      },
      "ResponseBody": []
    },
    {
      "RequestUri": "https://seanmcccanary.blob.core.windows.net/test-container-66c9ad61-d021-b2d2-e6fd-2a15b5a47c99?restype=container",
      "RequestMethod": "PUT",
      "RequestHeaders": {
        "Authorization": "Sanitized",
        "traceparent": "00-61b8e509512c4144a6a3360d9656297f-6b21dd4ae6ec604e-00",
        "User-Agent": [
          "azsdk-net-Storage.Blobs/12.5.0-dev.20200402.1",
          "(.NET Core 4.6.28325.01; Microsoft Windows 10.0.18362 )"
        ],
        "x-ms-blob-public-access": "container",
        "x-ms-client-request-id": "7155f20b-013a-7ace-e457-25f8b82603de",
        "x-ms-date": "Thu, 02 Apr 2020 23:43:23 GMT",
        "x-ms-return-client-request-id": "true",
        "x-ms-version": "2019-12-12"
      },
      "RequestBody": null,
      "StatusCode": 201,
      "ResponseHeaders": {
        "Content-Length": "0",
        "Date": "Thu, 02 Apr 2020 23:43:22 GMT",
        "ETag": "\u00220x8D7D75FA17FA046\u0022",
        "Last-Modified": "Thu, 02 Apr 2020 23:43:22 GMT",
        "Server": [
          "Windows-Azure-Blob/1.0",
          "Microsoft-HTTPAPI/2.0"
        ],
        "x-ms-client-request-id": "7155f20b-013a-7ace-e457-25f8b82603de",
        "x-ms-request-id": "d077a07c-301e-009b-1c48-098ca5000000",
        "x-ms-version": "2019-12-12"
      },
      "ResponseBody": []
    },
    {
      "RequestUri": "https://seanmcccanary.blob.core.windows.net/test-container-66c9ad61-d021-b2d2-e6fd-2a15b5a47c99/test-blob-a47c36c5-97d6-6657-48d5-84cfa9946485",
      "RequestMethod": "PUT",
      "RequestHeaders": {
        "Authorization": "Sanitized",
        "Content-Length": "1024",
        "traceparent": "00-95e1ee044d49a144b4b86a5b2e16b694-ef089b7b508df345-00",
        "User-Agent": [
          "azsdk-net-Storage.Blobs/12.5.0-dev.20200402.1",
          "(.NET Core 4.6.28325.01; Microsoft Windows 10.0.18362 )"
        ],
        "x-ms-blob-type": "BlockBlob",
        "x-ms-client-request-id": "ca9c2dfd-bcc7-52f5-d1ed-b91bdad62043",
        "x-ms-date": "Thu, 02 Apr 2020 23:43:23 GMT",
        "x-ms-return-client-request-id": "true",
        "x-ms-version": "2019-12-12"
      },
      "RequestBody": "2ZrsmycMbTXlbjjXSkKerJB4CsNOCl/h1H1TwgbPowdGprZ6TdKL/oQgjMzI9zChuXloPxxAkM46CsapuKsuFssxkKOMJF697Qs\u002BLX6TGd1NsQiMZmPqBhbnP0MM4kXZ8XYBlmaMFZUbqlIRAWJQp/HoWwejoq9nR4qNpOQbsQvFZTwIkoJ3wZxzcbwR2QS0l5dRI4c\u002BNk/GmU/b/3Gw//hGS5wlRxVvcZlqLzHzVW2F2AxMyo6Ehi/tQfgzm8ErwnHDyo1njlCC4rLt1AYd0kPhVSZkYzVqwsVtOAUcPNXXP22/MIvfHUq8yufbl7Ioz260UUWbxl47WAfI\u002BlVKZabdFZSZXqK4AjfbqJlNjysSRGiWaOqPPHkOhNeDFiP0cmRB/oEej3HM\u002B08Nvx3F7cnbtrXss/27TdgaitnKNesU5jY0DJCp9LX3ymybgX1cSJYOp2BtCL5nhrCpAwWXAcZj\u002BdjnkeE4McEA9emQH8xbvkFDvI2Kpt53zIXfAPGvX8mlN4ekdbe11XWebRLV1mbkTUTDVEQ52VP5b8RbWTHQUJYf6uhEt0mJjucX6zjMovUf\u002B7Ks7AuEbF40qgXzWXtEzhx7tex\u002BoJb7OcVdIe0aLczOPF5\u002BJGSLm36JEAxDljRr0x0cUOwJoFobsLJFJ0txGX05JR0dxam48Bpu9ZCKuKOR8U3P/tzgxJsDYnOxRXMyF/aPCnAXTQ1zY1/Sm6vKkfgPtDX\u002BoRugWGGCGmM1B6qmO92Z\u002Bq0zeaM/XJp9DSjvONF7opE9NHXa77EPlDOqPVy0K2DNMZdK3DqSvkWAI0s4kuKRumQZaAdnvgv8I\u002BVwlB4\u002ByOHIIQc6MMZXq3UvWsxm1gJQGYL3m8NYZnKLTrhVISonQlppcHHaV4qewbyROGQ\u002BlU3iIHubRiweb7uVruENAopLCBdx/GWQdcH4WdoGxy0NTLhrcgGui/wuSwG1RamokL8yRS9NzZnnUqq6ou1SF6eNh2EoopCJnXwbQ7Fk2y8XUMgb1IH\u002BwH8fgyBW8\u002BkP3DNZJ71If\u002B4uqaizMYrngnZ6o1IkN0Mmj8fhCR5wMqmTDGd9CrNxz9Da7CvYSo71NwCp3FCW6qTwMpj2ZnbPvnb/ICUjaXjDCNSBSkoXTkQ47NEexlZY/CHCjdcae2haCy202Cpp0s2I5tN8FaBZ2ORTvnqlsfggpyMDYNygqI1rJz4dYnUZzxkDleCC2\u002BaBaLTzx73ttVo1lDEHZnHx6D1GEe5hPHVvOe5goRsXncs8gfgoreHPfXHk585DEmmoEqyjO8r4ICs\u002Bg43OjRM\u002BHvZlyuR5yDtcdpN8fFSnKyaFuI9udGIBRGHM6SlTAfBepsnX3UiELklxRg==",
      "StatusCode": 201,
      "ResponseHeaders": {
        "Content-Length": "0",
        "Content-MD5": "R450o/2TlXTaae1MvFa/DQ==",
        "Date": "Thu, 02 Apr 2020 23:43:22 GMT",
        "ETag": "\u00220x8D7D75FA18CE4D1\u0022",
        "Last-Modified": "Thu, 02 Apr 2020 23:43:22 GMT",
        "Server": [
          "Windows-Azure-Blob/1.0",
          "Microsoft-HTTPAPI/2.0"
        ],
        "x-ms-client-request-id": "ca9c2dfd-bcc7-52f5-d1ed-b91bdad62043",
        "x-ms-content-crc64": "\u002B13mJKPADlE=",
        "x-ms-request-id": "d077a08b-301e-009b-2848-098ca5000000",
        "x-ms-request-server-encrypted": "true",
        "x-ms-version": "2019-12-12"
      },
      "ResponseBody": []
    },
    {
      "RequestUri": "https://seanmcccanary.blob.core.windows.net/test-container-66c9ad61-d021-b2d2-e6fd-2a15b5a47c99/test-blob-8101c279-606a-503e-935e-ce4bc7098847",
      "RequestMethod": "PUT",
      "RequestHeaders": {
        "Authorization": "Sanitized",
        "Content-Length": "1024",
        "traceparent": "00-a892314bc07e9f47a0ae1b2a15c78209-0e6bfd05cc93c84e-00",
        "User-Agent": [
          "azsdk-net-Storage.Blobs/12.5.0-dev.20200402.1",
          "(.NET Core 4.6.28325.01; Microsoft Windows 10.0.18362 )"
        ],
        "x-ms-blob-type": "BlockBlob",
        "x-ms-client-request-id": "1bd58b6b-07ff-9cdb-ee4c-3769eeaa8bc8",
        "x-ms-date": "Thu, 02 Apr 2020 23:43:23 GMT",
        "x-ms-return-client-request-id": "true",
        "x-ms-version": "2019-12-12"
      },
      "RequestBody": "2ZrsmycMbTXlbjjXSkKerJB4CsNOCl/h1H1TwgbPowdGprZ6TdKL/oQgjMzI9zChuXloPxxAkM46CsapuKsuFssxkKOMJF697Qs\u002BLX6TGd1NsQiMZmPqBhbnP0MM4kXZ8XYBlmaMFZUbqlIRAWJQp/HoWwejoq9nR4qNpOQbsQvFZTwIkoJ3wZxzcbwR2QS0l5dRI4c\u002BNk/GmU/b/3Gw//hGS5wlRxVvcZlqLzHzVW2F2AxMyo6Ehi/tQfgzm8ErwnHDyo1njlCC4rLt1AYd0kPhVSZkYzVqwsVtOAUcPNXXP22/MIvfHUq8yufbl7Ioz260UUWbxl47WAfI\u002BlVKZabdFZSZXqK4AjfbqJlNjysSRGiWaOqPPHkOhNeDFiP0cmRB/oEej3HM\u002B08Nvx3F7cnbtrXss/27TdgaitnKNesU5jY0DJCp9LX3ymybgX1cSJYOp2BtCL5nhrCpAwWXAcZj\u002BdjnkeE4McEA9emQH8xbvkFDvI2Kpt53zIXfAPGvX8mlN4ekdbe11XWebRLV1mbkTUTDVEQ52VP5b8RbWTHQUJYf6uhEt0mJjucX6zjMovUf\u002B7Ks7AuEbF40qgXzWXtEzhx7tex\u002BoJb7OcVdIe0aLczOPF5\u002BJGSLm36JEAxDljRr0x0cUOwJoFobsLJFJ0txGX05JR0dxam48Bpu9ZCKuKOR8U3P/tzgxJsDYnOxRXMyF/aPCnAXTQ1zY1/Sm6vKkfgPtDX\u002BoRugWGGCGmM1B6qmO92Z\u002Bq0zeaM/XJp9DSjvONF7opE9NHXa77EPlDOqPVy0K2DNMZdK3DqSvkWAI0s4kuKRumQZaAdnvgv8I\u002BVwlB4\u002ByOHIIQc6MMZXq3UvWsxm1gJQGYL3m8NYZnKLTrhVISonQlppcHHaV4qewbyROGQ\u002BlU3iIHubRiweb7uVruENAopLCBdx/GWQdcH4WdoGxy0NTLhrcgGui/wuSwG1RamokL8yRS9NzZnnUqq6ou1SF6eNh2EoopCJnXwbQ7Fk2y8XUMgb1IH\u002BwH8fgyBW8\u002BkP3DNZJ71If\u002B4uqaizMYrngnZ6o1IkN0Mmj8fhCR5wMqmTDGd9CrNxz9Da7CvYSo71NwCp3FCW6qTwMpj2ZnbPvnb/ICUjaXjDCNSBSkoXTkQ47NEexlZY/CHCjdcae2haCy202Cpp0s2I5tN8FaBZ2ORTvnqlsfggpyMDYNygqI1rJz4dYnUZzxkDleCC2\u002BaBaLTzx73ttVo1lDEHZnHx6D1GEe5hPHVvOe5goRsXncs8gfgoreHPfXHk585DEmmoEqyjO8r4ICs\u002Bg43OjRM\u002BHvZlyuR5yDtcdpN8fFSnKyaFuI9udGIBRGHM6SlTAfBepsnX3UiELklxRg==",
      "StatusCode": 201,
      "ResponseHeaders": {
        "Content-Length": "0",
        "Content-MD5": "R450o/2TlXTaae1MvFa/DQ==",
        "Date": "Thu, 02 Apr 2020 23:43:22 GMT",
        "ETag": "\u00220x8D7D75FA199DF7E\u0022",
        "Last-Modified": "Thu, 02 Apr 2020 23:43:22 GMT",
        "Server": [
          "Windows-Azure-Blob/1.0",
          "Microsoft-HTTPAPI/2.0"
        ],
        "x-ms-client-request-id": "1bd58b6b-07ff-9cdb-ee4c-3769eeaa8bc8",
        "x-ms-content-crc64": "\u002B13mJKPADlE=",
        "x-ms-request-id": "d077a091-301e-009b-2e48-098ca5000000",
        "x-ms-request-server-encrypted": "true",
        "x-ms-version": "2019-12-12"
      },
      "ResponseBody": []
    },
    {
      "RequestUri": "https://seanmcccanary.blob.core.windows.net/test-container-66c9ad61-d021-b2d2-e6fd-2a15b5a47c99/test-blob-8101c279-606a-503e-935e-ce4bc7098847?comp=lease",
      "RequestMethod": "PUT",
      "RequestHeaders": {
        "Authorization": "Sanitized",
        "traceparent": "00-5a303593f4d2214d990cdaaf752995bc-3e3c805f627fac43-00",
        "User-Agent": [
          "azsdk-net-Storage.Blobs/12.5.0-dev.20200402.1",
          "(.NET Core 4.6.28325.01; Microsoft Windows 10.0.18362 )"
        ],
        "x-ms-client-request-id": "4ab57600-a7b8-c7fa-3ff5-17c43cfc7cca",
        "x-ms-date": "Thu, 02 Apr 2020 23:43:23 GMT",
        "x-ms-lease-action": "acquire",
        "x-ms-lease-duration": "-1",
        "x-ms-proposed-lease-id": "9ccf7165-a304-df4b-043b-cade2024940b",
        "x-ms-return-client-request-id": "true",
        "x-ms-version": "2019-12-12"
      },
      "RequestBody": null,
      "StatusCode": 201,
      "ResponseHeaders": {
        "Content-Length": "0",
        "Date": "Thu, 02 Apr 2020 23:43:22 GMT",
        "ETag": "\u00220x8D7D75FA199DF7E\u0022",
        "Last-Modified": "Thu, 02 Apr 2020 23:43:22 GMT",
        "Server": [
          "Windows-Azure-Blob/1.0",
          "Microsoft-HTTPAPI/2.0"
        ],
        "x-ms-client-request-id": "4ab57600-a7b8-c7fa-3ff5-17c43cfc7cca",
        "x-ms-lease-id": "9ccf7165-a304-df4b-043b-cade2024940b",
        "x-ms-request-id": "d077a096-301e-009b-3348-098ca5000000",
        "x-ms-version": "2019-12-12"
      },
      "ResponseBody": []
    },
    {
      "RequestUri": "https://seanmcccanary.blob.core.windows.net/test-container-66c9ad61-d021-b2d2-e6fd-2a15b5a47c99/test-blob-8101c279-606a-503e-935e-ce4bc7098847",
      "RequestMethod": "PUT",
      "RequestHeaders": {
        "Authorization": "Sanitized",
        "traceparent": "00-b40052a9919221448408a251a870f732-0e115a38f626b140-00",
        "User-Agent": [
          "azsdk-net-Storage.Blobs/12.5.0-dev.20200402.1",
          "(.NET Core 4.6.28325.01; Microsoft Windows 10.0.18362 )"
        ],
        "x-ms-client-request-id": "a9ddbd63-4a6e-7353-d319-fb3f55830665",
        "x-ms-copy-source": "https://seanmcccanary.blob.core.windows.net/test-container-66c9ad61-d021-b2d2-e6fd-2a15b5a47c99/test-blob-a47c36c5-97d6-6657-48d5-84cfa9946485",
        "x-ms-date": "Thu, 02 Apr 2020 23:43:23 GMT",
        "x-ms-lease-id": "9ccf7165-a304-df4b-043b-cade2024940b",
        "x-ms-return-client-request-id": "true",
        "x-ms-version": "2019-12-12"
      },
      "RequestBody": null,
      "StatusCode": 202,
      "ResponseHeaders": {
        "Content-Length": "0",
        "Date": "Thu, 02 Apr 2020 23:43:22 GMT",
        "ETag": "\u00220x8D7D75FA1B4712D\u0022",
        "Last-Modified": "Thu, 02 Apr 2020 23:43:23 GMT",
        "Server": [
          "Windows-Azure-Blob/1.0",
          "Microsoft-HTTPAPI/2.0"
        ],
        "x-ms-client-request-id": "a9ddbd63-4a6e-7353-d319-fb3f55830665",
        "x-ms-copy-id": "37373e55-ed11-4497-bbf3-d8af2e2e6ec7",
        "x-ms-copy-status": "success",
        "x-ms-request-id": "d077a09c-301e-009b-3948-098ca5000000",
        "x-ms-version": "2019-12-12"
      },
      "ResponseBody": []
    },
    {
      "RequestUri": "https://seanmcccanary.blob.core.windows.net/test-container-66c9ad61-d021-b2d2-e6fd-2a15b5a47c99?restype=container",
      "RequestMethod": "DELETE",
      "RequestHeaders": {
        "Authorization": "Sanitized",
        "traceparent": "00-7f3c5c27bc815c44937cab080a305c8e-490951238ca1404b-00",
        "User-Agent": [
          "azsdk-net-Storage.Blobs/12.5.0-dev.20200402.1",
          "(.NET Core 4.6.28325.01; Microsoft Windows 10.0.18362 )"
        ],
        "x-ms-client-request-id": "7e616677-d21f-6e5c-d8db-4bb05355a2a6",
        "x-ms-date": "Thu, 02 Apr 2020 23:43:24 GMT",
        "x-ms-return-client-request-id": "true",
        "x-ms-version": "2019-12-12"
      },
      "RequestBody": null,
      "StatusCode": 202,
      "ResponseHeaders": {
        "Content-Length": "0",
        "Date": "Thu, 02 Apr 2020 23:43:22 GMT",
        "Server": [
          "Windows-Azure-Blob/1.0",
          "Microsoft-HTTPAPI/2.0"
        ],
        "x-ms-client-request-id": "7e616677-d21f-6e5c-d8db-4bb05355a2a6",
        "x-ms-request-id": "d077a0ad-301e-009b-4848-098ca5000000",
        "x-ms-version": "2019-12-12"
      },
      "ResponseBody": []
    }
  ],
  "Variables": {
    "DateTimeOffsetNow": "2020-04-02T16:43:19.8398673-07:00",
    "RandomSeed": "942939387",
    "Storage_TestConfigDefault": "ProductionTenant\nseanmcccanary\nU2FuaXRpemVk\nhttps://seanmcccanary.blob.core.windows.net\nhttps://seanmcccanary.file.core.windows.net\nhttps://seanmcccanary.queue.core.windows.net\nhttps://seanmcccanary.table.core.windows.net\n\n\n\n\nhttps://seanmcccanary-secondary.blob.core.windows.net\nhttps://seanmcccanary-secondary.file.core.windows.net\nhttps://seanmcccanary-secondary.queue.core.windows.net\nhttps://seanmcccanary-secondary.table.core.windows.net\n\nSanitized\n\n\nCloud\nBlobEndpoint=https://seanmcccanary.blob.core.windows.net/;QueueEndpoint=https://seanmcccanary.queue.core.windows.net/;FileEndpoint=https://seanmcccanary.file.core.windows.net/;BlobSecondaryEndpoint=https://seanmcccanary-secondary.blob.core.windows.net/;QueueSecondaryEndpoint=https://seanmcccanary-secondary.queue.core.windows.net/;FileSecondaryEndpoint=https://seanmcccanary-secondary.file.core.windows.net/;AccountName=seanmcccanary;AccountKey=Sanitized\nseanscope1"
  }
}