{
  "Entries": [
    {
      "RequestUri": "https://allkimprim.table.cosmos.azure.com/Tables?$format=application%2Fjson%3Bodata%3Dfullmetadata",
      "RequestMethod": "POST",
      "RequestHeaders": {
        "Accept": "application/json",
        "Authorization": "Sanitized",
        "Content-Length": "33",
        "Content-Type": "application/json; odata=nometadata",
        "DataServiceVersion": "3.0",
        "traceparent": "00-ace6a6dc26ea7041821456485dde25b4-f0a4e1a88e3d7b41-00",
        "User-Agent": [
          "azsdk-net-Data.Tables/1.0.0-dev.20200724.1",
          "(.NET Core 4.6.29017.01; Microsoft Windows 10.0.19041 )"
        ],
        "x-ms-client-request-id": "0cd15d6734dcef64cbdb6be37c1a1f15",
        "x-ms-date": "Mon, 27 Jul 2020 17:39:11 GMT",
        "x-ms-return-client-request-id": "true",
        "x-ms-version": "2019-02-02"
      },
      "RequestBody": {
        "TableName": "testtablefz13i0rq"
      },
      "StatusCode": 201,
      "ResponseHeaders": {
        "Content-Type": "application/json",
        "Date": "Mon, 27 Jul 2020 17:39:12 GMT",
        "ETag": "W/\u0022datetime\u00272020-07-27T17%3A39%3A12.4977672Z\u0027\u0022",
        "Location": "https://allkimprim.table.cosmos.azure.com/Tables(\u0027testtablefz13i0rq\u0027)",
        "Server": "Microsoft-HTTPAPI/2.0",
        "Transfer-Encoding": "chunked",
        "x-ms-request-id": "0cd15d67-34dc-ef64-cbdb-6be37c1a1f15"
      },
      "ResponseBody": {
        "TableName": "testtablefz13i0rq",
        "odata.metadata": "https://allkimprim.table.cosmos.azure.com/$metadata#Tables/@Element"
      }
    },
    {
      "RequestUri": "https://allkimprim.table.cosmos.azure.com/testtablefz13i0rq?$format=application%2Fjson%3Bodata%3Dfullmetadata",
      "RequestMethod": "POST",
      "RequestHeaders": {
        "Accept": "application/json",
        "Authorization": "Sanitized",
        "Content-Length": "677",
        "Content-Type": "application/json; odata=nometadata",
        "DataServiceVersion": "3.0",
        "traceparent": "00-955dec81473d2e48a157536ecbb8401a-adcc108e1c8e8842-00",
        "User-Agent": [
          "azsdk-net-Data.Tables/1.0.0-dev.20200724.1",
          "(.NET Core 4.6.29017.01; Microsoft Windows 10.0.19041 )"
        ],
        "x-ms-client-request-id": "4a895626949029edb68502c1a9a41556",
        "x-ms-date": "Mon, 27 Jul 2020 17:39:12 GMT",
        "x-ms-return-client-request-id": "true",
        "x-ms-version": "2019-02-02"
      },
      "RequestBody": {
        "StringTypeProperty": "This is table entity number 01",
        "DatetimeTypeProperty": "2020-01-01T01:02:00.0000000Z",
        "DatetimeTypeProperty@odata.type": "Edm.DateTime",
        "DatetimeOffsetTypeProperty": "2020-01-01T01:02:00.0000000Z",
        "DatetimeOffsetTypeProperty@odata.type": "Edm.DateTime",
        "GuidTypeProperty": "0d391d16-97f1-4b9a-be68-4cc871f90001",
        "GuidTypeProperty@odata.type": "Edm.Guid",
        "BinaryTypeProperty": "AQIDBAU=",
        "BinaryTypeProperty@odata.type": "Edm.Binary",
        "Int64TypeProperty": "1",
        "Int64TypeProperty@odata.type": "Edm.Int64",
        "DoubleTypeProperty": 1,
        "DoubleTypeProperty@odata.type": "Edm.Double",
        "IntTypeProperty": 1,
        "PartitionKey": "somPartition",
        "RowKey": "01",
        "Timestamp": null,
        "ETag": null
      },
      "StatusCode": 201,
      "ResponseHeaders": {
        "Content-Type": "application/json",
        "Date": "Mon, 27 Jul 2020 17:39:13 GMT",
        "ETag": "W/\u0022datetime\u00272020-07-27T17%3A39%3A13.0727432Z\u0027\u0022",
        "Location": "https://allkimprim.table.cosmos.azure.com/testtablefz13i0rq(PartitionKey=\u0027somPartition\u0027,RowKey=\u002701\u0027)",
        "Server": "Microsoft-HTTPAPI/2.0",
        "Transfer-Encoding": "chunked",
        "x-ms-request-id": "4a895626-9490-29ed-b685-02c1a9a41556"
      },
      "ResponseBody": {
        "odata.metadata": "https://allkimprim.table.cosmos.azure.com/testtablefz13i0rq/$metadata#testtablefz13i0rq/@Element",
        "odata.etag": "W/\u0022datetime\u00272020-07-27T17%3A39%3A13.0727432Z\u0027\u0022",
        "StringTypeProperty": "This is table entity number 01",
        "DatetimeTypeProperty@odata.type": "Edm.DateTime",
        "DatetimeTypeProperty": "2020-01-01T01:02:00.0000000Z",
        "DatetimeOffsetTypeProperty@odata.type": "Edm.DateTime",
        "DatetimeOffsetTypeProperty": "2020-01-01T01:02:00.0000000Z",
        "GuidTypeProperty@odata.type": "Edm.Guid",
        "GuidTypeProperty": "0d391d16-97f1-4b9a-be68-4cc871f90001",
        "BinaryTypeProperty@odata.type": "Edm.Binary",
        "BinaryTypeProperty": "AQIDBAU=",
        "Int64TypeProperty@odata.type": "Edm.Int64",
        "Int64TypeProperty": "1",
        "DoubleTypeProperty": 1,
        "IntTypeProperty": 1,
        "PartitionKey": "somPartition",
        "RowKey": "01",
        "Timestamp@odata.type": "Edm.DateTime",
        "Timestamp": "2020-07-27T17:39:13.0727432Z"
      }
    },
    {
      "RequestUri": "https://allkimprim.table.cosmos.azure.com/testtablefz13i0rq?$format=application%2Fjson%3Bodata%3Dfullmetadata",
      "RequestMethod": "POST",
      "RequestHeaders": {
        "Accept": "application/json",
        "Authorization": "Sanitized",
        "Content-Length": "677",
        "Content-Type": "application/json; odata=nometadata",
        "DataServiceVersion": "3.0",
        "traceparent": "00-d2b6548d70090a47a19115d344919ae0-d93efb652c29464a-00",
        "User-Agent": [
          "azsdk-net-Data.Tables/1.0.0-dev.20200724.1",
          "(.NET Core 4.6.29017.01; Microsoft Windows 10.0.19041 )"
        ],
        "x-ms-client-request-id": "8f6f7594858fa6e14a451249cde18942",
        "x-ms-date": "Mon, 27 Jul 2020 17:39:13 GMT",
        "x-ms-return-client-request-id": "true",
        "x-ms-version": "2019-02-02"
      },
      "RequestBody": {
        "StringTypeProperty": "This is table entity number 02",
        "DatetimeTypeProperty": "2020-01-01T01:03:00.0000000Z",
        "DatetimeTypeProperty@odata.type": "Edm.DateTime",
        "DatetimeOffsetTypeProperty": "2020-01-01T01:03:00.0000000Z",
        "DatetimeOffsetTypeProperty@odata.type": "Edm.DateTime",
        "GuidTypeProperty": "0d391d16-97f1-4b9a-be68-4cc871f90002",
        "GuidTypeProperty@odata.type": "Edm.Guid",
        "BinaryTypeProperty": "AQIDBAU=",
        "BinaryTypeProperty@odata.type": "Edm.Binary",
        "Int64TypeProperty": "2",
        "Int64TypeProperty@odata.type": "Edm.Int64",
        "DoubleTypeProperty": 2,
        "DoubleTypeProperty@odata.type": "Edm.Double",
        "IntTypeProperty": 2,
        "PartitionKey": "somPartition",
        "RowKey": "02",
        "Timestamp": null,
        "ETag": null
      },
      "StatusCode": 201,
      "ResponseHeaders": {
        "Content-Type": "application/json",
        "Date": "Mon, 27 Jul 2020 17:39:13 GMT",
        "ETag": "W/\u0022datetime\u00272020-07-27T17%3A39%3A13.1356168Z\u0027\u0022",
        "Location": "https://allkimprim.table.cosmos.azure.com/testtablefz13i0rq(PartitionKey=\u0027somPartition\u0027,RowKey=\u002702\u0027)",
        "Server": "Microsoft-HTTPAPI/2.0",
        "Transfer-Encoding": "chunked",
        "x-ms-request-id": "8f6f7594-858f-a6e1-4a45-1249cde18942"
      },
      "ResponseBody": {
        "odata.metadata": "https://allkimprim.table.cosmos.azure.com/testtablefz13i0rq/$metadata#testtablefz13i0rq/@Element",
        "odata.etag": "W/\u0022datetime\u00272020-07-27T17%3A39%3A13.1356168Z\u0027\u0022",
        "StringTypeProperty": "This is table entity number 02",
        "DatetimeTypeProperty@odata.type": "Edm.DateTime",
        "DatetimeTypeProperty": "2020-01-01T01:03:00.0000000Z",
        "DatetimeOffsetTypeProperty@odata.type": "Edm.DateTime",
        "DatetimeOffsetTypeProperty": "2020-01-01T01:03:00.0000000Z",
        "GuidTypeProperty@odata.type": "Edm.Guid",
        "GuidTypeProperty": "0d391d16-97f1-4b9a-be68-4cc871f90002",
        "BinaryTypeProperty@odata.type": "Edm.Binary",
        "BinaryTypeProperty": "AQIDBAU=",
        "Int64TypeProperty@odata.type": "Edm.Int64",
        "Int64TypeProperty": "2",
        "DoubleTypeProperty": 2,
        "IntTypeProperty": 2,
        "PartitionKey": "somPartition",
        "RowKey": "02",
        "Timestamp@odata.type": "Edm.DateTime",
        "Timestamp": "2020-07-27T17:39:13.1356168Z"
      }
    },
    {
      "RequestUri": "https://allkimprim.table.cosmos.azure.com/testtablefz13i0rq?$format=application%2Fjson%3Bodata%3Dfullmetadata",
      "RequestMethod": "POST",
      "RequestHeaders": {
        "Accept": "application/json",
        "Authorization": "Sanitized",
        "Content-Length": "677",
        "Content-Type": "application/json; odata=nometadata",
        "DataServiceVersion": "3.0",
        "traceparent": "00-f24522517bb2bb44867d9fbbda90fe83-75915357d3b84441-00",
        "User-Agent": [
          "azsdk-net-Data.Tables/1.0.0-dev.20200724.1",
          "(.NET Core 4.6.29017.01; Microsoft Windows 10.0.19041 )"
        ],
        "x-ms-client-request-id": "3b85a89a949dd3cf6fa7555632a34526",
        "x-ms-date": "Mon, 27 Jul 2020 17:39:13 GMT",
        "x-ms-return-client-request-id": "true",
        "x-ms-version": "2019-02-02"
      },
      "RequestBody": {
        "StringTypeProperty": "This is table entity number 03",
        "DatetimeTypeProperty": "2020-01-01T01:04:00.0000000Z",
        "DatetimeTypeProperty@odata.type": "Edm.DateTime",
        "DatetimeOffsetTypeProperty": "2020-01-01T01:04:00.0000000Z",
        "DatetimeOffsetTypeProperty@odata.type": "Edm.DateTime",
        "GuidTypeProperty": "0d391d16-97f1-4b9a-be68-4cc871f90003",
        "GuidTypeProperty@odata.type": "Edm.Guid",
        "BinaryTypeProperty": "AQIDBAU=",
        "BinaryTypeProperty@odata.type": "Edm.Binary",
        "Int64TypeProperty": "3",
        "Int64TypeProperty@odata.type": "Edm.Int64",
        "DoubleTypeProperty": 3,
        "DoubleTypeProperty@odata.type": "Edm.Double",
        "IntTypeProperty": 3,
        "PartitionKey": "somPartition",
        "RowKey": "03",
        "Timestamp": null,
        "ETag": null
      },
      "StatusCode": 201,
      "ResponseHeaders": {
        "Content-Type": "application/json",
        "Date": "Mon, 27 Jul 2020 17:39:13 GMT",
        "ETag": "W/\u0022datetime\u00272020-07-27T17%3A39%3A13.1960328Z\u0027\u0022",
        "Location": "https://allkimprim.table.cosmos.azure.com/testtablefz13i0rq(PartitionKey=\u0027somPartition\u0027,RowKey=\u002703\u0027)",
        "Server": "Microsoft-HTTPAPI/2.0",
        "Transfer-Encoding": "chunked",
        "x-ms-request-id": "3b85a89a-949d-d3cf-6fa7-555632a34526"
      },
      "ResponseBody": {
        "odata.metadata": "https://allkimprim.table.cosmos.azure.com/testtablefz13i0rq/$metadata#testtablefz13i0rq/@Element",
        "odata.etag": "W/\u0022datetime\u00272020-07-27T17%3A39%3A13.1960328Z\u0027\u0022",
        "StringTypeProperty": "This is table entity number 03",
        "DatetimeTypeProperty@odata.type": "Edm.DateTime",
        "DatetimeTypeProperty": "2020-01-01T01:04:00.0000000Z",
        "DatetimeOffsetTypeProperty@odata.type": "Edm.DateTime",
        "DatetimeOffsetTypeProperty": "2020-01-01T01:04:00.0000000Z",
        "GuidTypeProperty@odata.type": "Edm.Guid",
        "GuidTypeProperty": "0d391d16-97f1-4b9a-be68-4cc871f90003",
        "BinaryTypeProperty@odata.type": "Edm.Binary",
        "BinaryTypeProperty": "AQIDBAU=",
        "Int64TypeProperty@odata.type": "Edm.Int64",
        "Int64TypeProperty": "3",
        "DoubleTypeProperty": 3,
        "IntTypeProperty": 3,
        "PartitionKey": "somPartition",
        "RowKey": "03",
        "Timestamp@odata.type": "Edm.DateTime",
        "Timestamp": "2020-07-27T17:39:13.1960328Z"
      }
    },
    {
      "RequestUri": "https://allkimprim.table.cosmos.azure.com/testtablefz13i0rq?$format=application%2Fjson%3Bodata%3Dfullmetadata",
      "RequestMethod": "POST",
      "RequestHeaders": {
        "Accept": "application/json",
        "Authorization": "Sanitized",
        "Content-Length": "677",
        "Content-Type": "application/json; odata=nometadata",
        "DataServiceVersion": "3.0",
        "traceparent": "00-9420c369e492564183960284290eb8fd-40d94420800a7542-00",
        "User-Agent": [
          "azsdk-net-Data.Tables/1.0.0-dev.20200724.1",
          "(.NET Core 4.6.29017.01; Microsoft Windows 10.0.19041 )"
        ],
        "x-ms-client-request-id": "064f14c590aaa18574e2ff4b81a35cd4",
        "x-ms-date": "Mon, 27 Jul 2020 17:39:13 GMT",
        "x-ms-return-client-request-id": "true",
        "x-ms-version": "2019-02-02"
      },
      "RequestBody": {
        "StringTypeProperty": "This is table entity number 04",
        "DatetimeTypeProperty": "2020-01-01T01:05:00.0000000Z",
        "DatetimeTypeProperty@odata.type": "Edm.DateTime",
        "DatetimeOffsetTypeProperty": "2020-01-01T01:05:00.0000000Z",
        "DatetimeOffsetTypeProperty@odata.type": "Edm.DateTime",
        "GuidTypeProperty": "0d391d16-97f1-4b9a-be68-4cc871f90004",
        "GuidTypeProperty@odata.type": "Edm.Guid",
        "BinaryTypeProperty": "AQIDBAU=",
        "BinaryTypeProperty@odata.type": "Edm.Binary",
        "Int64TypeProperty": "4",
        "Int64TypeProperty@odata.type": "Edm.Int64",
        "DoubleTypeProperty": 4,
        "DoubleTypeProperty@odata.type": "Edm.Double",
        "IntTypeProperty": 4,
        "PartitionKey": "somPartition",
        "RowKey": "04",
        "Timestamp": null,
        "ETag": null
      },
      "StatusCode": 201,
      "ResponseHeaders": {
        "Content-Type": "application/json",
        "Date": "Mon, 27 Jul 2020 17:39:13 GMT",
        "ETag": "W/\u0022datetime\u00272020-07-27T17%3A39%3A13.2518408Z\u0027\u0022",
        "Location": "https://allkimprim.table.cosmos.azure.com/testtablefz13i0rq(PartitionKey=\u0027somPartition\u0027,RowKey=\u002704\u0027)",
        "Server": "Microsoft-HTTPAPI/2.0",
        "Transfer-Encoding": "chunked",
        "x-ms-request-id": "064f14c5-90aa-a185-74e2-ff4b81a35cd4"
      },
      "ResponseBody": {
        "odata.metadata": "https://allkimprim.table.cosmos.azure.com/testtablefz13i0rq/$metadata#testtablefz13i0rq/@Element",
        "odata.etag": "W/\u0022datetime\u00272020-07-27T17%3A39%3A13.2518408Z\u0027\u0022",
        "StringTypeProperty": "This is table entity number 04",
        "DatetimeTypeProperty@odata.type": "Edm.DateTime",
        "DatetimeTypeProperty": "2020-01-01T01:05:00.0000000Z",
        "DatetimeOffsetTypeProperty@odata.type": "Edm.DateTime",
        "DatetimeOffsetTypeProperty": "2020-01-01T01:05:00.0000000Z",
        "GuidTypeProperty@odata.type": "Edm.Guid",
        "GuidTypeProperty": "0d391d16-97f1-4b9a-be68-4cc871f90004",
        "BinaryTypeProperty@odata.type": "Edm.Binary",
        "BinaryTypeProperty": "AQIDBAU=",
        "Int64TypeProperty@odata.type": "Edm.Int64",
        "Int64TypeProperty": "4",
        "DoubleTypeProperty": 4,
        "IntTypeProperty": 4,
        "PartitionKey": "somPartition",
        "RowKey": "04",
        "Timestamp@odata.type": "Edm.DateTime",
        "Timestamp": "2020-07-27T17:39:13.2518408Z"
      }
    },
    {
      "RequestUri": "https://allkimprim.table.cosmos.azure.com/testtablefz13i0rq?$format=application%2Fjson%3Bodata%3Dfullmetadata",
      "RequestMethod": "POST",
      "RequestHeaders": {
        "Accept": "application/json",
        "Authorization": "Sanitized",
        "Content-Length": "677",
        "Content-Type": "application/json; odata=nometadata",
        "DataServiceVersion": "3.0",
        "traceparent": "00-858355bf5ca5414f9c02e0eff3042120-f0d006f60be38b4d-00",
        "User-Agent": [
          "azsdk-net-Data.Tables/1.0.0-dev.20200724.1",
          "(.NET Core 4.6.29017.01; Microsoft Windows 10.0.19041 )"
        ],
        "x-ms-client-request-id": "0126bffcda1fffb8a59b1fe82f8a74a6",
        "x-ms-date": "Mon, 27 Jul 2020 17:39:13 GMT",
        "x-ms-return-client-request-id": "true",
        "x-ms-version": "2019-02-02"
      },
      "RequestBody": {
        "StringTypeProperty": "This is table entity number 05",
        "DatetimeTypeProperty": "2020-01-01T01:06:00.0000000Z",
        "DatetimeTypeProperty@odata.type": "Edm.DateTime",
        "DatetimeOffsetTypeProperty": "2020-01-01T01:06:00.0000000Z",
        "DatetimeOffsetTypeProperty@odata.type": "Edm.DateTime",
        "GuidTypeProperty": "0d391d16-97f1-4b9a-be68-4cc871f90005",
        "GuidTypeProperty@odata.type": "Edm.Guid",
        "BinaryTypeProperty": "AQIDBAU=",
        "BinaryTypeProperty@odata.type": "Edm.Binary",
        "Int64TypeProperty": "5",
        "Int64TypeProperty@odata.type": "Edm.Int64",
        "DoubleTypeProperty": 5,
        "DoubleTypeProperty@odata.type": "Edm.Double",
        "IntTypeProperty": 5,
        "PartitionKey": "somPartition",
        "RowKey": "05",
        "Timestamp": null,
        "ETag": null
      },
      "StatusCode": 201,
      "ResponseHeaders": {
        "Content-Type": "application/json",
        "Date": "Mon, 27 Jul 2020 17:39:13 GMT",
        "ETag": "W/\u0022datetime\u00272020-07-27T17%3A39%3A13.3068296Z\u0027\u0022",
        "Location": "https://allkimprim.table.cosmos.azure.com/testtablefz13i0rq(PartitionKey=\u0027somPartition\u0027,RowKey=\u002705\u0027)",
        "Server": "Microsoft-HTTPAPI/2.0",
        "Transfer-Encoding": "chunked",
        "x-ms-request-id": "0126bffc-da1f-ffb8-a59b-1fe82f8a74a6"
      },
      "ResponseBody": {
        "odata.metadata": "https://allkimprim.table.cosmos.azure.com/testtablefz13i0rq/$metadata#testtablefz13i0rq/@Element",
        "odata.etag": "W/\u0022datetime\u00272020-07-27T17%3A39%3A13.3068296Z\u0027\u0022",
        "StringTypeProperty": "This is table entity number 05",
        "DatetimeTypeProperty@odata.type": "Edm.DateTime",
        "DatetimeTypeProperty": "2020-01-01T01:06:00.0000000Z",
        "DatetimeOffsetTypeProperty@odata.type": "Edm.DateTime",
        "DatetimeOffsetTypeProperty": "2020-01-01T01:06:00.0000000Z",
        "GuidTypeProperty@odata.type": "Edm.Guid",
        "GuidTypeProperty": "0d391d16-97f1-4b9a-be68-4cc871f90005",
        "BinaryTypeProperty@odata.type": "Edm.Binary",
        "BinaryTypeProperty": "AQIDBAU=",
        "Int64TypeProperty@odata.type": "Edm.Int64",
        "Int64TypeProperty": "5",
        "DoubleTypeProperty": 5,
        "IntTypeProperty": 5,
        "PartitionKey": "somPartition",
        "RowKey": "05",
        "Timestamp@odata.type": "Edm.DateTime",
        "Timestamp": "2020-07-27T17:39:13.3068296Z"
      }
    },
    {
      "RequestUri": "https://allkimprim.table.cosmos.azure.com/testtablefz13i0rq?$format=application%2Fjson%3Bodata%3Dfullmetadata",
      "RequestMethod": "POST",
      "RequestHeaders": {
        "Accept": "application/json",
        "Authorization": "Sanitized",
        "Content-Length": "677",
        "Content-Type": "application/json; odata=nometadata",
        "DataServiceVersion": "3.0",
        "traceparent": "00-263c8f3bfd9bf349a99833701c815e0a-d09b19310f353744-00",
        "User-Agent": [
          "azsdk-net-Data.Tables/1.0.0-dev.20200724.1",
          "(.NET Core 4.6.29017.01; Microsoft Windows 10.0.19041 )"
        ],
        "x-ms-client-request-id": "b883ecff82920a9722e4c6bb948452cc",
        "x-ms-date": "Mon, 27 Jul 2020 17:39:13 GMT",
        "x-ms-return-client-request-id": "true",
        "x-ms-version": "2019-02-02"
      },
      "RequestBody": {
        "StringTypeProperty": "This is table entity number 06",
        "DatetimeTypeProperty": "2020-01-01T01:07:00.0000000Z",
        "DatetimeTypeProperty@odata.type": "Edm.DateTime",
        "DatetimeOffsetTypeProperty": "2020-01-01T01:07:00.0000000Z",
        "DatetimeOffsetTypeProperty@odata.type": "Edm.DateTime",
        "GuidTypeProperty": "0d391d16-97f1-4b9a-be68-4cc871f90006",
        "GuidTypeProperty@odata.type": "Edm.Guid",
        "BinaryTypeProperty": "AQIDBAU=",
        "BinaryTypeProperty@odata.type": "Edm.Binary",
        "Int64TypeProperty": "6",
        "Int64TypeProperty@odata.type": "Edm.Int64",
        "DoubleTypeProperty": 6,
        "DoubleTypeProperty@odata.type": "Edm.Double",
        "IntTypeProperty": 6,
        "PartitionKey": "somPartition",
        "RowKey": "06",
        "Timestamp": null,
        "ETag": null
      },
      "StatusCode": 201,
      "ResponseHeaders": {
        "Content-Type": "application/json",
        "Date": "Mon, 27 Jul 2020 17:39:13 GMT",
        "ETag": "W/\u0022datetime\u00272020-07-27T17%3A39%3A13.3622280Z\u0027\u0022",
        "Location": "https://allkimprim.table.cosmos.azure.com/testtablefz13i0rq(PartitionKey=\u0027somPartition\u0027,RowKey=\u002706\u0027)",
        "Server": "Microsoft-HTTPAPI/2.0",
        "Transfer-Encoding": "chunked",
        "x-ms-request-id": "b883ecff-8292-0a97-22e4-c6bb948452cc"
      },
      "ResponseBody": {
        "odata.metadata": "https://allkimprim.table.cosmos.azure.com/testtablefz13i0rq/$metadata#testtablefz13i0rq/@Element",
        "odata.etag": "W/\u0022datetime\u00272020-07-27T17%3A39%3A13.3622280Z\u0027\u0022",
        "StringTypeProperty": "This is table entity number 06",
        "DatetimeTypeProperty@odata.type": "Edm.DateTime",
        "DatetimeTypeProperty": "2020-01-01T01:07:00.0000000Z",
        "DatetimeOffsetTypeProperty@odata.type": "Edm.DateTime",
        "DatetimeOffsetTypeProperty": "2020-01-01T01:07:00.0000000Z",
        "GuidTypeProperty@odata.type": "Edm.Guid",
        "GuidTypeProperty": "0d391d16-97f1-4b9a-be68-4cc871f90006",
        "BinaryTypeProperty@odata.type": "Edm.Binary",
        "BinaryTypeProperty": "AQIDBAU=",
        "Int64TypeProperty@odata.type": "Edm.Int64",
        "Int64TypeProperty": "6",
        "DoubleTypeProperty": 6,
        "IntTypeProperty": 6,
        "PartitionKey": "somPartition",
        "RowKey": "06",
        "Timestamp@odata.type": "Edm.DateTime",
        "Timestamp": "2020-07-27T17:39:13.3622280Z"
      }
    },
    {
      "RequestUri": "https://allkimprim.table.cosmos.azure.com/testtablefz13i0rq?$format=application%2Fjson%3Bodata%3Dfullmetadata",
      "RequestMethod": "POST",
      "RequestHeaders": {
        "Accept": "application/json",
        "Authorization": "Sanitized",
        "Content-Length": "677",
        "Content-Type": "application/json; odata=nometadata",
        "DataServiceVersion": "3.0",
        "traceparent": "00-f130c4479b99db438a8f1e8975553f1e-b709548340226e4e-00",
        "User-Agent": [
          "azsdk-net-Data.Tables/1.0.0-dev.20200724.1",
          "(.NET Core 4.6.29017.01; Microsoft Windows 10.0.19041 )"
        ],
        "x-ms-client-request-id": "735a804a447deb065b4f610f709d71ea",
        "x-ms-date": "Mon, 27 Jul 2020 17:39:13 GMT",
        "x-ms-return-client-request-id": "true",
        "x-ms-version": "2019-02-02"
      },
      "RequestBody": {
        "StringTypeProperty": "This is table entity number 07",
        "DatetimeTypeProperty": "2020-01-01T01:08:00.0000000Z",
        "DatetimeTypeProperty@odata.type": "Edm.DateTime",
        "DatetimeOffsetTypeProperty": "2020-01-01T01:08:00.0000000Z",
        "DatetimeOffsetTypeProperty@odata.type": "Edm.DateTime",
        "GuidTypeProperty": "0d391d16-97f1-4b9a-be68-4cc871f90007",
        "GuidTypeProperty@odata.type": "Edm.Guid",
        "BinaryTypeProperty": "AQIDBAU=",
        "BinaryTypeProperty@odata.type": "Edm.Binary",
        "Int64TypeProperty": "7",
        "Int64TypeProperty@odata.type": "Edm.Int64",
        "DoubleTypeProperty": 7,
        "DoubleTypeProperty@odata.type": "Edm.Double",
        "IntTypeProperty": 7,
        "PartitionKey": "somPartition",
        "RowKey": "07",
        "Timestamp": null,
        "ETag": null
      },
      "StatusCode": 201,
      "ResponseHeaders": {
        "Content-Type": "application/json",
        "Date": "Mon, 27 Jul 2020 17:39:13 GMT",
        "ETag": "W/\u0022datetime\u00272020-07-27T17%3A39%3A13.4191624Z\u0027\u0022",
        "Location": "https://allkimprim.table.cosmos.azure.com/testtablefz13i0rq(PartitionKey=\u0027somPartition\u0027,RowKey=\u002707\u0027)",
        "Server": "Microsoft-HTTPAPI/2.0",
        "Transfer-Encoding": "chunked",
        "x-ms-request-id": "735a804a-447d-eb06-5b4f-610f709d71ea"
      },
      "ResponseBody": {
        "odata.metadata": "https://allkimprim.table.cosmos.azure.com/testtablefz13i0rq/$metadata#testtablefz13i0rq/@Element",
        "odata.etag": "W/\u0022datetime\u00272020-07-27T17%3A39%3A13.4191624Z\u0027\u0022",
        "StringTypeProperty": "This is table entity number 07",
        "DatetimeTypeProperty@odata.type": "Edm.DateTime",
        "DatetimeTypeProperty": "2020-01-01T01:08:00.0000000Z",
        "DatetimeOffsetTypeProperty@odata.type": "Edm.DateTime",
        "DatetimeOffsetTypeProperty": "2020-01-01T01:08:00.0000000Z",
        "GuidTypeProperty@odata.type": "Edm.Guid",
        "GuidTypeProperty": "0d391d16-97f1-4b9a-be68-4cc871f90007",
        "BinaryTypeProperty@odata.type": "Edm.Binary",
        "BinaryTypeProperty": "AQIDBAU=",
        "Int64TypeProperty@odata.type": "Edm.Int64",
        "Int64TypeProperty": "7",
        "DoubleTypeProperty": 7,
        "IntTypeProperty": 7,
        "PartitionKey": "somPartition",
        "RowKey": "07",
        "Timestamp@odata.type": "Edm.DateTime",
        "Timestamp": "2020-07-27T17:39:13.4191624Z"
      }
    },
    {
      "RequestUri": "https://allkimprim.table.cosmos.azure.com/testtablefz13i0rq?$format=application%2Fjson%3Bodata%3Dfullmetadata",
      "RequestMethod": "POST",
      "RequestHeaders": {
        "Accept": "application/json",
        "Authorization": "Sanitized",
        "Content-Length": "677",
        "Content-Type": "application/json; odata=nometadata",
        "DataServiceVersion": "3.0",
        "traceparent": "00-df43e779b519d348b409a4b61647d8d8-cf0c861adf404b49-00",
        "User-Agent": [
          "azsdk-net-Data.Tables/1.0.0-dev.20200724.1",
          "(.NET Core 4.6.29017.01; Microsoft Windows 10.0.19041 )"
        ],
        "x-ms-client-request-id": "944b586ea41f7942271cde3b14fd6a21",
        "x-ms-date": "Mon, 27 Jul 2020 17:39:13 GMT",
        "x-ms-return-client-request-id": "true",
        "x-ms-version": "2019-02-02"
      },
      "RequestBody": {
        "StringTypeProperty": "This is table entity number 08",
        "DatetimeTypeProperty": "2020-01-01T01:09:00.0000000Z",
        "DatetimeTypeProperty@odata.type": "Edm.DateTime",
        "DatetimeOffsetTypeProperty": "2020-01-01T01:09:00.0000000Z",
        "DatetimeOffsetTypeProperty@odata.type": "Edm.DateTime",
        "GuidTypeProperty": "0d391d16-97f1-4b9a-be68-4cc871f90008",
        "GuidTypeProperty@odata.type": "Edm.Guid",
        "BinaryTypeProperty": "AQIDBAU=",
        "BinaryTypeProperty@odata.type": "Edm.Binary",
        "Int64TypeProperty": "8",
        "Int64TypeProperty@odata.type": "Edm.Int64",
        "DoubleTypeProperty": 8,
        "DoubleTypeProperty@odata.type": "Edm.Double",
        "IntTypeProperty": 8,
        "PartitionKey": "somPartition",
        "RowKey": "08",
        "Timestamp": null,
        "ETag": null
      },
      "StatusCode": 201,
      "ResponseHeaders": {
        "Content-Type": "application/json",
        "Date": "Mon, 27 Jul 2020 17:39:13 GMT",
        "ETag": "W/\u0022datetime\u00272020-07-27T17%3A39%3A13.4728200Z\u0027\u0022",
        "Location": "https://allkimprim.table.cosmos.azure.com/testtablefz13i0rq(PartitionKey=\u0027somPartition\u0027,RowKey=\u002708\u0027)",
        "Server": "Microsoft-HTTPAPI/2.0",
        "Transfer-Encoding": "chunked",
        "x-ms-request-id": "944b586e-a41f-7942-271c-de3b14fd6a21"
      },
      "ResponseBody": {
        "odata.metadata": "https://allkimprim.table.cosmos.azure.com/testtablefz13i0rq/$metadata#testtablefz13i0rq/@Element",
        "odata.etag": "W/\u0022datetime\u00272020-07-27T17%3A39%3A13.4728200Z\u0027\u0022",
        "StringTypeProperty": "This is table entity number 08",
        "DatetimeTypeProperty@odata.type": "Edm.DateTime",
        "DatetimeTypeProperty": "2020-01-01T01:09:00.0000000Z",
        "DatetimeOffsetTypeProperty@odata.type": "Edm.DateTime",
        "DatetimeOffsetTypeProperty": "2020-01-01T01:09:00.0000000Z",
        "GuidTypeProperty@odata.type": "Edm.Guid",
        "GuidTypeProperty": "0d391d16-97f1-4b9a-be68-4cc871f90008",
        "BinaryTypeProperty@odata.type": "Edm.Binary",
        "BinaryTypeProperty": "AQIDBAU=",
        "Int64TypeProperty@odata.type": "Edm.Int64",
        "Int64TypeProperty": "8",
        "DoubleTypeProperty": 8,
        "IntTypeProperty": 8,
        "PartitionKey": "somPartition",
        "RowKey": "08",
        "Timestamp@odata.type": "Edm.DateTime",
        "Timestamp": "2020-07-27T17:39:13.4728200Z"
      }
    },
    {
      "RequestUri": "https://allkimprim.table.cosmos.azure.com/testtablefz13i0rq?$format=application%2Fjson%3Bodata%3Dfullmetadata",
      "RequestMethod": "POST",
      "RequestHeaders": {
        "Accept": "application/json",
        "Authorization": "Sanitized",
        "Content-Length": "677",
        "Content-Type": "application/json; odata=nometadata",
        "DataServiceVersion": "3.0",
        "traceparent": "00-a7ba895e536a7e44be3e5d3fa76daa85-92b9ec0c9b4aa446-00",
        "User-Agent": [
          "azsdk-net-Data.Tables/1.0.0-dev.20200724.1",
          "(.NET Core 4.6.29017.01; Microsoft Windows 10.0.19041 )"
        ],
        "x-ms-client-request-id": "ae9e53490030ba29e5985c4221889985",
        "x-ms-date": "Mon, 27 Jul 2020 17:39:13 GMT",
        "x-ms-return-client-request-id": "true",
        "x-ms-version": "2019-02-02"
      },
      "RequestBody": {
        "StringTypeProperty": "This is table entity number 09",
        "DatetimeTypeProperty": "2020-01-01T01:10:00.0000000Z",
        "DatetimeTypeProperty@odata.type": "Edm.DateTime",
        "DatetimeOffsetTypeProperty": "2020-01-01T01:10:00.0000000Z",
        "DatetimeOffsetTypeProperty@odata.type": "Edm.DateTime",
        "GuidTypeProperty": "0d391d16-97f1-4b9a-be68-4cc871f90009",
        "GuidTypeProperty@odata.type": "Edm.Guid",
        "BinaryTypeProperty": "AQIDBAU=",
        "BinaryTypeProperty@odata.type": "Edm.Binary",
        "Int64TypeProperty": "9",
        "Int64TypeProperty@odata.type": "Edm.Int64",
        "DoubleTypeProperty": 9,
        "DoubleTypeProperty@odata.type": "Edm.Double",
        "IntTypeProperty": 9,
        "PartitionKey": "somPartition",
        "RowKey": "09",
        "Timestamp": null,
        "ETag": null
      },
      "StatusCode": 201,
      "ResponseHeaders": {
        "Content-Type": "application/json",
        "Date": "Mon, 27 Jul 2020 17:39:13 GMT",
        "ETag": "W/\u0022datetime\u00272020-07-27T17%3A39%3A13.5285256Z\u0027\u0022",
        "Location": "https://allkimprim.table.cosmos.azure.com/testtablefz13i0rq(PartitionKey=\u0027somPartition\u0027,RowKey=\u002709\u0027)",
        "Server": "Microsoft-HTTPAPI/2.0",
        "Transfer-Encoding": "chunked",
        "x-ms-request-id": "ae9e5349-0030-ba29-e598-5c4221889985"
      },
      "ResponseBody": {
        "odata.metadata": "https://allkimprim.table.cosmos.azure.com/testtablefz13i0rq/$metadata#testtablefz13i0rq/@Element",
        "odata.etag": "W/\u0022datetime\u00272020-07-27T17%3A39%3A13.5285256Z\u0027\u0022",
        "StringTypeProperty": "This is table entity number 09",
        "DatetimeTypeProperty@odata.type": "Edm.DateTime",
        "DatetimeTypeProperty": "2020-01-01T01:10:00.0000000Z",
        "DatetimeOffsetTypeProperty@odata.type": "Edm.DateTime",
        "DatetimeOffsetTypeProperty": "2020-01-01T01:10:00.0000000Z",
        "GuidTypeProperty@odata.type": "Edm.Guid",
        "GuidTypeProperty": "0d391d16-97f1-4b9a-be68-4cc871f90009",
        "BinaryTypeProperty@odata.type": "Edm.Binary",
        "BinaryTypeProperty": "AQIDBAU=",
        "Int64TypeProperty@odata.type": "Edm.Int64",
        "Int64TypeProperty": "9",
        "DoubleTypeProperty": 9,
        "IntTypeProperty": 9,
        "PartitionKey": "somPartition",
        "RowKey": "09",
        "Timestamp@odata.type": "Edm.DateTime",
        "Timestamp": "2020-07-27T17:39:13.5285256Z"
      }
    },
    {
      "RequestUri": "https://allkimprim.table.cosmos.azure.com/testtablefz13i0rq?$format=application%2Fjson%3Bodata%3Dfullmetadata",
      "RequestMethod": "POST",
      "RequestHeaders": {
        "Accept": "application/json",
        "Authorization": "Sanitized",
        "Content-Length": "680",
        "Content-Type": "application/json; odata=nometadata",
        "DataServiceVersion": "3.0",
        "traceparent": "00-2c4284b87103c44891f8de09d8c5588a-e3168af60031ad4c-00",
        "User-Agent": [
          "azsdk-net-Data.Tables/1.0.0-dev.20200724.1",
          "(.NET Core 4.6.29017.01; Microsoft Windows 10.0.19041 )"
        ],
        "x-ms-client-request-id": "3b4ddb72bd38a6ac3ee04c6166cbd65e",
        "x-ms-date": "Mon, 27 Jul 2020 17:39:13 GMT",
        "x-ms-return-client-request-id": "true",
        "x-ms-version": "2019-02-02"
      },
      "RequestBody": {
        "StringTypeProperty": "This is table entity number 10",
        "DatetimeTypeProperty": "2020-01-01T01:11:00.0000000Z",
        "DatetimeTypeProperty@odata.type": "Edm.DateTime",
        "DatetimeOffsetTypeProperty": "2020-01-01T01:11:00.0000000Z",
        "DatetimeOffsetTypeProperty@odata.type": "Edm.DateTime",
        "GuidTypeProperty": "0d391d16-97f1-4b9a-be68-4cc871f90010",
        "GuidTypeProperty@odata.type": "Edm.Guid",
        "BinaryTypeProperty": "AQIDBAU=",
        "BinaryTypeProperty@odata.type": "Edm.Binary",
        "Int64TypeProperty": "10",
        "Int64TypeProperty@odata.type": "Edm.Int64",
        "DoubleTypeProperty": 10,
        "DoubleTypeProperty@odata.type": "Edm.Double",
        "IntTypeProperty": 10,
        "PartitionKey": "somPartition",
        "RowKey": "10",
        "Timestamp": null,
        "ETag": null
      },
      "StatusCode": 201,
      "ResponseHeaders": {
        "Content-Type": "application/json",
        "Date": "Mon, 27 Jul 2020 17:39:13 GMT",
        "ETag": "W/\u0022datetime\u00272020-07-27T17%3A39%3A13.5812616Z\u0027\u0022",
        "Location": "https://allkimprim.table.cosmos.azure.com/testtablefz13i0rq(PartitionKey=\u0027somPartition\u0027,RowKey=\u002710\u0027)",
        "Server": "Microsoft-HTTPAPI/2.0",
        "Transfer-Encoding": "chunked",
        "x-ms-request-id": "3b4ddb72-bd38-a6ac-3ee0-4c6166cbd65e"
      },
      "ResponseBody": {
        "odata.metadata": "https://allkimprim.table.cosmos.azure.com/testtablefz13i0rq/$metadata#testtablefz13i0rq/@Element",
        "odata.etag": "W/\u0022datetime\u00272020-07-27T17%3A39%3A13.5812616Z\u0027\u0022",
        "StringTypeProperty": "This is table entity number 10",
        "DatetimeTypeProperty@odata.type": "Edm.DateTime",
        "DatetimeTypeProperty": "2020-01-01T01:11:00.0000000Z",
        "DatetimeOffsetTypeProperty@odata.type": "Edm.DateTime",
        "DatetimeOffsetTypeProperty": "2020-01-01T01:11:00.0000000Z",
        "GuidTypeProperty@odata.type": "Edm.Guid",
        "GuidTypeProperty": "0d391d16-97f1-4b9a-be68-4cc871f90010",
        "BinaryTypeProperty@odata.type": "Edm.Binary",
        "BinaryTypeProperty": "AQIDBAU=",
        "Int64TypeProperty@odata.type": "Edm.Int64",
        "Int64TypeProperty": "10",
        "DoubleTypeProperty": 10,
        "IntTypeProperty": 10,
        "PartitionKey": "somPartition",
        "RowKey": "10",
        "Timestamp@odata.type": "Edm.DateTime",
        "Timestamp": "2020-07-27T17:39:13.5812616Z"
      }
    },
    {
      "RequestUri": "https://allkimprim.table.cosmos.azure.com/testtablefz13i0rq?$format=application%2Fjson%3Bodata%3Dfullmetadata",
      "RequestMethod": "POST",
      "RequestHeaders": {
        "Accept": "application/json",
        "Authorization": "Sanitized",
        "Content-Length": "680",
        "Content-Type": "application/json; odata=nometadata",
        "DataServiceVersion": "3.0",
        "traceparent": "00-ada1250e7d528e449c52bb106c79cb43-eb6954dacb26214f-00",
        "User-Agent": [
          "azsdk-net-Data.Tables/1.0.0-dev.20200724.1",
          "(.NET Core 4.6.29017.01; Microsoft Windows 10.0.19041 )"
        ],
        "x-ms-client-request-id": "1dc53fe4c3ff6db92f90af8747ff589e",
        "x-ms-date": "Mon, 27 Jul 2020 17:39:13 GMT",
        "x-ms-return-client-request-id": "true",
        "x-ms-version": "2019-02-02"
      },
      "RequestBody": {
        "StringTypeProperty": "This is table entity number 11",
        "DatetimeTypeProperty": "2020-01-01T01:12:00.0000000Z",
        "DatetimeTypeProperty@odata.type": "Edm.DateTime",
        "DatetimeOffsetTypeProperty": "2020-01-01T01:12:00.0000000Z",
        "DatetimeOffsetTypeProperty@odata.type": "Edm.DateTime",
        "GuidTypeProperty": "0d391d16-97f1-4b9a-be68-4cc871f90011",
        "GuidTypeProperty@odata.type": "Edm.Guid",
        "BinaryTypeProperty": "AQIDBAU=",
        "BinaryTypeProperty@odata.type": "Edm.Binary",
        "Int64TypeProperty": "11",
        "Int64TypeProperty@odata.type": "Edm.Int64",
        "DoubleTypeProperty": 11,
        "DoubleTypeProperty@odata.type": "Edm.Double",
        "IntTypeProperty": 11,
        "PartitionKey": "somPartition",
        "RowKey": "11",
        "Timestamp": null,
        "ETag": null
      },
      "StatusCode": 201,
      "ResponseHeaders": {
        "Content-Type": "application/json",
        "Date": "Mon, 27 Jul 2020 17:39:13 GMT",
        "ETag": "W/\u0022datetime\u00272020-07-27T17%3A39%3A13.6315400Z\u0027\u0022",
        "Location": "https://allkimprim.table.cosmos.azure.com/testtablefz13i0rq(PartitionKey=\u0027somPartition\u0027,RowKey=\u002711\u0027)",
        "Server": "Microsoft-HTTPAPI/2.0",
        "Transfer-Encoding": "chunked",
        "x-ms-request-id": "1dc53fe4-c3ff-6db9-2f90-af8747ff589e"
      },
      "ResponseBody": {
        "odata.metadata": "https://allkimprim.table.cosmos.azure.com/testtablefz13i0rq/$metadata#testtablefz13i0rq/@Element",
        "odata.etag": "W/\u0022datetime\u00272020-07-27T17%3A39%3A13.6315400Z\u0027\u0022",
        "StringTypeProperty": "This is table entity number 11",
        "DatetimeTypeProperty@odata.type": "Edm.DateTime",
        "DatetimeTypeProperty": "2020-01-01T01:12:00.0000000Z",
        "DatetimeOffsetTypeProperty@odata.type": "Edm.DateTime",
        "DatetimeOffsetTypeProperty": "2020-01-01T01:12:00.0000000Z",
        "GuidTypeProperty@odata.type": "Edm.Guid",
        "GuidTypeProperty": "0d391d16-97f1-4b9a-be68-4cc871f90011",
        "BinaryTypeProperty@odata.type": "Edm.Binary",
        "BinaryTypeProperty": "AQIDBAU=",
        "Int64TypeProperty@odata.type": "Edm.Int64",
        "Int64TypeProperty": "11",
        "DoubleTypeProperty": 11,
        "IntTypeProperty": 11,
        "PartitionKey": "somPartition",
        "RowKey": "11",
        "Timestamp@odata.type": "Edm.DateTime",
        "Timestamp": "2020-07-27T17:39:13.6315400Z"
      }
    },
    {
      "RequestUri": "https://allkimprim.table.cosmos.azure.com/testtablefz13i0rq?$format=application%2Fjson%3Bodata%3Dfullmetadata",
      "RequestMethod": "POST",
      "RequestHeaders": {
        "Accept": "application/json",
        "Authorization": "Sanitized",
        "Content-Length": "680",
        "Content-Type": "application/json; odata=nometadata",
        "DataServiceVersion": "3.0",
        "traceparent": "00-36ce23e80f8be346bf68b5cfe1a160cf-384f4346be4aec49-00",
        "User-Agent": [
          "azsdk-net-Data.Tables/1.0.0-dev.20200724.1",
          "(.NET Core 4.6.29017.01; Microsoft Windows 10.0.19041 )"
        ],
        "x-ms-client-request-id": "38c858822eb08ce8a6f77050b4c85419",
        "x-ms-date": "Mon, 27 Jul 2020 17:39:13 GMT",
        "x-ms-return-client-request-id": "true",
        "x-ms-version": "2019-02-02"
      },
      "RequestBody": {
        "StringTypeProperty": "This is table entity number 12",
        "DatetimeTypeProperty": "2020-01-01T01:13:00.0000000Z",
        "DatetimeTypeProperty@odata.type": "Edm.DateTime",
        "DatetimeOffsetTypeProperty": "2020-01-01T01:13:00.0000000Z",
        "DatetimeOffsetTypeProperty@odata.type": "Edm.DateTime",
        "GuidTypeProperty": "0d391d16-97f1-4b9a-be68-4cc871f90012",
        "GuidTypeProperty@odata.type": "Edm.Guid",
        "BinaryTypeProperty": "AQIDBAU=",
        "BinaryTypeProperty@odata.type": "Edm.Binary",
        "Int64TypeProperty": "12",
        "Int64TypeProperty@odata.type": "Edm.Int64",
        "DoubleTypeProperty": 12,
        "DoubleTypeProperty@odata.type": "Edm.Double",
        "IntTypeProperty": 12,
        "PartitionKey": "somPartition",
        "RowKey": "12",
        "Timestamp": null,
        "ETag": null
      },
      "StatusCode": 201,
      "ResponseHeaders": {
        "Content-Type": "application/json",
        "Date": "Mon, 27 Jul 2020 17:39:13 GMT",
        "ETag": "W/\u0022datetime\u00272020-07-27T17%3A39%3A13.6816136Z\u0027\u0022",
        "Location": "https://allkimprim.table.cosmos.azure.com/testtablefz13i0rq(PartitionKey=\u0027somPartition\u0027,RowKey=\u002712\u0027)",
        "Server": "Microsoft-HTTPAPI/2.0",
        "Transfer-Encoding": "chunked",
        "x-ms-request-id": "38c85882-2eb0-8ce8-a6f7-7050b4c85419"
      },
      "ResponseBody": {
        "odata.metadata": "https://allkimprim.table.cosmos.azure.com/testtablefz13i0rq/$metadata#testtablefz13i0rq/@Element",
        "odata.etag": "W/\u0022datetime\u00272020-07-27T17%3A39%3A13.6816136Z\u0027\u0022",
        "StringTypeProperty": "This is table entity number 12",
        "DatetimeTypeProperty@odata.type": "Edm.DateTime",
        "DatetimeTypeProperty": "2020-01-01T01:13:00.0000000Z",
        "DatetimeOffsetTypeProperty@odata.type": "Edm.DateTime",
        "DatetimeOffsetTypeProperty": "2020-01-01T01:13:00.0000000Z",
        "GuidTypeProperty@odata.type": "Edm.Guid",
        "GuidTypeProperty": "0d391d16-97f1-4b9a-be68-4cc871f90012",
        "BinaryTypeProperty@odata.type": "Edm.Binary",
        "BinaryTypeProperty": "AQIDBAU=",
        "Int64TypeProperty@odata.type": "Edm.Int64",
        "Int64TypeProperty": "12",
        "DoubleTypeProperty": 12,
        "IntTypeProperty": 12,
        "PartitionKey": "somPartition",
        "RowKey": "12",
        "Timestamp@odata.type": "Edm.DateTime",
        "Timestamp": "2020-07-27T17:39:13.6816136Z"
      }
    },
    {
      "RequestUri": "https://allkimprim.table.cosmos.azure.com/testtablefz13i0rq?$format=application%2Fjson%3Bodata%3Dfullmetadata",
      "RequestMethod": "POST",
      "RequestHeaders": {
        "Accept": "application/json",
        "Authorization": "Sanitized",
        "Content-Length": "680",
        "Content-Type": "application/json; odata=nometadata",
        "DataServiceVersion": "3.0",
        "traceparent": "00-1f59f44e10f0cb4b9a514e181e9dad15-6923cbaa5b551c4d-00",
        "User-Agent": [
          "azsdk-net-Data.Tables/1.0.0-dev.20200724.1",
          "(.NET Core 4.6.29017.01; Microsoft Windows 10.0.19041 )"
        ],
        "x-ms-client-request-id": "e15efec27cc2af8622e00ca70d255e3e",
        "x-ms-date": "Mon, 27 Jul 2020 17:39:13 GMT",
        "x-ms-return-client-request-id": "true",
        "x-ms-version": "2019-02-02"
      },
      "RequestBody": {
        "StringTypeProperty": "This is table entity number 13",
        "DatetimeTypeProperty": "2020-01-01T01:14:00.0000000Z",
        "DatetimeTypeProperty@odata.type": "Edm.DateTime",
        "DatetimeOffsetTypeProperty": "2020-01-01T01:14:00.0000000Z",
        "DatetimeOffsetTypeProperty@odata.type": "Edm.DateTime",
        "GuidTypeProperty": "0d391d16-97f1-4b9a-be68-4cc871f90013",
        "GuidTypeProperty@odata.type": "Edm.Guid",
        "BinaryTypeProperty": "AQIDBAU=",
        "BinaryTypeProperty@odata.type": "Edm.Binary",
        "Int64TypeProperty": "13",
        "Int64TypeProperty@odata.type": "Edm.Int64",
        "DoubleTypeProperty": 13,
        "DoubleTypeProperty@odata.type": "Edm.Double",
        "IntTypeProperty": 13,
        "PartitionKey": "somPartition",
        "RowKey": "13",
        "Timestamp": null,
        "ETag": null
      },
      "StatusCode": 201,
      "ResponseHeaders": {
        "Content-Type": "application/json",
        "Date": "Mon, 27 Jul 2020 17:39:13 GMT",
        "ETag": "W/\u0022datetime\u00272020-07-27T17%3A39%3A13.7362952Z\u0027\u0022",
        "Location": "https://allkimprim.table.cosmos.azure.com/testtablefz13i0rq(PartitionKey=\u0027somPartition\u0027,RowKey=\u002713\u0027)",
        "Server": "Microsoft-HTTPAPI/2.0",
        "Transfer-Encoding": "chunked",
        "x-ms-request-id": "e15efec2-7cc2-af86-22e0-0ca70d255e3e"
      },
      "ResponseBody": {
        "odata.metadata": "https://allkimprim.table.cosmos.azure.com/testtablefz13i0rq/$metadata#testtablefz13i0rq/@Element",
        "odata.etag": "W/\u0022datetime\u00272020-07-27T17%3A39%3A13.7362952Z\u0027\u0022",
        "StringTypeProperty": "This is table entity number 13",
        "DatetimeTypeProperty@odata.type": "Edm.DateTime",
        "DatetimeTypeProperty": "2020-01-01T01:14:00.0000000Z",
        "DatetimeOffsetTypeProperty@odata.type": "Edm.DateTime",
        "DatetimeOffsetTypeProperty": "2020-01-01T01:14:00.0000000Z",
        "GuidTypeProperty@odata.type": "Edm.Guid",
        "GuidTypeProperty": "0d391d16-97f1-4b9a-be68-4cc871f90013",
        "BinaryTypeProperty@odata.type": "Edm.Binary",
        "BinaryTypeProperty": "AQIDBAU=",
        "Int64TypeProperty@odata.type": "Edm.Int64",
        "Int64TypeProperty": "13",
        "DoubleTypeProperty": 13,
        "IntTypeProperty": 13,
        "PartitionKey": "somPartition",
        "RowKey": "13",
        "Timestamp@odata.type": "Edm.DateTime",
        "Timestamp": "2020-07-27T17:39:13.7362952Z"
      }
    },
    {
      "RequestUri": "https://allkimprim.table.cosmos.azure.com/testtablefz13i0rq?$format=application%2Fjson%3Bodata%3Dfullmetadata",
      "RequestMethod": "POST",
      "RequestHeaders": {
        "Accept": "application/json",
        "Authorization": "Sanitized",
        "Content-Length": "680",
        "Content-Type": "application/json; odata=nometadata",
        "DataServiceVersion": "3.0",
        "traceparent": "00-9586d8fea9cde2429e5349614dafbf4d-21d03720c8fb9443-00",
        "User-Agent": [
          "azsdk-net-Data.Tables/1.0.0-dev.20200724.1",
          "(.NET Core 4.6.29017.01; Microsoft Windows 10.0.19041 )"
        ],
        "x-ms-client-request-id": "0ddfad879e02b5ae573976075368b866",
        "x-ms-date": "Mon, 27 Jul 2020 17:39:13 GMT",
        "x-ms-return-client-request-id": "true",
        "x-ms-version": "2019-02-02"
      },
      "RequestBody": {
        "StringTypeProperty": "This is table entity number 14",
        "DatetimeTypeProperty": "2020-01-01T01:15:00.0000000Z",
        "DatetimeTypeProperty@odata.type": "Edm.DateTime",
        "DatetimeOffsetTypeProperty": "2020-01-01T01:15:00.0000000Z",
        "DatetimeOffsetTypeProperty@odata.type": "Edm.DateTime",
        "GuidTypeProperty": "0d391d16-97f1-4b9a-be68-4cc871f90014",
        "GuidTypeProperty@odata.type": "Edm.Guid",
        "BinaryTypeProperty": "AQIDBAU=",
        "BinaryTypeProperty@odata.type": "Edm.Binary",
        "Int64TypeProperty": "14",
        "Int64TypeProperty@odata.type": "Edm.Int64",
        "DoubleTypeProperty": 14,
        "DoubleTypeProperty@odata.type": "Edm.Double",
        "IntTypeProperty": 14,
        "PartitionKey": "somPartition",
        "RowKey": "14",
        "Timestamp": null,
        "ETag": null
      },
      "StatusCode": 201,
      "ResponseHeaders": {
        "Content-Type": "application/json",
        "Date": "Mon, 27 Jul 2020 17:39:13 GMT",
        "ETag": "W/\u0022datetime\u00272020-07-27T17%3A39%3A13.7938440Z\u0027\u0022",
        "Location": "https://allkimprim.table.cosmos.azure.com/testtablefz13i0rq(PartitionKey=\u0027somPartition\u0027,RowKey=\u002714\u0027)",
        "Server": "Microsoft-HTTPAPI/2.0",
        "Transfer-Encoding": "chunked",
        "x-ms-request-id": "0ddfad87-9e02-b5ae-5739-76075368b866"
      },
      "ResponseBody": {
        "odata.metadata": "https://allkimprim.table.cosmos.azure.com/testtablefz13i0rq/$metadata#testtablefz13i0rq/@Element",
        "odata.etag": "W/\u0022datetime\u00272020-07-27T17%3A39%3A13.7938440Z\u0027\u0022",
        "StringTypeProperty": "This is table entity number 14",
        "DatetimeTypeProperty@odata.type": "Edm.DateTime",
        "DatetimeTypeProperty": "2020-01-01T01:15:00.0000000Z",
        "DatetimeOffsetTypeProperty@odata.type": "Edm.DateTime",
        "DatetimeOffsetTypeProperty": "2020-01-01T01:15:00.0000000Z",
        "GuidTypeProperty@odata.type": "Edm.Guid",
        "GuidTypeProperty": "0d391d16-97f1-4b9a-be68-4cc871f90014",
        "BinaryTypeProperty@odata.type": "Edm.Binary",
        "BinaryTypeProperty": "AQIDBAU=",
        "Int64TypeProperty@odata.type": "Edm.Int64",
        "Int64TypeProperty": "14",
        "DoubleTypeProperty": 14,
        "IntTypeProperty": 14,
        "PartitionKey": "somPartition",
        "RowKey": "14",
        "Timestamp@odata.type": "Edm.DateTime",
        "Timestamp": "2020-07-27T17:39:13.7938440Z"
      }
    },
    {
      "RequestUri": "https://allkimprim.table.cosmos.azure.com/testtablefz13i0rq?$format=application%2Fjson%3Bodata%3Dfullmetadata",
      "RequestMethod": "POST",
      "RequestHeaders": {
        "Accept": "application/json",
        "Authorization": "Sanitized",
        "Content-Length": "680",
        "Content-Type": "application/json; odata=nometadata",
        "DataServiceVersion": "3.0",
        "traceparent": "00-100ed381f348cf42b686f1d177698ce8-50b5c76cfa307e4c-00",
        "User-Agent": [
          "azsdk-net-Data.Tables/1.0.0-dev.20200724.1",
          "(.NET Core 4.6.29017.01; Microsoft Windows 10.0.19041 )"
        ],
        "x-ms-client-request-id": "49c4953c77a105dbd21916d022417e80",
        "x-ms-date": "Mon, 27 Jul 2020 17:39:13 GMT",
        "x-ms-return-client-request-id": "true",
        "x-ms-version": "2019-02-02"
      },
      "RequestBody": {
        "StringTypeProperty": "This is table entity number 15",
        "DatetimeTypeProperty": "2020-01-01T01:16:00.0000000Z",
        "DatetimeTypeProperty@odata.type": "Edm.DateTime",
        "DatetimeOffsetTypeProperty": "2020-01-01T01:16:00.0000000Z",
        "DatetimeOffsetTypeProperty@odata.type": "Edm.DateTime",
        "GuidTypeProperty": "0d391d16-97f1-4b9a-be68-4cc871f90015",
        "GuidTypeProperty@odata.type": "Edm.Guid",
        "BinaryTypeProperty": "AQIDBAU=",
        "BinaryTypeProperty@odata.type": "Edm.Binary",
        "Int64TypeProperty": "15",
        "Int64TypeProperty@odata.type": "Edm.Int64",
        "DoubleTypeProperty": 15,
        "DoubleTypeProperty@odata.type": "Edm.Double",
        "IntTypeProperty": 15,
        "PartitionKey": "somPartition",
        "RowKey": "15",
        "Timestamp": null,
        "ETag": null
      },
      "StatusCode": 201,
      "ResponseHeaders": {
        "Content-Type": "application/json",
        "Date": "Mon, 27 Jul 2020 17:39:13 GMT",
        "ETag": "W/\u0022datetime\u00272020-07-27T17%3A39%3A13.8487304Z\u0027\u0022",
        "Location": "https://allkimprim.table.cosmos.azure.com/testtablefz13i0rq(PartitionKey=\u0027somPartition\u0027,RowKey=\u002715\u0027)",
        "Server": "Microsoft-HTTPAPI/2.0",
        "Transfer-Encoding": "chunked",
        "x-ms-request-id": "49c4953c-77a1-05db-d219-16d022417e80"
      },
      "ResponseBody": {
        "odata.metadata": "https://allkimprim.table.cosmos.azure.com/testtablefz13i0rq/$metadata#testtablefz13i0rq/@Element",
        "odata.etag": "W/\u0022datetime\u00272020-07-27T17%3A39%3A13.8487304Z\u0027\u0022",
        "StringTypeProperty": "This is table entity number 15",
        "DatetimeTypeProperty@odata.type": "Edm.DateTime",
        "DatetimeTypeProperty": "2020-01-01T01:16:00.0000000Z",
        "DatetimeOffsetTypeProperty@odata.type": "Edm.DateTime",
        "DatetimeOffsetTypeProperty": "2020-01-01T01:16:00.0000000Z",
        "GuidTypeProperty@odata.type": "Edm.Guid",
        "GuidTypeProperty": "0d391d16-97f1-4b9a-be68-4cc871f90015",
        "BinaryTypeProperty@odata.type": "Edm.Binary",
        "BinaryTypeProperty": "AQIDBAU=",
        "Int64TypeProperty@odata.type": "Edm.Int64",
        "Int64TypeProperty": "15",
        "DoubleTypeProperty": 15,
        "IntTypeProperty": 15,
        "PartitionKey": "somPartition",
        "RowKey": "15",
        "Timestamp@odata.type": "Edm.DateTime",
        "Timestamp": "2020-07-27T17:39:13.8487304Z"
      }
    },
    {
      "RequestUri": "https://allkimprim.table.cosmos.azure.com/testtablefz13i0rq?$format=application%2Fjson%3Bodata%3Dfullmetadata",
      "RequestMethod": "POST",
      "RequestHeaders": {
        "Accept": "application/json",
        "Authorization": "Sanitized",
        "Content-Length": "680",
        "Content-Type": "application/json; odata=nometadata",
        "DataServiceVersion": "3.0",
        "traceparent": "00-7c43bd0812d13d46832a9a411eb385ff-13a7c81d21de5841-00",
        "User-Agent": [
          "azsdk-net-Data.Tables/1.0.0-dev.20200724.1",
          "(.NET Core 4.6.29017.01; Microsoft Windows 10.0.19041 )"
        ],
        "x-ms-client-request-id": "07c9319947e9241750a88a89067f5cb9",
        "x-ms-date": "Mon, 27 Jul 2020 17:39:13 GMT",
        "x-ms-return-client-request-id": "true",
        "x-ms-version": "2019-02-02"
      },
      "RequestBody": {
        "StringTypeProperty": "This is table entity number 16",
        "DatetimeTypeProperty": "2020-01-01T01:17:00.0000000Z",
        "DatetimeTypeProperty@odata.type": "Edm.DateTime",
        "DatetimeOffsetTypeProperty": "2020-01-01T01:17:00.0000000Z",
        "DatetimeOffsetTypeProperty@odata.type": "Edm.DateTime",
        "GuidTypeProperty": "0d391d16-97f1-4b9a-be68-4cc871f90016",
        "GuidTypeProperty@odata.type": "Edm.Guid",
        "BinaryTypeProperty": "AQIDBAU=",
        "BinaryTypeProperty@odata.type": "Edm.Binary",
        "Int64TypeProperty": "16",
        "Int64TypeProperty@odata.type": "Edm.Int64",
        "DoubleTypeProperty": 16,
        "DoubleTypeProperty@odata.type": "Edm.Double",
        "IntTypeProperty": 16,
        "PartitionKey": "somPartition",
        "RowKey": "16",
        "Timestamp": null,
        "ETag": null
      },
      "StatusCode": 201,
      "ResponseHeaders": {
        "Content-Type": "application/json",
        "Date": "Mon, 27 Jul 2020 17:39:13 GMT",
        "ETag": "W/\u0022datetime\u00272020-07-27T17%3A39%3A13.9032072Z\u0027\u0022",
        "Location": "https://allkimprim.table.cosmos.azure.com/testtablefz13i0rq(PartitionKey=\u0027somPartition\u0027,RowKey=\u002716\u0027)",
        "Server": "Microsoft-HTTPAPI/2.0",
        "Transfer-Encoding": "chunked",
        "x-ms-request-id": "07c93199-47e9-2417-50a8-8a89067f5cb9"
      },
      "ResponseBody": {
        "odata.metadata": "https://allkimprim.table.cosmos.azure.com/testtablefz13i0rq/$metadata#testtablefz13i0rq/@Element",
        "odata.etag": "W/\u0022datetime\u00272020-07-27T17%3A39%3A13.9032072Z\u0027\u0022",
        "StringTypeProperty": "This is table entity number 16",
        "DatetimeTypeProperty@odata.type": "Edm.DateTime",
        "DatetimeTypeProperty": "2020-01-01T01:17:00.0000000Z",
        "DatetimeOffsetTypeProperty@odata.type": "Edm.DateTime",
        "DatetimeOffsetTypeProperty": "2020-01-01T01:17:00.0000000Z",
        "GuidTypeProperty@odata.type": "Edm.Guid",
        "GuidTypeProperty": "0d391d16-97f1-4b9a-be68-4cc871f90016",
        "BinaryTypeProperty@odata.type": "Edm.Binary",
        "BinaryTypeProperty": "AQIDBAU=",
        "Int64TypeProperty@odata.type": "Edm.Int64",
        "Int64TypeProperty": "16",
        "DoubleTypeProperty": 16,
        "IntTypeProperty": 16,
        "PartitionKey": "somPartition",
        "RowKey": "16",
        "Timestamp@odata.type": "Edm.DateTime",
        "Timestamp": "2020-07-27T17:39:13.9032072Z"
      }
    },
    {
      "RequestUri": "https://allkimprim.table.cosmos.azure.com/testtablefz13i0rq?$format=application%2Fjson%3Bodata%3Dfullmetadata",
      "RequestMethod": "POST",
      "RequestHeaders": {
        "Accept": "application/json",
        "Authorization": "Sanitized",
        "Content-Length": "680",
        "Content-Type": "application/json; odata=nometadata",
        "DataServiceVersion": "3.0",
        "traceparent": "00-6038fe1824f7434fa999cdbb25fce5d8-6bdbbd102134134e-00",
        "User-Agent": [
          "azsdk-net-Data.Tables/1.0.0-dev.20200724.1",
          "(.NET Core 4.6.29017.01; Microsoft Windows 10.0.19041 )"
        ],
        "x-ms-client-request-id": "786ba5271460109dd1d93be987de9315",
        "x-ms-date": "Mon, 27 Jul 2020 17:39:13 GMT",
        "x-ms-return-client-request-id": "true",
        "x-ms-version": "2019-02-02"
      },
      "RequestBody": {
        "StringTypeProperty": "This is table entity number 17",
        "DatetimeTypeProperty": "2020-01-01T01:18:00.0000000Z",
        "DatetimeTypeProperty@odata.type": "Edm.DateTime",
        "DatetimeOffsetTypeProperty": "2020-01-01T01:18:00.0000000Z",
        "DatetimeOffsetTypeProperty@odata.type": "Edm.DateTime",
        "GuidTypeProperty": "0d391d16-97f1-4b9a-be68-4cc871f90017",
        "GuidTypeProperty@odata.type": "Edm.Guid",
        "BinaryTypeProperty": "AQIDBAU=",
        "BinaryTypeProperty@odata.type": "Edm.Binary",
        "Int64TypeProperty": "17",
        "Int64TypeProperty@odata.type": "Edm.Int64",
        "DoubleTypeProperty": 17,
        "DoubleTypeProperty@odata.type": "Edm.Double",
        "IntTypeProperty": 17,
        "PartitionKey": "somPartition",
        "RowKey": "17",
        "Timestamp": null,
        "ETag": null
      },
      "StatusCode": 201,
      "ResponseHeaders": {
        "Content-Type": "application/json",
        "Date": "Mon, 27 Jul 2020 17:39:13 GMT",
        "ETag": "W/\u0022datetime\u00272020-07-27T17%3A39%3A13.9664904Z\u0027\u0022",
        "Location": "https://allkimprim.table.cosmos.azure.com/testtablefz13i0rq(PartitionKey=\u0027somPartition\u0027,RowKey=\u002717\u0027)",
        "Server": "Microsoft-HTTPAPI/2.0",
        "Transfer-Encoding": "chunked",
        "x-ms-request-id": "786ba527-1460-109d-d1d9-3be987de9315"
      },
      "ResponseBody": {
        "odata.metadata": "https://allkimprim.table.cosmos.azure.com/testtablefz13i0rq/$metadata#testtablefz13i0rq/@Element",
        "odata.etag": "W/\u0022datetime\u00272020-07-27T17%3A39%3A13.9664904Z\u0027\u0022",
        "StringTypeProperty": "This is table entity number 17",
        "DatetimeTypeProperty@odata.type": "Edm.DateTime",
        "DatetimeTypeProperty": "2020-01-01T01:18:00.0000000Z",
        "DatetimeOffsetTypeProperty@odata.type": "Edm.DateTime",
        "DatetimeOffsetTypeProperty": "2020-01-01T01:18:00.0000000Z",
        "GuidTypeProperty@odata.type": "Edm.Guid",
        "GuidTypeProperty": "0d391d16-97f1-4b9a-be68-4cc871f90017",
        "BinaryTypeProperty@odata.type": "Edm.Binary",
        "BinaryTypeProperty": "AQIDBAU=",
        "Int64TypeProperty@odata.type": "Edm.Int64",
        "Int64TypeProperty": "17",
        "DoubleTypeProperty": 17,
        "IntTypeProperty": 17,
        "PartitionKey": "somPartition",
        "RowKey": "17",
        "Timestamp@odata.type": "Edm.DateTime",
        "Timestamp": "2020-07-27T17:39:13.9664904Z"
      }
    },
    {
      "RequestUri": "https://allkimprim.table.cosmos.azure.com/testtablefz13i0rq?$format=application%2Fjson%3Bodata%3Dfullmetadata",
      "RequestMethod": "POST",
      "RequestHeaders": {
        "Accept": "application/json",
        "Authorization": "Sanitized",
        "Content-Length": "680",
        "Content-Type": "application/json; odata=nometadata",
        "DataServiceVersion": "3.0",
        "traceparent": "00-3f500a47f4b73d46a0197c1baea70590-d8f36e4409febb4a-00",
        "User-Agent": [
          "azsdk-net-Data.Tables/1.0.0-dev.20200724.1",
          "(.NET Core 4.6.29017.01; Microsoft Windows 10.0.19041 )"
        ],
        "x-ms-client-request-id": "226df5bbb19ff57d7ea0f9f8ec52ff52",
        "x-ms-date": "Mon, 27 Jul 2020 17:39:13 GMT",
        "x-ms-return-client-request-id": "true",
        "x-ms-version": "2019-02-02"
      },
      "RequestBody": {
        "StringTypeProperty": "This is table entity number 18",
        "DatetimeTypeProperty": "2020-01-01T01:19:00.0000000Z",
        "DatetimeTypeProperty@odata.type": "Edm.DateTime",
        "DatetimeOffsetTypeProperty": "2020-01-01T01:19:00.0000000Z",
        "DatetimeOffsetTypeProperty@odata.type": "Edm.DateTime",
        "GuidTypeProperty": "0d391d16-97f1-4b9a-be68-4cc871f90018",
        "GuidTypeProperty@odata.type": "Edm.Guid",
        "BinaryTypeProperty": "AQIDBAU=",
        "BinaryTypeProperty@odata.type": "Edm.Binary",
        "Int64TypeProperty": "18",
        "Int64TypeProperty@odata.type": "Edm.Int64",
        "DoubleTypeProperty": 18,
        "DoubleTypeProperty@odata.type": "Edm.Double",
        "IntTypeProperty": 18,
        "PartitionKey": "somPartition",
        "RowKey": "18",
        "Timestamp": null,
        "ETag": null
      },
      "StatusCode": 201,
      "ResponseHeaders": {
        "Content-Type": "application/json",
        "Date": "Mon, 27 Jul 2020 17:39:13 GMT",
        "ETag": "W/\u0022datetime\u00272020-07-27T17%3A39%3A14.0240392Z\u0027\u0022",
        "Location": "https://allkimprim.table.cosmos.azure.com/testtablefz13i0rq(PartitionKey=\u0027somPartition\u0027,RowKey=\u002718\u0027)",
        "Server": "Microsoft-HTTPAPI/2.0",
        "Transfer-Encoding": "chunked",
        "x-ms-request-id": "226df5bb-b19f-f57d-7ea0-f9f8ec52ff52"
      },
      "ResponseBody": {
        "odata.metadata": "https://allkimprim.table.cosmos.azure.com/testtablefz13i0rq/$metadata#testtablefz13i0rq/@Element",
        "odata.etag": "W/\u0022datetime\u00272020-07-27T17%3A39%3A14.0240392Z\u0027\u0022",
        "StringTypeProperty": "This is table entity number 18",
        "DatetimeTypeProperty@odata.type": "Edm.DateTime",
        "DatetimeTypeProperty": "2020-01-01T01:19:00.0000000Z",
        "DatetimeOffsetTypeProperty@odata.type": "Edm.DateTime",
        "DatetimeOffsetTypeProperty": "2020-01-01T01:19:00.0000000Z",
        "GuidTypeProperty@odata.type": "Edm.Guid",
        "GuidTypeProperty": "0d391d16-97f1-4b9a-be68-4cc871f90018",
        "BinaryTypeProperty@odata.type": "Edm.Binary",
        "BinaryTypeProperty": "AQIDBAU=",
        "Int64TypeProperty@odata.type": "Edm.Int64",
        "Int64TypeProperty": "18",
        "DoubleTypeProperty": 18,
        "IntTypeProperty": 18,
        "PartitionKey": "somPartition",
        "RowKey": "18",
        "Timestamp@odata.type": "Edm.DateTime",
        "Timestamp": "2020-07-27T17:39:14.0240392Z"
      }
    },
    {
      "RequestUri": "https://allkimprim.table.cosmos.azure.com/testtablefz13i0rq?$format=application%2Fjson%3Bodata%3Dfullmetadata",
      "RequestMethod": "POST",
      "RequestHeaders": {
        "Accept": "application/json",
        "Authorization": "Sanitized",
        "Content-Length": "680",
        "Content-Type": "application/json; odata=nometadata",
        "DataServiceVersion": "3.0",
        "traceparent": "00-eab6864df5014d4daae0ac3c886c4e8d-85c85dc31c36344f-00",
        "User-Agent": [
          "azsdk-net-Data.Tables/1.0.0-dev.20200724.1",
          "(.NET Core 4.6.29017.01; Microsoft Windows 10.0.19041 )"
        ],
        "x-ms-client-request-id": "7ca85cbc06d5842093b8350f0b2d9c71",
        "x-ms-date": "Mon, 27 Jul 2020 17:39:14 GMT",
        "x-ms-return-client-request-id": "true",
        "x-ms-version": "2019-02-02"
      },
      "RequestBody": {
        "StringTypeProperty": "This is table entity number 19",
        "DatetimeTypeProperty": "2020-01-01T01:20:00.0000000Z",
        "DatetimeTypeProperty@odata.type": "Edm.DateTime",
        "DatetimeOffsetTypeProperty": "2020-01-01T01:20:00.0000000Z",
        "DatetimeOffsetTypeProperty@odata.type": "Edm.DateTime",
        "GuidTypeProperty": "0d391d16-97f1-4b9a-be68-4cc871f90019",
        "GuidTypeProperty@odata.type": "Edm.Guid",
        "BinaryTypeProperty": "AQIDBAU=",
        "BinaryTypeProperty@odata.type": "Edm.Binary",
        "Int64TypeProperty": "19",
        "Int64TypeProperty@odata.type": "Edm.Int64",
        "DoubleTypeProperty": 19,
        "DoubleTypeProperty@odata.type": "Edm.Double",
        "IntTypeProperty": 19,
        "PartitionKey": "somPartition",
        "RowKey": "19",
        "Timestamp": null,
        "ETag": null
      },
      "StatusCode": 201,
      "ResponseHeaders": {
        "Content-Type": "application/json",
        "Date": "Mon, 27 Jul 2020 17:39:14 GMT",
        "ETag": "W/\u0022datetime\u00272020-07-27T17%3A39%3A14.0736008Z\u0027\u0022",
        "Location": "https://allkimprim.table.cosmos.azure.com/testtablefz13i0rq(PartitionKey=\u0027somPartition\u0027,RowKey=\u002719\u0027)",
        "Server": "Microsoft-HTTPAPI/2.0",
        "Transfer-Encoding": "chunked",
        "x-ms-request-id": "7ca85cbc-06d5-8420-93b8-350f0b2d9c71"
      },
      "ResponseBody": {
        "odata.metadata": "https://allkimprim.table.cosmos.azure.com/testtablefz13i0rq/$metadata#testtablefz13i0rq/@Element",
        "odata.etag": "W/\u0022datetime\u00272020-07-27T17%3A39%3A14.0736008Z\u0027\u0022",
        "StringTypeProperty": "This is table entity number 19",
        "DatetimeTypeProperty@odata.type": "Edm.DateTime",
        "DatetimeTypeProperty": "2020-01-01T01:20:00.0000000Z",
        "DatetimeOffsetTypeProperty@odata.type": "Edm.DateTime",
        "DatetimeOffsetTypeProperty": "2020-01-01T01:20:00.0000000Z",
        "GuidTypeProperty@odata.type": "Edm.Guid",
        "GuidTypeProperty": "0d391d16-97f1-4b9a-be68-4cc871f90019",
        "BinaryTypeProperty@odata.type": "Edm.Binary",
        "BinaryTypeProperty": "AQIDBAU=",
        "Int64TypeProperty@odata.type": "Edm.Int64",
        "Int64TypeProperty": "19",
        "DoubleTypeProperty": 19,
        "IntTypeProperty": 19,
        "PartitionKey": "somPartition",
        "RowKey": "19",
        "Timestamp@odata.type": "Edm.DateTime",
        "Timestamp": "2020-07-27T17:39:14.0736008Z"
      }
    },
    {
      "RequestUri": "https://allkimprim.table.cosmos.azure.com/testtablefz13i0rq?$format=application%2Fjson%3Bodata%3Dfullmetadata",
      "RequestMethod": "POST",
      "RequestHeaders": {
        "Accept": "application/json",
        "Authorization": "Sanitized",
        "Content-Length": "680",
        "Content-Type": "application/json; odata=nometadata",
        "DataServiceVersion": "3.0",
        "traceparent": "00-5621d8fcaf07cd4b84a40283034bfdf2-d836516a2e655541-00",
        "User-Agent": [
          "azsdk-net-Data.Tables/1.0.0-dev.20200724.1",
          "(.NET Core 4.6.29017.01; Microsoft Windows 10.0.19041 )"
        ],
        "x-ms-client-request-id": "10ce74143a11761a2876fabf1ba4237e",
        "x-ms-date": "Mon, 27 Jul 2020 17:39:14 GMT",
        "x-ms-return-client-request-id": "true",
        "x-ms-version": "2019-02-02"
      },
      "RequestBody": {
        "StringTypeProperty": "This is table entity number 20",
        "DatetimeTypeProperty": "2020-01-01T01:21:00.0000000Z",
        "DatetimeTypeProperty@odata.type": "Edm.DateTime",
        "DatetimeOffsetTypeProperty": "2020-01-01T01:21:00.0000000Z",
        "DatetimeOffsetTypeProperty@odata.type": "Edm.DateTime",
        "GuidTypeProperty": "0d391d16-97f1-4b9a-be68-4cc871f90020",
        "GuidTypeProperty@odata.type": "Edm.Guid",
        "BinaryTypeProperty": "AQIDBAU=",
        "BinaryTypeProperty@odata.type": "Edm.Binary",
        "Int64TypeProperty": "20",
        "Int64TypeProperty@odata.type": "Edm.Int64",
        "DoubleTypeProperty": 20,
        "DoubleTypeProperty@odata.type": "Edm.Double",
        "IntTypeProperty": 20,
        "PartitionKey": "somPartition",
        "RowKey": "20",
        "Timestamp": null,
        "ETag": null
      },
      "StatusCode": 201,
      "ResponseHeaders": {
        "Content-Type": "application/json",
        "Date": "Mon, 27 Jul 2020 17:39:14 GMT",
        "ETag": "W/\u0022datetime\u00272020-07-27T17%3A39%3A14.1299208Z\u0027\u0022",
        "Location": "https://allkimprim.table.cosmos.azure.com/testtablefz13i0rq(PartitionKey=\u0027somPartition\u0027,RowKey=\u002720\u0027)",
        "Server": "Microsoft-HTTPAPI/2.0",
        "Transfer-Encoding": "chunked",
        "x-ms-request-id": "10ce7414-3a11-761a-2876-fabf1ba4237e"
      },
      "ResponseBody": {
        "odata.metadata": "https://allkimprim.table.cosmos.azure.com/testtablefz13i0rq/$metadata#testtablefz13i0rq/@Element",
        "odata.etag": "W/\u0022datetime\u00272020-07-27T17%3A39%3A14.1299208Z\u0027\u0022",
        "StringTypeProperty": "This is table entity number 20",
        "DatetimeTypeProperty@odata.type": "Edm.DateTime",
        "DatetimeTypeProperty": "2020-01-01T01:21:00.0000000Z",
        "DatetimeOffsetTypeProperty@odata.type": "Edm.DateTime",
        "DatetimeOffsetTypeProperty": "2020-01-01T01:21:00.0000000Z",
        "GuidTypeProperty@odata.type": "Edm.Guid",
        "GuidTypeProperty": "0d391d16-97f1-4b9a-be68-4cc871f90020",
        "BinaryTypeProperty@odata.type": "Edm.Binary",
        "BinaryTypeProperty": "AQIDBAU=",
        "Int64TypeProperty@odata.type": "Edm.Int64",
        "Int64TypeProperty": "20",
        "DoubleTypeProperty": 20,
        "IntTypeProperty": 20,
        "PartitionKey": "somPartition",
        "RowKey": "20",
        "Timestamp@odata.type": "Edm.DateTime",
        "Timestamp": "2020-07-27T17:39:14.1299208Z"
      }
    },
    {
      "RequestUri": "https://allkimprim.table.cosmos.azure.com/testtablefz13i0rq()?$format=application%2Fjson%3Bodata%3Dfullmetadata",
      "RequestMethod": "GET",
      "RequestHeaders": {
        "Accept": "application/json",
        "Authorization": "Sanitized",
        "DataServiceVersion": "3.0",
        "User-Agent": [
          "azsdk-net-Data.Tables/1.0.0-dev.20200724.1",
          "(.NET Core 4.6.29017.01; Microsoft Windows 10.0.19041 )"
        ],
        "x-ms-client-request-id": "2b2ce8da1735b540d5e88ee67b6de950",
        "x-ms-date": "Mon, 27 Jul 2020 17:39:14 GMT",
        "x-ms-return-client-request-id": "true",
        "x-ms-version": "2019-02-02"
      },
      "RequestBody": null,
      "StatusCode": 200,
      "ResponseHeaders": {
        "Content-Type": "application/json",
        "Date": "Mon, 27 Jul 2020 17:39:14 GMT",
        "Server": "Microsoft-HTTPAPI/2.0",
        "Transfer-Encoding": "chunked",
        "x-ms-request-id": "2b2ce8da-1735-b540-d5e8-8ee67b6de950"
      },
      "ResponseBody": {
        "value": [
          {
            "odata.etag": "W/\u0022datetime\u00272020-07-27T17%3A39%3A13.0727432Z\u0027\u0022",
            "StringTypeProperty": "This is table entity number 01",
            "DatetimeTypeProperty@odata.type": "Edm.DateTime",
            "DatetimeTypeProperty": "2020-01-01T01:02:00.0000000Z",
            "DatetimeOffsetTypeProperty@odata.type": "Edm.DateTime",
            "DatetimeOffsetTypeProperty": "2020-01-01T01:02:00.0000000Z",
            "GuidTypeProperty@odata.type": "Edm.Guid",
            "GuidTypeProperty": "0d391d16-97f1-4b9a-be68-4cc871f90001",
            "BinaryTypeProperty@odata.type": "Edm.Binary",
            "BinaryTypeProperty": "AQIDBAU=",
            "Int64TypeProperty@odata.type": "Edm.Int64",
            "Int64TypeProperty": "1",
            "DoubleTypeProperty": 1,
            "IntTypeProperty": 1,
            "PartitionKey": "somPartition",
            "RowKey": "01",
            "Timestamp@odata.type": "Edm.DateTime",
            "Timestamp": "2020-07-27T17:39:13.0727432Z"
          },
          {
            "odata.etag": "W/\u0022datetime\u00272020-07-27T17%3A39%3A13.1356168Z\u0027\u0022",
            "StringTypeProperty": "This is table entity number 02",
            "DatetimeTypeProperty@odata.type": "Edm.DateTime",
            "DatetimeTypeProperty": "2020-01-01T01:03:00.0000000Z",
            "DatetimeOffsetTypeProperty@odata.type": "Edm.DateTime",
            "DatetimeOffsetTypeProperty": "2020-01-01T01:03:00.0000000Z",
            "GuidTypeProperty@odata.type": "Edm.Guid",
            "GuidTypeProperty": "0d391d16-97f1-4b9a-be68-4cc871f90002",
            "BinaryTypeProperty@odata.type": "Edm.Binary",
            "BinaryTypeProperty": "AQIDBAU=",
            "Int64TypeProperty@odata.type": "Edm.Int64",
            "Int64TypeProperty": "2",
            "DoubleTypeProperty": 2,
            "IntTypeProperty": 2,
            "PartitionKey": "somPartition",
            "RowKey": "02",
            "Timestamp@odata.type": "Edm.DateTime",
            "Timestamp": "2020-07-27T17:39:13.1356168Z"
          },
          {
            "odata.etag": "W/\u0022datetime\u00272020-07-27T17%3A39%3A13.1960328Z\u0027\u0022",
            "StringTypeProperty": "This is table entity number 03",
            "DatetimeTypeProperty@odata.type": "Edm.DateTime",
            "DatetimeTypeProperty": "2020-01-01T01:04:00.0000000Z",
            "DatetimeOffsetTypeProperty@odata.type": "Edm.DateTime",
            "DatetimeOffsetTypeProperty": "2020-01-01T01:04:00.0000000Z",
            "GuidTypeProperty@odata.type": "Edm.Guid",
            "GuidTypeProperty": "0d391d16-97f1-4b9a-be68-4cc871f90003",
            "BinaryTypeProperty@odata.type": "Edm.Binary",
            "BinaryTypeProperty": "AQIDBAU=",
            "Int64TypeProperty@odata.type": "Edm.Int64",
            "Int64TypeProperty": "3",
            "DoubleTypeProperty": 3,
            "IntTypeProperty": 3,
            "PartitionKey": "somPartition",
            "RowKey": "03",
            "Timestamp@odata.type": "Edm.DateTime",
            "Timestamp": "2020-07-27T17:39:13.1960328Z"
          },
          {
            "odata.etag": "W/\u0022datetime\u00272020-07-27T17%3A39%3A13.2518408Z\u0027\u0022",
            "StringTypeProperty": "This is table entity number 04",
            "DatetimeTypeProperty@odata.type": "Edm.DateTime",
            "DatetimeTypeProperty": "2020-01-01T01:05:00.0000000Z",
            "DatetimeOffsetTypeProperty@odata.type": "Edm.DateTime",
            "DatetimeOffsetTypeProperty": "2020-01-01T01:05:00.0000000Z",
            "GuidTypeProperty@odata.type": "Edm.Guid",
            "GuidTypeProperty": "0d391d16-97f1-4b9a-be68-4cc871f90004",
            "BinaryTypeProperty@odata.type": "Edm.Binary",
            "BinaryTypeProperty": "AQIDBAU=",
            "Int64TypeProperty@odata.type": "Edm.Int64",
            "Int64TypeProperty": "4",
            "DoubleTypeProperty": 4,
            "IntTypeProperty": 4,
            "PartitionKey": "somPartition",
            "RowKey": "04",
            "Timestamp@odata.type": "Edm.DateTime",
            "Timestamp": "2020-07-27T17:39:13.2518408Z"
          },
          {
            "odata.etag": "W/\u0022datetime\u00272020-07-27T17%3A39%3A13.3068296Z\u0027\u0022",
            "StringTypeProperty": "This is table entity number 05",
            "DatetimeTypeProperty@odata.type": "Edm.DateTime",
            "DatetimeTypeProperty": "2020-01-01T01:06:00.0000000Z",
            "DatetimeOffsetTypeProperty@odata.type": "Edm.DateTime",
            "DatetimeOffsetTypeProperty": "2020-01-01T01:06:00.0000000Z",
            "GuidTypeProperty@odata.type": "Edm.Guid",
            "GuidTypeProperty": "0d391d16-97f1-4b9a-be68-4cc871f90005",
            "BinaryTypeProperty@odata.type": "Edm.Binary",
            "BinaryTypeProperty": "AQIDBAU=",
            "Int64TypeProperty@odata.type": "Edm.Int64",
            "Int64TypeProperty": "5",
            "DoubleTypeProperty": 5,
            "IntTypeProperty": 5,
            "PartitionKey": "somPartition",
            "RowKey": "05",
            "Timestamp@odata.type": "Edm.DateTime",
            "Timestamp": "2020-07-27T17:39:13.3068296Z"
          },
          {
            "odata.etag": "W/\u0022datetime\u00272020-07-27T17%3A39%3A13.3622280Z\u0027\u0022",
            "StringTypeProperty": "This is table entity number 06",
            "DatetimeTypeProperty@odata.type": "Edm.DateTime",
            "DatetimeTypeProperty": "2020-01-01T01:07:00.0000000Z",
            "DatetimeOffsetTypeProperty@odata.type": "Edm.DateTime",
            "DatetimeOffsetTypeProperty": "2020-01-01T01:07:00.0000000Z",
            "GuidTypeProperty@odata.type": "Edm.Guid",
            "GuidTypeProperty": "0d391d16-97f1-4b9a-be68-4cc871f90006",
            "BinaryTypeProperty@odata.type": "Edm.Binary",
            "BinaryTypeProperty": "AQIDBAU=",
            "Int64TypeProperty@odata.type": "Edm.Int64",
            "Int64TypeProperty": "6",
            "DoubleTypeProperty": 6,
            "IntTypeProperty": 6,
            "PartitionKey": "somPartition",
            "RowKey": "06",
            "Timestamp@odata.type": "Edm.DateTime",
            "Timestamp": "2020-07-27T17:39:13.3622280Z"
          },
          {
            "odata.etag": "W/\u0022datetime\u00272020-07-27T17%3A39%3A13.4191624Z\u0027\u0022",
            "StringTypeProperty": "This is table entity number 07",
            "DatetimeTypeProperty@odata.type": "Edm.DateTime",
            "DatetimeTypeProperty": "2020-01-01T01:08:00.0000000Z",
            "DatetimeOffsetTypeProperty@odata.type": "Edm.DateTime",
            "DatetimeOffsetTypeProperty": "2020-01-01T01:08:00.0000000Z",
            "GuidTypeProperty@odata.type": "Edm.Guid",
            "GuidTypeProperty": "0d391d16-97f1-4b9a-be68-4cc871f90007",
            "BinaryTypeProperty@odata.type": "Edm.Binary",
            "BinaryTypeProperty": "AQIDBAU=",
            "Int64TypeProperty@odata.type": "Edm.Int64",
            "Int64TypeProperty": "7",
            "DoubleTypeProperty": 7,
            "IntTypeProperty": 7,
            "PartitionKey": "somPartition",
            "RowKey": "07",
            "Timestamp@odata.type": "Edm.DateTime",
            "Timestamp": "2020-07-27T17:39:13.4191624Z"
          },
          {
            "odata.etag": "W/\u0022datetime\u00272020-07-27T17%3A39%3A13.4728200Z\u0027\u0022",
            "StringTypeProperty": "This is table entity number 08",
            "DatetimeTypeProperty@odata.type": "Edm.DateTime",
            "DatetimeTypeProperty": "2020-01-01T01:09:00.0000000Z",
            "DatetimeOffsetTypeProperty@odata.type": "Edm.DateTime",
            "DatetimeOffsetTypeProperty": "2020-01-01T01:09:00.0000000Z",
            "GuidTypeProperty@odata.type": "Edm.Guid",
            "GuidTypeProperty": "0d391d16-97f1-4b9a-be68-4cc871f90008",
            "BinaryTypeProperty@odata.type": "Edm.Binary",
            "BinaryTypeProperty": "AQIDBAU=",
            "Int64TypeProperty@odata.type": "Edm.Int64",
            "Int64TypeProperty": "8",
            "DoubleTypeProperty": 8,
            "IntTypeProperty": 8,
            "PartitionKey": "somPartition",
            "RowKey": "08",
            "Timestamp@odata.type": "Edm.DateTime",
            "Timestamp": "2020-07-27T17:39:13.4728200Z"
          },
          {
            "odata.etag": "W/\u0022datetime\u00272020-07-27T17%3A39%3A13.5285256Z\u0027\u0022",
            "StringTypeProperty": "This is table entity number 09",
            "DatetimeTypeProperty@odata.type": "Edm.DateTime",
            "DatetimeTypeProperty": "2020-01-01T01:10:00.0000000Z",
            "DatetimeOffsetTypeProperty@odata.type": "Edm.DateTime",
            "DatetimeOffsetTypeProperty": "2020-01-01T01:10:00.0000000Z",
            "GuidTypeProperty@odata.type": "Edm.Guid",
            "GuidTypeProperty": "0d391d16-97f1-4b9a-be68-4cc871f90009",
            "BinaryTypeProperty@odata.type": "Edm.Binary",
            "BinaryTypeProperty": "AQIDBAU=",
            "Int64TypeProperty@odata.type": "Edm.Int64",
            "Int64TypeProperty": "9",
            "DoubleTypeProperty": 9,
            "IntTypeProperty": 9,
            "PartitionKey": "somPartition",
            "RowKey": "09",
            "Timestamp@odata.type": "Edm.DateTime",
            "Timestamp": "2020-07-27T17:39:13.5285256Z"
          },
          {
            "odata.etag": "W/\u0022datetime\u00272020-07-27T17%3A39%3A13.5812616Z\u0027\u0022",
            "StringTypeProperty": "This is table entity number 10",
            "DatetimeTypeProperty@odata.type": "Edm.DateTime",
            "DatetimeTypeProperty": "2020-01-01T01:11:00.0000000Z",
            "DatetimeOffsetTypeProperty@odata.type": "Edm.DateTime",
            "DatetimeOffsetTypeProperty": "2020-01-01T01:11:00.0000000Z",
            "GuidTypeProperty@odata.type": "Edm.Guid",
            "GuidTypeProperty": "0d391d16-97f1-4b9a-be68-4cc871f90010",
            "BinaryTypeProperty@odata.type": "Edm.Binary",
            "BinaryTypeProperty": "AQIDBAU=",
            "Int64TypeProperty@odata.type": "Edm.Int64",
            "Int64TypeProperty": "10",
            "DoubleTypeProperty": 10,
            "IntTypeProperty": 10,
            "PartitionKey": "somPartition",
            "RowKey": "10",
            "Timestamp@odata.type": "Edm.DateTime",
            "Timestamp": "2020-07-27T17:39:13.5812616Z"
          },
          {
            "odata.etag": "W/\u0022datetime\u00272020-07-27T17%3A39%3A13.6315400Z\u0027\u0022",
            "StringTypeProperty": "This is table entity number 11",
            "DatetimeTypeProperty@odata.type": "Edm.DateTime",
            "DatetimeTypeProperty": "2020-01-01T01:12:00.0000000Z",
            "DatetimeOffsetTypeProperty@odata.type": "Edm.DateTime",
            "DatetimeOffsetTypeProperty": "2020-01-01T01:12:00.0000000Z",
            "GuidTypeProperty@odata.type": "Edm.Guid",
            "GuidTypeProperty": "0d391d16-97f1-4b9a-be68-4cc871f90011",
            "BinaryTypeProperty@odata.type": "Edm.Binary",
            "BinaryTypeProperty": "AQIDBAU=",
            "Int64TypeProperty@odata.type": "Edm.Int64",
            "Int64TypeProperty": "11",
            "DoubleTypeProperty": 11,
            "IntTypeProperty": 11,
            "PartitionKey": "somPartition",
            "RowKey": "11",
            "Timestamp@odata.type": "Edm.DateTime",
            "Timestamp": "2020-07-27T17:39:13.6315400Z"
          },
          {
            "odata.etag": "W/\u0022datetime\u00272020-07-27T17%3A39%3A13.6816136Z\u0027\u0022",
            "StringTypeProperty": "This is table entity number 12",
            "DatetimeTypeProperty@odata.type": "Edm.DateTime",
            "DatetimeTypeProperty": "2020-01-01T01:13:00.0000000Z",
            "DatetimeOffsetTypeProperty@odata.type": "Edm.DateTime",
            "DatetimeOffsetTypeProperty": "2020-01-01T01:13:00.0000000Z",
            "GuidTypeProperty@odata.type": "Edm.Guid",
            "GuidTypeProperty": "0d391d16-97f1-4b9a-be68-4cc871f90012",
            "BinaryTypeProperty@odata.type": "Edm.Binary",
            "BinaryTypeProperty": "AQIDBAU=",
            "Int64TypeProperty@odata.type": "Edm.Int64",
            "Int64TypeProperty": "12",
            "DoubleTypeProperty": 12,
            "IntTypeProperty": 12,
            "PartitionKey": "somPartition",
            "RowKey": "12",
            "Timestamp@odata.type": "Edm.DateTime",
            "Timestamp": "2020-07-27T17:39:13.6816136Z"
          },
          {
            "odata.etag": "W/\u0022datetime\u00272020-07-27T17%3A39%3A13.7362952Z\u0027\u0022",
            "StringTypeProperty": "This is table entity number 13",
            "DatetimeTypeProperty@odata.type": "Edm.DateTime",
            "DatetimeTypeProperty": "2020-01-01T01:14:00.0000000Z",
            "DatetimeOffsetTypeProperty@odata.type": "Edm.DateTime",
            "DatetimeOffsetTypeProperty": "2020-01-01T01:14:00.0000000Z",
            "GuidTypeProperty@odata.type": "Edm.Guid",
            "GuidTypeProperty": "0d391d16-97f1-4b9a-be68-4cc871f90013",
            "BinaryTypeProperty@odata.type": "Edm.Binary",
            "BinaryTypeProperty": "AQIDBAU=",
            "Int64TypeProperty@odata.type": "Edm.Int64",
            "Int64TypeProperty": "13",
            "DoubleTypeProperty": 13,
            "IntTypeProperty": 13,
            "PartitionKey": "somPartition",
            "RowKey": "13",
            "Timestamp@odata.type": "Edm.DateTime",
            "Timestamp": "2020-07-27T17:39:13.7362952Z"
          },
          {
            "odata.etag": "W/\u0022datetime\u00272020-07-27T17%3A39%3A13.7938440Z\u0027\u0022",
            "StringTypeProperty": "This is table entity number 14",
            "DatetimeTypeProperty@odata.type": "Edm.DateTime",
            "DatetimeTypeProperty": "2020-01-01T01:15:00.0000000Z",
            "DatetimeOffsetTypeProperty@odata.type": "Edm.DateTime",
            "DatetimeOffsetTypeProperty": "2020-01-01T01:15:00.0000000Z",
            "GuidTypeProperty@odata.type": "Edm.Guid",
            "GuidTypeProperty": "0d391d16-97f1-4b9a-be68-4cc871f90014",
            "BinaryTypeProperty@odata.type": "Edm.Binary",
            "BinaryTypeProperty": "AQIDBAU=",
            "Int64TypeProperty@odata.type": "Edm.Int64",
            "Int64TypeProperty": "14",
            "DoubleTypeProperty": 14,
            "IntTypeProperty": 14,
            "PartitionKey": "somPartition",
            "RowKey": "14",
            "Timestamp@odata.type": "Edm.DateTime",
            "Timestamp": "2020-07-27T17:39:13.7938440Z"
          },
          {
            "odata.etag": "W/\u0022datetime\u00272020-07-27T17%3A39%3A13.8487304Z\u0027\u0022",
            "StringTypeProperty": "This is table entity number 15",
            "DatetimeTypeProperty@odata.type": "Edm.DateTime",
            "DatetimeTypeProperty": "2020-01-01T01:16:00.0000000Z",
            "DatetimeOffsetTypeProperty@odata.type": "Edm.DateTime",
            "DatetimeOffsetTypeProperty": "2020-01-01T01:16:00.0000000Z",
            "GuidTypeProperty@odata.type": "Edm.Guid",
            "GuidTypeProperty": "0d391d16-97f1-4b9a-be68-4cc871f90015",
            "BinaryTypeProperty@odata.type": "Edm.Binary",
            "BinaryTypeProperty": "AQIDBAU=",
            "Int64TypeProperty@odata.type": "Edm.Int64",
            "Int64TypeProperty": "15",
            "DoubleTypeProperty": 15,
            "IntTypeProperty": 15,
            "PartitionKey": "somPartition",
            "RowKey": "15",
            "Timestamp@odata.type": "Edm.DateTime",
            "Timestamp": "2020-07-27T17:39:13.8487304Z"
          },
          {
            "odata.etag": "W/\u0022datetime\u00272020-07-27T17%3A39%3A13.9032072Z\u0027\u0022",
            "StringTypeProperty": "This is table entity number 16",
            "DatetimeTypeProperty@odata.type": "Edm.DateTime",
            "DatetimeTypeProperty": "2020-01-01T01:17:00.0000000Z",
            "DatetimeOffsetTypeProperty@odata.type": "Edm.DateTime",
            "DatetimeOffsetTypeProperty": "2020-01-01T01:17:00.0000000Z",
            "GuidTypeProperty@odata.type": "Edm.Guid",
            "GuidTypeProperty": "0d391d16-97f1-4b9a-be68-4cc871f90016",
            "BinaryTypeProperty@odata.type": "Edm.Binary",
            "BinaryTypeProperty": "AQIDBAU=",
            "Int64TypeProperty@odata.type": "Edm.Int64",
            "Int64TypeProperty": "16",
            "DoubleTypeProperty": 16,
            "IntTypeProperty": 16,
            "PartitionKey": "somPartition",
            "RowKey": "16",
            "Timestamp@odata.type": "Edm.DateTime",
            "Timestamp": "2020-07-27T17:39:13.9032072Z"
          },
          {
            "odata.etag": "W/\u0022datetime\u00272020-07-27T17%3A39%3A13.9664904Z\u0027\u0022",
            "StringTypeProperty": "This is table entity number 17",
            "DatetimeTypeProperty@odata.type": "Edm.DateTime",
            "DatetimeTypeProperty": "2020-01-01T01:18:00.0000000Z",
            "DatetimeOffsetTypeProperty@odata.type": "Edm.DateTime",
            "DatetimeOffsetTypeProperty": "2020-01-01T01:18:00.0000000Z",
            "GuidTypeProperty@odata.type": "Edm.Guid",
            "GuidTypeProperty": "0d391d16-97f1-4b9a-be68-4cc871f90017",
            "BinaryTypeProperty@odata.type": "Edm.Binary",
            "BinaryTypeProperty": "AQIDBAU=",
            "Int64TypeProperty@odata.type": "Edm.Int64",
            "Int64TypeProperty": "17",
            "DoubleTypeProperty": 17,
            "IntTypeProperty": 17,
            "PartitionKey": "somPartition",
            "RowKey": "17",
            "Timestamp@odata.type": "Edm.DateTime",
            "Timestamp": "2020-07-27T17:39:13.9664904Z"
          },
          {
            "odata.etag": "W/\u0022datetime\u00272020-07-27T17%3A39%3A14.0240392Z\u0027\u0022",
            "StringTypeProperty": "This is table entity number 18",
            "DatetimeTypeProperty@odata.type": "Edm.DateTime",
            "DatetimeTypeProperty": "2020-01-01T01:19:00.0000000Z",
            "DatetimeOffsetTypeProperty@odata.type": "Edm.DateTime",
            "DatetimeOffsetTypeProperty": "2020-01-01T01:19:00.0000000Z",
            "GuidTypeProperty@odata.type": "Edm.Guid",
            "GuidTypeProperty": "0d391d16-97f1-4b9a-be68-4cc871f90018",
            "BinaryTypeProperty@odata.type": "Edm.Binary",
            "BinaryTypeProperty": "AQIDBAU=",
            "Int64TypeProperty@odata.type": "Edm.Int64",
            "Int64TypeProperty": "18",
            "DoubleTypeProperty": 18,
            "IntTypeProperty": 18,
            "PartitionKey": "somPartition",
            "RowKey": "18",
            "Timestamp@odata.type": "Edm.DateTime",
            "Timestamp": "2020-07-27T17:39:14.0240392Z"
          },
          {
            "odata.etag": "W/\u0022datetime\u00272020-07-27T17%3A39%3A14.0736008Z\u0027\u0022",
            "StringTypeProperty": "This is table entity number 19",
            "DatetimeTypeProperty@odata.type": "Edm.DateTime",
            "DatetimeTypeProperty": "2020-01-01T01:20:00.0000000Z",
            "DatetimeOffsetTypeProperty@odata.type": "Edm.DateTime",
            "DatetimeOffsetTypeProperty": "2020-01-01T01:20:00.0000000Z",
            "GuidTypeProperty@odata.type": "Edm.Guid",
            "GuidTypeProperty": "0d391d16-97f1-4b9a-be68-4cc871f90019",
            "BinaryTypeProperty@odata.type": "Edm.Binary",
            "BinaryTypeProperty": "AQIDBAU=",
            "Int64TypeProperty@odata.type": "Edm.Int64",
            "Int64TypeProperty": "19",
            "DoubleTypeProperty": 19,
            "IntTypeProperty": 19,
            "PartitionKey": "somPartition",
            "RowKey": "19",
            "Timestamp@odata.type": "Edm.DateTime",
            "Timestamp": "2020-07-27T17:39:14.0736008Z"
          },
          {
            "odata.etag": "W/\u0022datetime\u00272020-07-27T17%3A39%3A14.1299208Z\u0027\u0022",
            "StringTypeProperty": "This is table entity number 20",
            "DatetimeTypeProperty@odata.type": "Edm.DateTime",
            "DatetimeTypeProperty": "2020-01-01T01:21:00.0000000Z",
            "DatetimeOffsetTypeProperty@odata.type": "Edm.DateTime",
            "DatetimeOffsetTypeProperty": "2020-01-01T01:21:00.0000000Z",
            "GuidTypeProperty@odata.type": "Edm.Guid",
            "GuidTypeProperty": "0d391d16-97f1-4b9a-be68-4cc871f90020",
            "BinaryTypeProperty@odata.type": "Edm.Binary",
            "BinaryTypeProperty": "AQIDBAU=",
            "Int64TypeProperty@odata.type": "Edm.Int64",
            "Int64TypeProperty": "20",
            "DoubleTypeProperty": 20,
            "IntTypeProperty": 20,
            "PartitionKey": "somPartition",
            "RowKey": "20",
            "Timestamp@odata.type": "Edm.DateTime",
            "Timestamp": "2020-07-27T17:39:14.1299208Z"
          }
        ]
      }
    },
    {
      "RequestUri": "https://allkimprim.table.cosmos.azure.com/Tables(\u0027testtablefz13i0rq\u0027)",
      "RequestMethod": "DELETE",
      "RequestHeaders": {
        "Accept": "application/json",
        "Authorization": "Sanitized",
        "traceparent": "00-3e256e6bd5cf924c89b9fc185f945c78-71f60df1d0ad1349-00",
        "User-Agent": [
          "azsdk-net-Data.Tables/1.0.0-dev.20200724.1",
          "(.NET Core 4.6.29017.01; Microsoft Windows 10.0.19041 )"
        ],
        "x-ms-client-request-id": "78e38704ee8482404131535f0c6069ee",
        "x-ms-date": "Mon, 27 Jul 2020 17:39:14 GMT",
        "x-ms-return-client-request-id": "true",
        "x-ms-version": "2019-02-02"
      },
      "RequestBody": null,
      "StatusCode": 204,
      "ResponseHeaders": {
        "Content-Length": "0",
        "Date": "Mon, 27 Jul 2020 17:39:14 GMT",
        "Server": "Microsoft-HTTPAPI/2.0",
        "x-ms-request-id": "78e38704-ee84-8240-4131-535f0c6069ee"
      },
      "ResponseBody": []
    }
  ],
  "Variables": {
    "RandomSeed": "1757810241",
    "TABLES_COSMOS_ACCOUNT_NAME": "allkimprim",
    "TABLES_PRIMARY_COSMOS_ACCOUNT_KEY": ""
  }
}