{
  "Entries": [
    {
      "RequestUri": "https://allkimprim.table.cosmos.azure.com/Tables?$format=application%2Fjson%3Bodata%3Dfullmetadata",
      "RequestMethod": "POST",
      "RequestHeaders": {
        "Accept": "application/json",
        "Authorization": "Sanitized",
        "Content-Length": "33",
        "Content-Type": "application/json; odata=nometadata",
        "DataServiceVersion": "3.0",
        "traceparent": "00-188f9814f9cb9845ab7f583bfe4c70e1-36eef46125d4a545-00",
        "User-Agent": [
          "azsdk-net-Data.Tables/1.0.0-dev.20200729.1",
          "(.NET Core 4.6.29017.01; Microsoft Windows 10.0.19041 )"
        ],
        "x-ms-client-request-id": "783350ffccaf61e08c80b1cb89f98ace",
        "x-ms-date": "Wed, 29 Jul 2020 23:38:12 GMT",
        "x-ms-return-client-request-id": "true",
        "x-ms-version": "2019-02-02"
      },
      "RequestBody": {
        "TableName": "testtable0fgn8vp6"
      },
      "StatusCode": 201,
      "ResponseHeaders": {
        "Content-Type": "application/json",
        "Date": "Wed, 29 Jul 2020 23:38:10 GMT",
        "ETag": "W/\u0022datetime\u00272020-07-29T23%3A38%3A10.3828488Z\u0027\u0022",
        "Location": "https://allkimprim.table.cosmos.azure.com/Tables(\u0027testtable0fgn8vp6\u0027)",
        "Server": "Microsoft-HTTPAPI/2.0",
        "Transfer-Encoding": "chunked",
        "x-ms-request-id": "783350ff-ccaf-61e0-8c80-b1cb89f98ace"
      },
      "ResponseBody": {
        "TableName": "testtable0fgn8vp6",
        "odata.metadata": "https://allkimprim.table.cosmos.azure.com/$metadata#Tables/@Element"
      }
    },
    {
      "RequestUri": "https://allkimprim.table.cosmos.azure.com/testtable0fgn8vp6(PartitionKey=\u0027somPartition\u0027,RowKey=\u00271\u0027)?$format=application%2Fjson%3Bodata%3Dfullmetadata",
      "RequestMethod": "PUT",
      "RequestHeaders": {
        "Accept": "application/json",
        "Authorization": "Sanitized",
        "Content-Length": "117",
        "Content-Type": "application/json",
        "DataServiceVersion": "3.0",
        "traceparent": "00-09f396674562604182669bb522946d89-451572fc20695948-00",
        "User-Agent": [
          "azsdk-net-Data.Tables/1.0.0-dev.20200729.1",
          "(.NET Core 4.6.29017.01; Microsoft Windows 10.0.19041 )"
        ],
        "x-ms-client-request-id": "075ff7da4b2d5a33e24011d8ad8a18c7",
        "x-ms-date": "Wed, 29 Jul 2020 23:38:13 GMT",
        "x-ms-return-client-request-id": "true",
        "x-ms-version": "2019-02-02"
      },
      "RequestBody": {
        "StringTypeProperty": "This is the original",
        "PartitionKey": "somPartition",
        "RowKey": "1",
        "Timestamp": null,
        "ETag": null
      },
      "StatusCode": 204,
      "ResponseHeaders": {
        "Content-Length": "0",
        "Content-Type": "application/json",
        "Date": "Wed, 29 Jul 2020 23:38:10 GMT",
        "ETag": "W/\u0022datetime\u00272020-07-29T23%3A38%3A10.8829704Z\u0027\u0022",
        "Server": "Microsoft-HTTPAPI/2.0",
        "x-ms-request-id": "075ff7da-4b2d-5a33-e240-11d8ad8a18c7"
      },
      "ResponseBody": []
    },
    {
      "RequestUri": "https://allkimprim.table.cosmos.azure.com/testtable0fgn8vp6()?$format=application%2Fjson%3Bodata%3Dfullmetadata\u0026$filter=PartitionKey%20eq%20%27somPartition%27%20and%20RowKey%20eq%20%271%27",
      "RequestMethod": "GET",
      "RequestHeaders": {
        "Accept": "application/json",
        "Authorization": "Sanitized",
        "DataServiceVersion": "3.0",
        "User-Agent": [
          "azsdk-net-Data.Tables/1.0.0-dev.20200729.1",
          "(.NET Core 4.6.29017.01; Microsoft Windows 10.0.19041 )"
        ],
        "x-ms-client-request-id": "2a7e8b10e0a8662c7df310be7fb0198e",
        "x-ms-date": "Wed, 29 Jul 2020 23:38:13 GMT",
        "x-ms-return-client-request-id": "true",
        "x-ms-version": "2019-02-02"
      },
      "RequestBody": null,
      "StatusCode": 200,
      "ResponseHeaders": {
        "Content-Type": "application/json",
        "Date": "Wed, 29 Jul 2020 23:38:10 GMT",
        "Server": "Microsoft-HTTPAPI/2.0",
        "Transfer-Encoding": "chunked",
        "x-ms-request-id": "2a7e8b10-e0a8-662c-7df3-10be7fb0198e"
      },
      "ResponseBody": {
        "value": [
          {
            "odata.etag": "W/\u0022datetime\u00272020-07-29T23%3A38%3A10.8829704Z\u0027\u0022",
            "PartitionKey": "somPartition",
            "RowKey": "1",
            "StringTypeProperty": "This is the original",
            "Timestamp@odata.type": "Edm.DateTime",
            "Timestamp": "2020-07-29T23:38:10.8829704Z"
          }
        ]
      }
    },
    {
      "RequestUri": "https://allkimprim.table.cosmos.azure.com/testtable0fgn8vp6(PartitionKey=\u0027somPartition\u0027,RowKey=\u00271\u0027)?$format=application%2Fjson%3Bodata%3Dfullmetadata",
      "RequestMethod": "DELETE",
      "RequestHeaders": {
        "Authorization": "Sanitized",
        "DataServiceVersion": "3.0",
        "If-Match": "*",
        "traceparent": "00-d55b48d48a4a4e43b58d2275dc111b31-f4e75d56235e1148-00",
        "User-Agent": [
          "azsdk-net-Data.Tables/1.0.0-dev.20200729.1",
          "(.NET Core 4.6.29017.01; Microsoft Windows 10.0.19041 )"
        ],
        "x-ms-client-request-id": "8fe1dd350b1505d2001ecd8bce89def5",
        "x-ms-date": "Wed, 29 Jul 2020 23:38:13 GMT",
        "x-ms-return-client-request-id": "true",
        "x-ms-version": "2019-02-02"
      },
      "RequestBody": null,
      "StatusCode": 204,
      "ResponseHeaders": {
        "Content-Length": "0",
        "Date": "Wed, 29 Jul 2020 23:38:10 GMT",
        "Server": "Microsoft-HTTPAPI/2.0",
        "x-ms-request-id": "8fe1dd35-0b15-05d2-001e-cd8bce89def5"
      },
      "ResponseBody": []
    },
    {
      "RequestUri": "https://allkimprim.table.cosmos.azure.com/testtable0fgn8vp6()?$format=application%2Fjson%3Bodata%3Dfullmetadata\u0026$filter=PartitionKey%20eq%20%27somPartition%27%20and%20RowKey%20eq%20%271%27",
      "RequestMethod": "GET",
      "RequestHeaders": {
        "Accept": "application/json",
        "Authorization": "Sanitized",
        "DataServiceVersion": "3.0",
        "User-Agent": [
          "azsdk-net-Data.Tables/1.0.0-dev.20200729.1",
          "(.NET Core 4.6.29017.01; Microsoft Windows 10.0.19041 )"
        ],
        "x-ms-client-request-id": "6d790398a30cfa66caf889393b74db32",
        "x-ms-date": "Wed, 29 Jul 2020 23:38:13 GMT",
        "x-ms-return-client-request-id": "true",
        "x-ms-version": "2019-02-02"
      },
      "RequestBody": null,
      "StatusCode": 200,
      "ResponseHeaders": {
        "Content-Type": "application/json",
        "Date": "Wed, 29 Jul 2020 23:38:10 GMT",
        "Server": "Microsoft-HTTPAPI/2.0",
        "Transfer-Encoding": "chunked",
        "x-ms-request-id": "6d790398-a30c-fa66-caf8-89393b74db32"
      },
      "ResponseBody": {
        "value": []
      }
    },
    {
      "RequestUri": "https://allkimprim.table.cosmos.azure.com/testtable0fgn8vp6(PartitionKey=\u0027somPartition\u0027,RowKey=\u00271\u0027)?$format=application%2Fjson%3Bodata%3Dfullmetadata",
      "RequestMethod": "PUT",
      "RequestHeaders": {
        "Accept": "application/json",
        "Authorization": "Sanitized",
        "Content-Length": "117",
        "Content-Type": "application/json",
        "DataServiceVersion": "3.0",
        "traceparent": "00-f43d555e3d4a7d46836a0f27622bd5d4-f4e0855b09b5594d-00",
        "User-Agent": [
          "azsdk-net-Data.Tables/1.0.0-dev.20200729.1",
          "(.NET Core 4.6.29017.01; Microsoft Windows 10.0.19041 )"
        ],
        "x-ms-client-request-id": "d0a2832788a805b1b9782a8913a098f4",
        "x-ms-date": "Wed, 29 Jul 2020 23:38:13 GMT",
        "x-ms-return-client-request-id": "true",
        "x-ms-version": "2019-02-02"
      },
      "RequestBody": {
        "StringTypeProperty": "This is the original",
        "PartitionKey": "somPartition",
        "RowKey": "1",
        "Timestamp": null,
        "ETag": null
      },
      "StatusCode": 204,
      "ResponseHeaders": {
        "Content-Length": "0",
        "Content-Type": "application/json",
        "Date": "Wed, 29 Jul 2020 23:38:10 GMT",
        "ETag": "W/\u0022datetime\u00272020-07-29T23%3A38%3A11.1575048Z\u0027\u0022",
        "Server": "Microsoft-HTTPAPI/2.0",
        "x-ms-request-id": "d0a28327-88a8-05b1-b978-2a8913a098f4"
      },
      "ResponseBody": []
    },
    {
      "RequestUri": "https://allkimprim.table.cosmos.azure.com/testtable0fgn8vp6()?$format=application%2Fjson%3Bodata%3Dfullmetadata\u0026$filter=PartitionKey%20eq%20%27somPartition%27%20and%20RowKey%20eq%20%271%27",
      "RequestMethod": "GET",
      "RequestHeaders": {
        "Accept": "application/json",
        "Authorization": "Sanitized",
        "DataServiceVersion": "3.0",
        "User-Agent": [
          "azsdk-net-Data.Tables/1.0.0-dev.20200729.1",
          "(.NET Core 4.6.29017.01; Microsoft Windows 10.0.19041 )"
        ],
        "x-ms-client-request-id": "7b251a15ab37928176e7c41c8198ca8b",
        "x-ms-date": "Wed, 29 Jul 2020 23:38:13 GMT",
        "x-ms-return-client-request-id": "true",
        "x-ms-version": "2019-02-02"
      },
      "RequestBody": null,
      "StatusCode": 200,
      "ResponseHeaders": {
        "Content-Type": "application/json",
        "Date": "Wed, 29 Jul 2020 23:38:10 GMT",
        "Server": "Microsoft-HTTPAPI/2.0",
        "Transfer-Encoding": "chunked",
        "x-ms-request-id": "7b251a15-ab37-9281-76e7-c41c8198ca8b"
      },
      "ResponseBody": {
        "value": [
          {
            "odata.etag": "W/\u0022datetime\u00272020-07-29T23%3A38%3A11.1575048Z\u0027\u0022",
            "PartitionKey": "somPartition",
            "RowKey": "1",
            "StringTypeProperty": "This is the original",
            "Timestamp@odata.type": "Edm.DateTime",
            "Timestamp": "2020-07-29T23:38:11.1575048Z"
          }
        ]
      }
    },
    {
      "RequestUri": "https://allkimprim.table.cosmos.azure.com/testtable0fgn8vp6(PartitionKey=\u0027somPartition\u0027,RowKey=\u00271\u0027)?$format=application%2Fjson%3Bodata%3Dfullmetadata",
      "RequestMethod": "DELETE",
      "RequestHeaders": {
        "Authorization": "Sanitized",
        "DataServiceVersion": "3.0",
        "If-Match": "W/\u0022datetime\u00272020-07-29T23%3A38%3A10.8829704Z\u0027\u0022",
        "traceparent": "00-8a9ddd479304394193c4ac6764ccc453-b00b9ec7abd2424d-00",
        "User-Agent": [
          "azsdk-net-Data.Tables/1.0.0-dev.20200729.1",
          "(.NET Core 4.6.29017.01; Microsoft Windows 10.0.19041 )"
        ],
        "x-ms-client-request-id": "4a649a430de7104d5274b49478dce72a",
        "x-ms-date": "Wed, 29 Jul 2020 23:38:13 GMT",
        "x-ms-return-client-request-id": "true",
        "x-ms-version": "2019-02-02"
      },
      "RequestBody": null,
      "StatusCode": 412,
      "ResponseHeaders": {
        "Content-Type": "application/json; odata=fullmetadata",
        "Date": "Wed, 29 Jul 2020 23:38:10 GMT",
        "Server": "Microsoft-HTTPAPI/2.0",
        "Transfer-Encoding": "chunked",
        "x-ms-request-id": "4a649a43-0de7-104d-5274-b49478dce72a"
      },
      "ResponseBody": [
        "{\u0022odata.error\u0022:{\u0022code\u0022:\u0022UpdateConditionNotSatisfied\u0022,\u0022message\u0022:{\u0022lang\u0022:\u0022en-us\u0022,\u0022value\u0022:\u0022The update condition specified in the request was not satisfied.\\nRequestID:4a649a43-0de7-104d-5274-b49478dce72a\\n\u0022}}}\r\n"
      ]
    },
    {
      "RequestUri": "https://allkimprim.table.cosmos.azure.com/testtable0fgn8vp6(PartitionKey=\u0027somPartition\u0027,RowKey=\u00271\u0027)?$format=application%2Fjson%3Bodata%3Dfullmetadata",
      "RequestMethod": "DELETE",
      "RequestHeaders": {
        "Authorization": "Sanitized",
        "DataServiceVersion": "3.0",
        "If-Match": "W/\u0022datetime\u00272020-07-29T23%3A38%3A11.1575048Z\u0027\u0022",
        "traceparent": "00-266c4a643d7a664788eb7ef5e9ed6be0-d5bf7b08f2ed8f4f-00",
        "User-Agent": [
          "azsdk-net-Data.Tables/1.0.0-dev.20200729.1",
          "(.NET Core 4.6.29017.01; Microsoft Windows 10.0.19041 )"
        ],
        "x-ms-client-request-id": "202495605f4e7bfb010f59c1c3948320",
        "x-ms-date": "Wed, 29 Jul 2020 23:38:13 GMT",
        "x-ms-return-client-request-id": "true",
        "x-ms-version": "2019-02-02"
      },
      "RequestBody": null,
      "StatusCode": 204,
      "ResponseHeaders": {
        "Content-Length": "0",
        "Date": "Wed, 29 Jul 2020 23:38:10 GMT",
        "Server": "Microsoft-HTTPAPI/2.0",
        "x-ms-request-id": "20249560-5f4e-7bfb-010f-59c1c3948320"
      },
      "ResponseBody": []
    },
    {
      "RequestUri": "https://allkimprim.table.cosmos.azure.com/testtable0fgn8vp6()?$format=application%2Fjson%3Bodata%3Dfullmetadata\u0026$filter=PartitionKey%20eq%20%27somPartition%27%20and%20RowKey%20eq%20%271%27",
      "RequestMethod": "GET",
      "RequestHeaders": {
        "Accept": "application/json",
        "Authorization": "Sanitized",
        "DataServiceVersion": "3.0",
        "User-Agent": [
          "azsdk-net-Data.Tables/1.0.0-dev.20200729.1",
          "(.NET Core 4.6.29017.01; Microsoft Windows 10.0.19041 )"
        ],
        "x-ms-client-request-id": "78469fae4d3c070ccd1529c3f6ed199a",
        "x-ms-date": "Wed, 29 Jul 2020 23:38:14 GMT",
        "x-ms-return-client-request-id": "true",
        "x-ms-version": "2019-02-02"
      },
      "RequestBody": null,
      "StatusCode": 200,
      "ResponseHeaders": {
        "Content-Type": "application/json",
        "Date": "Wed, 29 Jul 2020 23:38:10 GMT",
        "Server": "Microsoft-HTTPAPI/2.0",
        "Transfer-Encoding": "chunked",
        "x-ms-request-id": "78469fae-4d3c-070c-cd15-29c3f6ed199a"
      },
      "ResponseBody": {
        "value": []
      }
    },
    {
      "RequestUri": "https://allkimprim.table.cosmos.azure.com/Tables(\u0027testtable0fgn8vp6\u0027)",
      "RequestMethod": "DELETE",
      "RequestHeaders": {
        "Accept": "application/json",
        "Authorization": "Sanitized",
        "traceparent": "00-745da11243f2d648b36652b726a9e2ce-b9f4b7c98850b44c-00",
        "User-Agent": [
          "azsdk-net-Data.Tables/1.0.0-dev.20200729.1",
          "(.NET Core 4.6.29017.01; Microsoft Windows 10.0.19041 )"
        ],
        "x-ms-client-request-id": "ecbc9affa974e33d9fe848d7b48c4cbd",
        "x-ms-date": "Wed, 29 Jul 2020 23:38:14 GMT",
        "x-ms-return-client-request-id": "true",
        "x-ms-version": "2019-02-02"
      },
      "RequestBody": null,
      "StatusCode": 204,
      "ResponseHeaders": {
        "Content-Length": "0",
        "Date": "Wed, 29 Jul 2020 23:38:10 GMT",
        "Server": "Microsoft-HTTPAPI/2.0",
        "x-ms-request-id": "ecbc9aff-a974-e33d-9fe8-48d7b48c4cbd"
      },
      "ResponseBody": []
    }
  ],
  "Variables": {
    "RandomSeed": "1401263668",
    "TABLES_COSMOS_ACCOUNT_NAME": "allkimprim",
    "TABLES_PRIMARY_COSMOS_ACCOUNT_KEY": ""
  }
}