{
  "Entries": [
    {
      "RequestUri": "https://allkimprim.table.cosmos.azure.com/Tables?$format=application%2Fjson%3Bodata%3Dfullmetadata",
      "RequestMethod": "POST",
      "RequestHeaders": {
        "Accept": "application/json",
        "Authorization": "Sanitized",
        "Content-Length": "33",
        "Content-Type": "application/json; odata=nometadata",
        "DataServiceVersion": "3.0",
        "traceparent": "00-c4d3ddc9856e604c973a400482b07649-2cb66eec0a59c140-00",
        "User-Agent": [
          "azsdk-net-Data.Tables/1.0.0-dev.20200724.1",
          "(.NET Core 4.6.29017.01; Microsoft Windows 10.0.19041 )"
        ],
        "x-ms-client-request-id": "27ffcee854e6debf59fe6bd9efe2b12b",
        "x-ms-date": "Mon, 27 Jul 2020 17:39:44 GMT",
        "x-ms-return-client-request-id": "true",
        "x-ms-version": "2019-02-02"
      },
      "RequestBody": {
        "TableName": "testtableusyze6ui"
      },
      "StatusCode": 201,
      "ResponseHeaders": {
        "Content-Type": "application/json",
        "Date": "Mon, 27 Jul 2020 17:39:44 GMT",
        "ETag": "W/\u0022datetime\u00272020-07-27T17%3A39%3A44.4637704Z\u0027\u0022",
        "Location": "https://allkimprim.table.cosmos.azure.com/Tables(\u0027testtableusyze6ui\u0027)",
        "Server": "Microsoft-HTTPAPI/2.0",
        "Transfer-Encoding": "chunked",
        "x-ms-request-id": "27ffcee8-54e6-debf-59fe-6bd9efe2b12b"
      },
      "ResponseBody": {
        "TableName": "testtableusyze6ui",
        "odata.metadata": "https://allkimprim.table.cosmos.azure.com/$metadata#Tables/@Element"
      }
    },
    {
      "RequestUri": "https://allkimprim.table.cosmos.azure.com/Tables(\u0027testtableusyze6ui\u0027)",
      "RequestMethod": "DELETE",
      "RequestHeaders": {
        "Accept": "application/json",
        "Authorization": "Sanitized",
        "traceparent": "00-944f39c710cd594695a741567bc84be8-9e19e6983393e34c-00",
        "User-Agent": [
          "azsdk-net-Data.Tables/1.0.0-dev.20200724.1",
          "(.NET Core 4.6.29017.01; Microsoft Windows 10.0.19041 )"
        ],
        "x-ms-client-request-id": "9d6db67302409f141b2b79472bb2cdb9",
        "x-ms-date": "Mon, 27 Jul 2020 17:39:44 GMT",
        "x-ms-return-client-request-id": "true",
        "x-ms-version": "2019-02-02"
      },
      "RequestBody": null,
      "StatusCode": 204,
      "ResponseHeaders": {
        "Content-Length": "0",
        "Date": "Mon, 27 Jul 2020 17:39:44 GMT",
        "Server": "Microsoft-HTTPAPI/2.0",
        "x-ms-request-id": "9d6db673-0240-9f14-1b2b-79472bb2cdb9"
      },
      "ResponseBody": []
    }
  ],
  "Variables": {
    "RandomSeed": "1363187159",
    "TABLES_COSMOS_ACCOUNT_NAME": "allkimprim",
    "TABLES_PRIMARY_COSMOS_ACCOUNT_KEY": ""
  }
}