{
  "Entries": [
    {
      "RequestUri": "https://allkimprim.table.cosmos.azure.com/Tables?$format=application%2Fjson%3Bodata%3Dfullmetadata",
      "RequestMethod": "POST",
      "RequestHeaders": {
        "Accept": "application/json",
        "Authorization": "Sanitized",
        "Content-Length": "33",
        "Content-Type": "application/json; odata=nometadata",
        "DataServiceVersion": "3.0",
        "traceparent": "00-9330aaf5ea413242b1a540feb4137ca1-570207f5a43a8449-00",
        "User-Agent": [
          "azsdk-net-Data.Tables/1.0.0-dev.20200728.1",
          "(.NET Core 4.6.29017.01; Microsoft Windows 10.0.19041 )"
        ],
        "x-ms-client-request-id": "48e9fb32236c06fcf83fa42a1a490b17",
        "x-ms-date": "Tue, 28 Jul 2020 19:07:16 GMT",
        "x-ms-return-client-request-id": "true",
        "x-ms-version": "2019-02-02"
      },
      "RequestBody": {
        "TableName": "testtablezfarwh1l"
      },
      "StatusCode": 201,
      "ResponseHeaders": {
        "Content-Type": "application/json",
        "Date": "Tue, 28 Jul 2020 19:07:15 GMT",
        "ETag": "W/\u0022datetime\u00272020-07-28T19%3A07%3A14.6491912Z\u0027\u0022",
        "Location": "https://allkimprim.table.cosmos.azure.com/Tables(\u0027testtablezfarwh1l\u0027)",
        "Server": "Microsoft-HTTPAPI/2.0",
        "Transfer-Encoding": "chunked",
        "x-ms-request-id": "48e9fb32-236c-06fc-f83f-a42a1a490b17"
      },
      "ResponseBody": {
        "TableName": "testtablezfarwh1l",
        "odata.metadata": "https://allkimprim.table.cosmos.azure.com/$metadata#Tables/@Element"
      }
    },
    {
      "RequestUri": "https://allkimprim.table.cosmos.azure.com/Tables?$format=application%2Fjson%3Bodata%3Dfullmetadata",
      "RequestMethod": "POST",
      "RequestHeaders": {
        "Accept": "application/json",
        "Authorization": "Sanitized",
        "Content-Length": "33",
        "Content-Type": "application/json; odata=nometadata",
        "DataServiceVersion": "3.0",
        "traceparent": "00-1281ed01a3c565419c08b8c084cfd6e4-04612340a4ac774a-00",
        "User-Agent": [
          "azsdk-net-Data.Tables/1.0.0-dev.20200728.1",
          "(.NET Core 4.6.29017.01; Microsoft Windows 10.0.19041 )"
        ],
        "x-ms-client-request-id": "515aa3afa30f48d9ed1ad44aae06e537",
        "x-ms-date": "Tue, 28 Jul 2020 19:07:17 GMT",
        "x-ms-return-client-request-id": "true",
        "x-ms-version": "2019-02-02"
      },
      "RequestBody": {
        "TableName": "testtableqmmjal2e"
      },
      "StatusCode": 201,
      "ResponseHeaders": {
        "Content-Type": "application/json",
        "Date": "Tue, 28 Jul 2020 19:07:15 GMT",
        "ETag": "W/\u0022datetime\u00272020-07-28T19%3A07%3A15.3241096Z\u0027\u0022",
        "Location": "https://allkimprim.table.cosmos.azure.com/Tables(\u0027testtableqmmjal2e\u0027)",
        "Server": "Microsoft-HTTPAPI/2.0",
        "Transfer-Encoding": "chunked",
        "x-ms-request-id": "515aa3af-a30f-48d9-ed1a-d44aae06e537"
      },
      "ResponseBody": {
        "TableName": "testtableqmmjal2e",
        "odata.metadata": "https://allkimprim.table.cosmos.azure.com/$metadata#Tables/@Element"
      }
    },
    {
      "RequestUri": "https://allkimprim.table.cosmos.azure.com/Tables?$format=application%2Fjson%3Bodata%3Dfullmetadata\u0026$filter=TableName%20eq%20%27testtableqmmjal2e%27",
      "RequestMethod": "GET",
      "RequestHeaders": {
        "Accept": "application/json",
        "Authorization": "Sanitized",
        "DataServiceVersion": "3.0",
        "User-Agent": [
          "azsdk-net-Data.Tables/1.0.0-dev.20200728.1",
          "(.NET Core 4.6.29017.01; Microsoft Windows 10.0.19041 )"
        ],
        "x-ms-client-request-id": "3672a31274a78a1c7e4357dc2d7b95c6",
        "x-ms-date": "Tue, 28 Jul 2020 19:07:17 GMT",
        "x-ms-return-client-request-id": "true",
        "x-ms-version": "2019-02-02"
      },
      "RequestBody": null,
      "StatusCode": 200,
      "ResponseHeaders": {
        "Content-Type": "application/json",
        "Date": "Tue, 28 Jul 2020 19:07:15 GMT",
        "Server": "Microsoft-HTTPAPI/2.0",
        "Transfer-Encoding": "chunked",
        "x-ms-request-id": "3672a312-74a7-8a1c-7e43-57dc2d7b95c6"
      },
      "ResponseBody": {
        "value": [
          {
            "TableName": "testtableqmmjal2e"
          }
        ]
      }
    },
    {
      "RequestUri": "https://allkimprim.table.cosmos.azure.com/Tables(\u0027testtableqmmjal2e\u0027)",
      "RequestMethod": "DELETE",
      "RequestHeaders": {
        "Accept": "application/json",
        "Authorization": "Sanitized",
        "traceparent": "00-c37b452000afc9409bb11fd853a5c578-3390532b2f098848-00",
        "User-Agent": [
          "azsdk-net-Data.Tables/1.0.0-dev.20200728.1",
          "(.NET Core 4.6.29017.01; Microsoft Windows 10.0.19041 )"
        ],
        "x-ms-client-request-id": "c998d84eaac854f6655c3cff75c069fe",
        "x-ms-date": "Tue, 28 Jul 2020 19:07:17 GMT",
        "x-ms-return-client-request-id": "true",
        "x-ms-version": "2019-02-02"
      },
      "RequestBody": null,
      "StatusCode": 204,
      "ResponseHeaders": {
        "Content-Length": "0",
        "Date": "Tue, 28 Jul 2020 19:07:16 GMT",
        "Server": "Microsoft-HTTPAPI/2.0",
        "x-ms-request-id": "c998d84e-aac8-54f6-655c-3cff75c069fe"
      },
      "ResponseBody": []
    },
    {
      "RequestUri": "https://allkimprim.table.cosmos.azure.com/Tables?$format=application%2Fjson%3Bodata%3Dfullmetadata\u0026$filter=TableName%20eq%20%27testtableqmmjal2e%27",
      "RequestMethod": "GET",
      "RequestHeaders": {
        "Accept": "application/json",
        "Authorization": "Sanitized",
        "DataServiceVersion": "3.0",
        "User-Agent": [
          "azsdk-net-Data.Tables/1.0.0-dev.20200728.1",
          "(.NET Core 4.6.29017.01; Microsoft Windows 10.0.19041 )"
        ],
        "x-ms-client-request-id": "83d52d6075f83a6986d0d2cc4cfd1a72",
        "x-ms-date": "Tue, 28 Jul 2020 19:07:18 GMT",
        "x-ms-return-client-request-id": "true",
        "x-ms-version": "2019-02-02"
      },
      "RequestBody": null,
      "StatusCode": 200,
      "ResponseHeaders": {
        "Content-Type": "application/json",
        "Date": "Tue, 28 Jul 2020 19:07:16 GMT",
        "Server": "Microsoft-HTTPAPI/2.0",
        "Transfer-Encoding": "chunked",
        "x-ms-request-id": "83d52d60-75f8-3a69-86d0-d2cc4cfd1a72"
      },
      "ResponseBody": {
        "value": []
      }
    },
    {
      "RequestUri": "https://allkimprim.table.cosmos.azure.com/Tables(\u0027testtablezfarwh1l\u0027)",
      "RequestMethod": "DELETE",
      "RequestHeaders": {
        "Accept": "application/json",
        "Authorization": "Sanitized",
        "traceparent": "00-7718fb88b813a74194536f46124af19b-1ef6055c08f3ea41-00",
        "User-Agent": [
          "azsdk-net-Data.Tables/1.0.0-dev.20200728.1",
          "(.NET Core 4.6.29017.01; Microsoft Windows 10.0.19041 )"
        ],
        "x-ms-client-request-id": "d5fc0d851b6d686eac1ed14b381c15be",
        "x-ms-date": "Tue, 28 Jul 2020 19:07:18 GMT",
        "x-ms-return-client-request-id": "true",
        "x-ms-version": "2019-02-02"
      },
      "RequestBody": null,
      "StatusCode": 204,
      "ResponseHeaders": {
        "Content-Length": "0",
        "Date": "Tue, 28 Jul 2020 19:07:16 GMT",
        "Server": "Microsoft-HTTPAPI/2.0",
        "x-ms-request-id": "d5fc0d85-1b6d-686e-ac1e-d14b381c15be"
      },
      "ResponseBody": []
    }
  ],
  "Variables": {
    "RandomSeed": "1413939319",
    "TABLES_COSMOS_ACCOUNT_NAME": "allkimprim",
    "TABLES_PRIMARY_COSMOS_ACCOUNT_KEY": ""
  }
}