{
  "Entries": [
    {
      "RequestUri": "https://mariari-westus2-formrecognizer.cognitiveservices.azure.com/formrecognizer/v2.0/custom/models",
      "RequestMethod": "POST",
      "RequestHeaders": {
        "Content-Length": "42",
        "Content-Type": "application/json",
        "Ocp-Apim-Subscription-Key": "Sanitized",
        "traceparent": "00-e4228c9efb5ce544a7899d1c81f4a865-d4b08924c39fe14d-00",
        "User-Agent": [
          "azsdk-net-AI.FormRecognizer/3.0.0-dev.20200806.1",
          "(.NET Core 4.6.28516.03; Microsoft Windows 10.0.18363 )"
        ],
        "x-ms-client-request-id": "2a008264d5cebe5ce26e8b72e092feb9",
        "x-ms-return-client-request-id": "true"
      },
      "RequestBody": {
        "source": "Sanitized",
        "useLabelFile": true
      },
      "StatusCode": 201,
      "ResponseHeaders": {
        "apim-request-id": "d81d7d1c-f653-4cb0-8dfa-aa62dc9032c0",
        "Content-Length": "0",
        "Date": "Fri, 07 Aug 2020 02:22:44 GMT",
        "Location": "https://mariari-westus2-formrecognizer.cognitiveservices.azure.com/formrecognizer/v2.0/custom/models/0b0ddaea-ab76-42ae-b93e-2a5283461c31",
        "Strict-Transport-Security": "max-age=31536000; includeSubDomains; preload",
        "X-Content-Type-Options": "nosniff",
        "x-envoy-upstream-service-time": "162"
      },
      "ResponseBody": []
    },
    {
      "RequestUri": "https://mariari-westus2-formrecognizer.cognitiveservices.azure.com/formrecognizer/v2.0/custom/models/0b0ddaea-ab76-42ae-b93e-2a5283461c31?includeKeys=true",
      "RequestMethod": "GET",
      "RequestHeaders": {
        "Ocp-Apim-Subscription-Key": "Sanitized",
        "User-Agent": [
          "azsdk-net-AI.FormRecognizer/3.0.0-dev.20200806.1",
          "(.NET Core 4.6.28516.03; Microsoft Windows 10.0.18363 )"
        ],
        "x-ms-client-request-id": "3716e0df303555d41393a801f22da3a4",
        "x-ms-return-client-request-id": "true"
      },
      "RequestBody": null,
      "StatusCode": 200,
      "ResponseHeaders": {
        "apim-request-id": "bb43c667-76f3-4111-b1e0-3fef1599e259",
        "Content-Type": "application/json; charset=utf-8",
        "Date": "Fri, 07 Aug 2020 02:22:44 GMT",
        "Strict-Transport-Security": "max-age=31536000; includeSubDomains; preload",
        "Transfer-Encoding": "chunked",
        "X-Content-Type-Options": "nosniff",
        "x-envoy-upstream-service-time": "29"
      },
      "ResponseBody": {
        "modelInfo": {
          "modelId": "0b0ddaea-ab76-42ae-b93e-2a5283461c31",
          "status": "creating",
          "createdDateTime": "2020-08-07T02:22:40Z",
          "lastUpdatedDateTime": "2020-08-07T02:22:40Z"
        }
      }
    },
    {
      "RequestUri": "https://mariari-westus2-formrecognizer.cognitiveservices.azure.com/formrecognizer/v2.0/custom/models/0b0ddaea-ab76-42ae-b93e-2a5283461c31?includeKeys=true",
      "RequestMethod": "GET",
      "RequestHeaders": {
        "Ocp-Apim-Subscription-Key": "Sanitized",
        "User-Agent": [
          "azsdk-net-AI.FormRecognizer/3.0.0-dev.20200806.1",
          "(.NET Core 4.6.28516.03; Microsoft Windows 10.0.18363 )"
        ],
        "x-ms-client-request-id": "1f767da717bbbd5571c2ab3357acafdd",
        "x-ms-return-client-request-id": "true"
      },
      "RequestBody": null,
      "StatusCode": 200,
      "ResponseHeaders": {
        "apim-request-id": "d9539428-3414-40aa-b04f-ff495079c36d",
        "Content-Type": "application/json; charset=utf-8",
        "Date": "Fri, 07 Aug 2020 02:22:45 GMT",
        "Strict-Transport-Security": "max-age=31536000; includeSubDomains; preload",
        "Transfer-Encoding": "chunked",
        "X-Content-Type-Options": "nosniff",
        "x-envoy-upstream-service-time": "30"
      },
      "ResponseBody": {
        "modelInfo": {
          "modelId": "0b0ddaea-ab76-42ae-b93e-2a5283461c31",
          "status": "creating",
          "createdDateTime": "2020-08-07T02:22:40Z",
          "lastUpdatedDateTime": "2020-08-07T02:22:40Z"
        }
      }
    },
    {
      "RequestUri": "https://mariari-westus2-formrecognizer.cognitiveservices.azure.com/formrecognizer/v2.0/custom/models/0b0ddaea-ab76-42ae-b93e-2a5283461c31?includeKeys=true",
      "RequestMethod": "GET",
      "RequestHeaders": {
        "Ocp-Apim-Subscription-Key": "Sanitized",
        "User-Agent": [
          "azsdk-net-AI.FormRecognizer/3.0.0-dev.20200806.1",
          "(.NET Core 4.6.28516.03; Microsoft Windows 10.0.18363 )"
        ],
        "x-ms-client-request-id": "d3f3d4b0bcc13468adaa173a2c5bcbb5",
        "x-ms-return-client-request-id": "true"
      },
      "RequestBody": null,
      "StatusCode": 200,
      "ResponseHeaders": {
        "apim-request-id": "a7cd4bce-c28c-4329-954b-13b7011935c5",
        "Content-Type": "application/json; charset=utf-8",
        "Date": "Fri, 07 Aug 2020 02:22:46 GMT",
        "Strict-Transport-Security": "max-age=31536000; includeSubDomains; preload",
        "Transfer-Encoding": "chunked",
        "X-Content-Type-Options": "nosniff",
        "x-envoy-upstream-service-time": "27"
      },
      "ResponseBody": {
        "modelInfo": {
          "modelId": "0b0ddaea-ab76-42ae-b93e-2a5283461c31",
          "status": "creating",
          "createdDateTime": "2020-08-07T02:22:40Z",
          "lastUpdatedDateTime": "2020-08-07T02:22:40Z"
        }
      }
    },
    {
      "RequestUri": "https://mariari-westus2-formrecognizer.cognitiveservices.azure.com/formrecognizer/v2.0/custom/models/0b0ddaea-ab76-42ae-b93e-2a5283461c31?includeKeys=true",
      "RequestMethod": "GET",
      "RequestHeaders": {
        "Ocp-Apim-Subscription-Key": "Sanitized",
        "User-Agent": [
          "azsdk-net-AI.FormRecognizer/3.0.0-dev.20200806.1",
          "(.NET Core 4.6.28516.03; Microsoft Windows 10.0.18363 )"
        ],
        "x-ms-client-request-id": "63cae7cbde1cc8fe8b59c67285a1fe67",
        "x-ms-return-client-request-id": "true"
      },
      "RequestBody": null,
      "StatusCode": 200,
      "ResponseHeaders": {
        "apim-request-id": "223b5fd4-ca92-4ab7-a993-c52e84610dff",
        "Content-Type": "application/json; charset=utf-8",
        "Date": "Fri, 07 Aug 2020 02:22:47 GMT",
        "Strict-Transport-Security": "max-age=31536000; includeSubDomains; preload",
        "Transfer-Encoding": "chunked",
        "X-Content-Type-Options": "nosniff",
        "x-envoy-upstream-service-time": "18"
      },
      "ResponseBody": {
        "modelInfo": {
          "modelId": "0b0ddaea-ab76-42ae-b93e-2a5283461c31",
          "status": "ready",
          "createdDateTime": "2020-08-07T02:22:40Z",
          "lastUpdatedDateTime": "2020-08-07T02:22:47Z"
        },
        "trainResult": {
          "averageModelAccuracy": 0.973,
          "trainingDocuments": [
            {
              "documentName": "Form_1.jpg",
              "pages": 1,
              "status": "succeeded"
            },
            {
              "documentName": "Form_2.jpg",
              "pages": 1,
              "status": "succeeded"
            },
            {
              "documentName": "Form_3.jpg",
              "pages": 1,
              "status": "succeeded"
            },
            {
              "documentName": "Form_4.jpg",
              "pages": 1,
              "status": "succeeded"
            },
            {
              "documentName": "Form_5.jpg",
              "pages": 1,
              "status": "succeeded"
            }
          ],
          "fields": [
            {
              "fieldName": "CompanyAddress",
              "accuracy": 0.8
            },
            {
              "fieldName": "CompanyName",
              "accuracy": 1.0
            },
            {
              "fieldName": "CompanyPhoneNumber",
              "accuracy": 1.0
            },
            {
              "fieldName": "DatedAs",
              "accuracy": 1.0
            },
            {
              "fieldName": "Email",
              "accuracy": 0.8
            },
            {
              "fieldName": "Merchant",
              "accuracy": 1.0
            },
            {
              "fieldName": "PhoneNumber",
              "accuracy": 1.0
            },
            {
              "fieldName": "PurchaseOrderNumber",
              "accuracy": 1.0
            },
            {
              "fieldName": "Quantity",
              "accuracy": 1.0
            },
            {
              "fieldName": "Signature",
              "accuracy": 1.0
            },
            {
              "fieldName": "Subtotal",
              "accuracy": 1.0
            },
            {
              "fieldName": "Tax",
              "accuracy": 1.0
            },
            {
              "fieldName": "Total",
              "accuracy": 1.0
            },
            {
              "fieldName": "VendorName",
              "accuracy": 1.0
            },
            {
              "fieldName": "Website",
              "accuracy": 1.0
            }
          ],
          "errors": []
        }
      }
    },
    {
      "RequestUri": "https://mariari-westus2-formrecognizer.cognitiveservices.azure.com/formrecognizer/v2.0/custom/models/0b0ddaea-ab76-42ae-b93e-2a5283461c31/analyze?includeTextDetails=true",
      "RequestMethod": "POST",
      "RequestHeaders": {
        "Content-Length": "25662",
        "Content-Type": "application/pdf",
        "Ocp-Apim-Subscription-Key": "Sanitized",
        "traceparent": "00-c5c47c1f29a62b4ab268acdf6f1da442-de35e1b4b0405c41-00",
        "User-Agent": [
          "azsdk-net-AI.FormRecognizer/3.0.0-dev.20200806.1",
          "(.NET Core 4.6.28516.03; Microsoft Windows 10.0.18363 )"
        ],
        "x-ms-client-request-id": "1e51cbe4cf3aebe214417210ff1b9015",
        "x-ms-return-client-request-id": "true"
      },
      "RequestBody": null,
      "StatusCode": 202,
      "ResponseHeaders": {
        "apim-request-id": "cdfe80e8-cae2-48b6-9159-c557a042d4cc",
        "Content-Length": "0",
        "Date": "Fri, 07 Aug 2020 02:22:52 GMT",
        "Operation-Location": "https://mariari-westus2-formrecognizer.cognitiveservices.azure.com/formrecognizer/v2.0/custom/models/0b0ddaea-ab76-42ae-b93e-2a5283461c31/analyzeresults/e9460bc3-efa4-4d5f-ab7e-005756fe801f",
        "Strict-Transport-Security": "max-age=31536000; includeSubDomains; preload",
        "X-Content-Type-Options": "nosniff",
        "x-envoy-upstream-service-time": "5199"
      },
      "ResponseBody": []
    },
    {
      "RequestUri": "https://mariari-westus2-formrecognizer.cognitiveservices.azure.com/formrecognizer/v2.0/custom/models/0b0ddaea-ab76-42ae-b93e-2a5283461c31/analyzeResults/e9460bc3-efa4-4d5f-ab7e-005756fe801f",
      "RequestMethod": "GET",
      "RequestHeaders": {
        "Ocp-Apim-Subscription-Key": "Sanitized",
        "User-Agent": [
          "azsdk-net-AI.FormRecognizer/3.0.0-dev.20200806.1",
          "(.NET Core 4.6.28516.03; Microsoft Windows 10.0.18363 )"
        ],
        "x-ms-client-request-id": "6f67f6f64ce1d1c0d52b4868f6f6ae0c",
        "x-ms-return-client-request-id": "true"
      },
      "RequestBody": null,
      "StatusCode": 200,
      "ResponseHeaders": {
        "apim-request-id": "51b1f88d-d73f-4907-859a-cc120c1ecc06",
        "Content-Length": "109",
        "Content-Type": "application/json; charset=utf-8",
        "Date": "Fri, 07 Aug 2020 02:22:52 GMT",
        "Strict-Transport-Security": "max-age=31536000; includeSubDomains; preload",
        "X-Content-Type-Options": "nosniff",
        "x-envoy-upstream-service-time": "22"
      },
      "ResponseBody": {
        "status": "notStarted",
        "createdDateTime": "2020-08-07T02:22:47Z",
        "lastUpdatedDateTime": "2020-08-07T02:22:47Z"
      }
    },
    {
      "RequestUri": "https://mariari-westus2-formrecognizer.cognitiveservices.azure.com/formrecognizer/v2.0/custom/models/0b0ddaea-ab76-42ae-b93e-2a5283461c31/analyzeResults/e9460bc3-efa4-4d5f-ab7e-005756fe801f",
      "RequestMethod": "GET",
      "RequestHeaders": {
        "Ocp-Apim-Subscription-Key": "Sanitized",
        "User-Agent": [
          "azsdk-net-AI.FormRecognizer/3.0.0-dev.20200806.1",
          "(.NET Core 4.6.28516.03; Microsoft Windows 10.0.18363 )"
        ],
        "x-ms-client-request-id": "6155b0acad0afc7a05df4eda6bedc870",
        "x-ms-return-client-request-id": "true"
      },
      "RequestBody": null,
      "StatusCode": 200,
      "ResponseHeaders": {
        "apim-request-id": "bcc0e869-67e5-42f8-9314-2316197fb875",
        "Content-Length": "109",
        "Content-Type": "application/json; charset=utf-8",
        "Date": "Fri, 07 Aug 2020 02:22:53 GMT",
        "Strict-Transport-Security": "max-age=31536000; includeSubDomains; preload",
        "X-Content-Type-Options": "nosniff",
        "x-envoy-upstream-service-time": "24"
      },
      "ResponseBody": {
        "status": "notStarted",
        "createdDateTime": "2020-08-07T02:22:47Z",
        "lastUpdatedDateTime": "2020-08-07T02:22:47Z"
      }
    },
    {
      "RequestUri": "https://mariari-westus2-formrecognizer.cognitiveservices.azure.com/formrecognizer/v2.0/custom/models/0b0ddaea-ab76-42ae-b93e-2a5283461c31/analyzeResults/e9460bc3-efa4-4d5f-ab7e-005756fe801f",
      "RequestMethod": "GET",
      "RequestHeaders": {
        "Ocp-Apim-Subscription-Key": "Sanitized",
        "User-Agent": [
          "azsdk-net-AI.FormRecognizer/3.0.0-dev.20200806.1",
          "(.NET Core 4.6.28516.03; Microsoft Windows 10.0.18363 )"
        ],
        "x-ms-client-request-id": "8e7cb0c88f3998850a7f480f8679f41e",
        "x-ms-return-client-request-id": "true"
      },
      "RequestBody": null,
      "StatusCode": 200,
      "ResponseHeaders": {
        "apim-request-id": "0a2bad6c-23e2-47dc-8924-739200479cbd",
        "Content-Length": "109",
        "Content-Type": "application/json; charset=utf-8",
        "Date": "Fri, 07 Aug 2020 02:22:54 GMT",
        "Strict-Transport-Security": "max-age=31536000; includeSubDomains; preload",
        "X-Content-Type-Options": "nosniff",
        "x-envoy-upstream-service-time": "23"
      },
      "ResponseBody": {
        "status": "notStarted",
        "createdDateTime": "2020-08-07T02:22:47Z",
        "lastUpdatedDateTime": "2020-08-07T02:22:47Z"
      }
    },
    {
      "RequestUri": "https://mariari-westus2-formrecognizer.cognitiveservices.azure.com/formrecognizer/v2.0/custom/models/0b0ddaea-ab76-42ae-b93e-2a5283461c31/analyzeResults/e9460bc3-efa4-4d5f-ab7e-005756fe801f",
      "RequestMethod": "GET",
      "RequestHeaders": {
        "Ocp-Apim-Subscription-Key": "Sanitized",
        "User-Agent": [
          "azsdk-net-AI.FormRecognizer/3.0.0-dev.20200806.1",
          "(.NET Core 4.6.28516.03; Microsoft Windows 10.0.18363 )"
        ],
        "x-ms-client-request-id": "4f6466922fc5480b7b6b6a02fde566e8",
        "x-ms-return-client-request-id": "true"
      },
      "RequestBody": null,
      "StatusCode": 200,
      "ResponseHeaders": {
        "apim-request-id": "c16a7fbc-a2b1-4d6e-a32c-7168e7445a4c",
        "Content-Length": "109",
        "Content-Type": "application/json; charset=utf-8",
        "Date": "Fri, 07 Aug 2020 02:22:55 GMT",
        "Strict-Transport-Security": "max-age=31536000; includeSubDomains; preload",
        "X-Content-Type-Options": "nosniff",
        "x-envoy-upstream-service-time": "22"
      },
      "ResponseBody": {
        "status": "notStarted",
        "createdDateTime": "2020-08-07T02:22:47Z",
        "lastUpdatedDateTime": "2020-08-07T02:22:56Z"
      }
    },
    {
      "RequestUri": "https://mariari-westus2-formrecognizer.cognitiveservices.azure.com/formrecognizer/v2.0/custom/models/0b0ddaea-ab76-42ae-b93e-2a5283461c31/analyzeResults/e9460bc3-efa4-4d5f-ab7e-005756fe801f",
      "RequestMethod": "GET",
      "RequestHeaders": {
        "Ocp-Apim-Subscription-Key": "Sanitized",
        "User-Agent": [
          "azsdk-net-AI.FormRecognizer/3.0.0-dev.20200806.1",
          "(.NET Core 4.6.28516.03; Microsoft Windows 10.0.18363 )"
        ],
        "x-ms-client-request-id": "46a0d8621f7a1dd22abd568b656b768b",
        "x-ms-return-client-request-id": "true"
      },
      "RequestBody": null,
      "StatusCode": 200,
      "ResponseHeaders": {
        "apim-request-id": "dd2100c6-564b-499b-b33b-7e2335ae9bec",
        "Content-Length": "109",
        "Content-Type": "application/json; charset=utf-8",
        "Date": "Fri, 07 Aug 2020 02:22:56 GMT",
        "Strict-Transport-Security": "max-age=31536000; includeSubDomains; preload",
        "X-Content-Type-Options": "nosniff",
        "x-envoy-upstream-service-time": "21"
      },
      "ResponseBody": {
        "status": "notStarted",
        "createdDateTime": "2020-08-07T02:22:47Z",
        "lastUpdatedDateTime": "2020-08-07T02:22:56Z"
      }
    },
    {
      "RequestUri": "https://mariari-westus2-formrecognizer.cognitiveservices.azure.com/formrecognizer/v2.0/custom/models/0b0ddaea-ab76-42ae-b93e-2a5283461c31/analyzeResults/e9460bc3-efa4-4d5f-ab7e-005756fe801f",
      "RequestMethod": "GET",
      "RequestHeaders": {
        "Ocp-Apim-Subscription-Key": "Sanitized",
        "User-Agent": [
          "azsdk-net-AI.FormRecognizer/3.0.0-dev.20200806.1",
          "(.NET Core 4.6.28516.03; Microsoft Windows 10.0.18363 )"
        ],
        "x-ms-client-request-id": "054730eb788898aaa53313ce24829a24",
        "x-ms-return-client-request-id": "true"
      },
      "RequestBody": null,
      "StatusCode": 200,
      "ResponseHeaders": {
        "apim-request-id": "2ebf5003-5b0a-4cdd-bf73-a1d1842a5b17",
        "Content-Length": "109",
        "Content-Type": "application/json; charset=utf-8",
        "Date": "Fri, 07 Aug 2020 02:22:58 GMT",
        "Strict-Transport-Security": "max-age=31536000; includeSubDomains; preload",
        "X-Content-Type-Options": "nosniff",
        "x-envoy-upstream-service-time": "23"
      },
      "ResponseBody": {
        "status": "notStarted",
        "createdDateTime": "2020-08-07T02:22:47Z",
        "lastUpdatedDateTime": "2020-08-07T02:22:56Z"
      }
    },
    {
      "RequestUri": "https://mariari-westus2-formrecognizer.cognitiveservices.azure.com/formrecognizer/v2.0/custom/models/0b0ddaea-ab76-42ae-b93e-2a5283461c31/analyzeResults/e9460bc3-efa4-4d5f-ab7e-005756fe801f",
      "RequestMethod": "GET",
      "RequestHeaders": {
        "Ocp-Apim-Subscription-Key": "Sanitized",
        "User-Agent": [
          "azsdk-net-AI.FormRecognizer/3.0.0-dev.20200806.1",
          "(.NET Core 4.6.28516.03; Microsoft Windows 10.0.18363 )"
        ],
        "x-ms-client-request-id": "adac5f19aed972a493472407d97fe310",
        "x-ms-return-client-request-id": "true"
      },
      "RequestBody": null,
      "StatusCode": 200,
      "ResponseHeaders": {
        "apim-request-id": "0a7659e9-eeec-420b-9550-a61cbdc2b3e4",
        "Content-Length": "109",
        "Content-Type": "application/json; charset=utf-8",
        "Date": "Fri, 07 Aug 2020 02:22:59 GMT",
        "Strict-Transport-Security": "max-age=31536000; includeSubDomains; preload",
        "X-Content-Type-Options": "nosniff",
        "x-envoy-upstream-service-time": "22"
      },
      "ResponseBody": {
        "status": "notStarted",
        "createdDateTime": "2020-08-07T02:22:47Z",
        "lastUpdatedDateTime": "2020-08-07T02:22:56Z"
      }
    },
    {
      "RequestUri": "https://mariari-westus2-formrecognizer.cognitiveservices.azure.com/formrecognizer/v2.0/custom/models/0b0ddaea-ab76-42ae-b93e-2a5283461c31/analyzeResults/e9460bc3-efa4-4d5f-ab7e-005756fe801f",
      "RequestMethod": "GET",
      "RequestHeaders": {
        "Ocp-Apim-Subscription-Key": "Sanitized",
        "User-Agent": [
          "azsdk-net-AI.FormRecognizer/3.0.0-dev.20200806.1",
          "(.NET Core 4.6.28516.03; Microsoft Windows 10.0.18363 )"
        ],
        "x-ms-client-request-id": "cd17def4609eea5f2d07a1460c03f8a7",
        "x-ms-return-client-request-id": "true"
      },
      "RequestBody": null,
      "StatusCode": 200,
      "ResponseHeaders": {
        "apim-request-id": "a65a8eb4-a8a2-4229-9174-2cef1a9ff98d",
        "Content-Length": "109",
        "Content-Type": "application/json; charset=utf-8",
        "Date": "Fri, 07 Aug 2020 02:23:00 GMT",
        "Strict-Transport-Security": "max-age=31536000; includeSubDomains; preload",
        "X-Content-Type-Options": "nosniff",
        "x-envoy-upstream-service-time": "20"
      },
      "ResponseBody": {
        "status": "notStarted",
        "createdDateTime": "2020-08-07T02:22:47Z",
        "lastUpdatedDateTime": "2020-08-07T02:22:56Z"
      }
    },
    {
      "RequestUri": "https://mariari-westus2-formrecognizer.cognitiveservices.azure.com/formrecognizer/v2.0/custom/models/0b0ddaea-ab76-42ae-b93e-2a5283461c31/analyzeResults/e9460bc3-efa4-4d5f-ab7e-005756fe801f",
      "RequestMethod": "GET",
      "RequestHeaders": {
        "Ocp-Apim-Subscription-Key": "Sanitized",
        "User-Agent": [
          "azsdk-net-AI.FormRecognizer/3.0.0-dev.20200806.1",
          "(.NET Core 4.6.28516.03; Microsoft Windows 10.0.18363 )"
        ],
        "x-ms-client-request-id": "05723122c8be3cb28bd4714153a3bf25",
        "x-ms-return-client-request-id": "true"
      },
      "RequestBody": null,
      "StatusCode": 200,
      "ResponseHeaders": {
        "apim-request-id": "e70d0784-3336-4d5e-af4d-e94b3bed9a6d",
        "Content-Length": "109",
        "Content-Type": "application/json; charset=utf-8",
        "Date": "Fri, 07 Aug 2020 02:23:01 GMT",
        "Strict-Transport-Security": "max-age=31536000; includeSubDomains; preload",
        "X-Content-Type-Options": "nosniff",
        "x-envoy-upstream-service-time": "20"
      },
      "ResponseBody": {
        "status": "notStarted",
        "createdDateTime": "2020-08-07T02:22:47Z",
        "lastUpdatedDateTime": "2020-08-07T02:22:56Z"
      }
    },
    {
      "RequestUri": "https://mariari-westus2-formrecognizer.cognitiveservices.azure.com/formrecognizer/v2.0/custom/models/0b0ddaea-ab76-42ae-b93e-2a5283461c31/analyzeResults/e9460bc3-efa4-4d5f-ab7e-005756fe801f",
      "RequestMethod": "GET",
      "RequestHeaders": {
        "Ocp-Apim-Subscription-Key": "Sanitized",
        "User-Agent": [
          "azsdk-net-AI.FormRecognizer/3.0.0-dev.20200806.1",
          "(.NET Core 4.6.28516.03; Microsoft Windows 10.0.18363 )"
        ],
        "x-ms-client-request-id": "46d9024fcd6bb886ffc280d10d5d668f",
        "x-ms-return-client-request-id": "true"
      },
      "RequestBody": null,
      "StatusCode": 200,
      "ResponseHeaders": {
        "apim-request-id": "560738cc-5fe1-4079-b6a4-ab29f16246df",
        "Content-Length": "643",
        "Content-Type": "application/json; charset=utf-8",
        "Date": "Fri, 07 Aug 2020 02:23:02 GMT",
        "Strict-Transport-Security": "max-age=31536000; includeSubDomains; preload",
        "X-Content-Type-Options": "nosniff",
        "x-envoy-upstream-service-time": "17"
      },
      "ResponseBody": {
        "status": "succeeded",
        "createdDateTime": "2020-08-07T02:22:47Z",
        "lastUpdatedDateTime": "2020-08-07T02:22:58Z",
        "analyzeResult": {
          "version": "2.0.0",
          "readResults": [
            {
              "page": 1,
              "language": "en",
              "angle": 0,
              "width": 8.4967,
              "height": 10.9967,
              "unit": "inch",
              "lines": []
            }
          ],
          "pageResults": [
            {
              "page": 1,
              "tables": []
            }
          ],
          "documentResults": [
            {
              "docType": "custom:form",
              "pageRange": [
                1,
                1
              ],
              "fields": {
                "CompanyAddress": null,
                "CompanyName": null,
                "CompanyPhoneNumber": null,
                "DatedAs": null,
                "Email": null,
                "Merchant": null,
                "PhoneNumber": null,
                "PurchaseOrderNumber": null,
                "Quantity": null,
                "Signature": null,
                "Subtotal": null,
                "Tax": null,
                "Total": null,
                "VendorName": null,
                "Website": null
              }
            }
          ],
          "errors": []
        }
      }
    },
    {
      "RequestUri": "https://mariari-westus2-formrecognizer.cognitiveservices.azure.com/formrecognizer/v2.0/custom/models/0b0ddaea-ab76-42ae-b93e-2a5283461c31",
      "RequestMethod": "DELETE",
      "RequestHeaders": {
        "Ocp-Apim-Subscription-Key": "Sanitized",
        "traceparent": "00-a2f6dcf3ee16bf479a70e3f81ea31611-923923d348ed944b-00",
        "User-Agent": [
          "azsdk-net-AI.FormRecognizer/3.0.0-dev.20200806.1",
          "(.NET Core 4.6.28516.03; Microsoft Windows 10.0.18363 )"
        ],
        "x-ms-client-request-id": "a7e47c4edd0d2c522bda41c9ef1e968a",
        "x-ms-return-client-request-id": "true"
      },
      "RequestBody": null,
      "StatusCode": 204,
      "ResponseHeaders": {
        "apim-request-id": "6c738f97-9717-4e6a-bdfb-8f2915e2d295",
        "Content-Length": "0",
        "Date": "Fri, 07 Aug 2020 02:23:02 GMT",
        "Strict-Transport-Security": "max-age=31536000; includeSubDomains; preload",
        "X-Content-Type-Options": "nosniff",
        "x-envoy-upstream-service-time": "132"
      },
      "ResponseBody": []
    }
  ],
  "Variables": {
    "FORM_RECOGNIZER_API_KEY": "Sanitized",
    "FORM_RECOGNIZER_BLOB_CONTAINER_SAS_URL": "https://sanitized.blob.core.windows.net",
    "FORM_RECOGNIZER_ENDPOINT": "https://mariari-westus2-formrecognizer.cognitiveservices.azure.com/",
    "RandomSeed": "28832889"
  }
}