{
  "Entries": [
    {
      "RequestUri": "https://mariari-westus2-formrecognizer.cognitiveservices.azure.com/formrecognizer/v2.0/prebuilt/receipt/analyze?includeTextDetails=false",
      "RequestMethod": "POST",
      "RequestHeaders": {
        "Content-Length": "22",
        "Content-Type": "application/json",
        "Ocp-Apim-Subscription-Key": "Sanitized",
        "traceparent": "00-6e4879775623fe4eba41fb22b3b00911-65000552c028804b-00",
        "User-Agent": [
          "azsdk-net-AI.FormRecognizer/3.0.0-dev.20200806.1",
          "(.NET Core 4.6.28516.03; Microsoft Windows 10.0.18363 )"
        ],
        "x-ms-client-request-id": "f5c1c4e092416ad8638df8a13b285a34",
        "x-ms-return-client-request-id": "true"
      },
      "RequestBody": {
        "source": "Sanitized"
      },
      "StatusCode": 202,
      "ResponseHeaders": {
        "apim-request-id": "020a01bf-8be2-4327-9496-106057a66862",
        "Content-Length": "0",
        "Date": "Fri, 07 Aug 2020 02:31:05 GMT",
        "Operation-Location": "https://mariari-westus2-formrecognizer.cognitiveservices.azure.com/formrecognizer/v2.0/prebuilt/receipt/analyzeResults/020a01bf-8be2-4327-9496-106057a66862",
        "Strict-Transport-Security": "max-age=31536000; includeSubDomains; preload",
        "X-Content-Type-Options": "nosniff",
        "x-envoy-upstream-service-time": "855"
      },
      "ResponseBody": []
    },
    {
      "RequestUri": "https://mariari-westus2-formrecognizer.cognitiveservices.azure.com/formrecognizer/v2.0/prebuilt/receipt/analyzeResults/020a01bf-8be2-4327-9496-106057a66862",
      "RequestMethod": "GET",
      "RequestHeaders": {
        "Ocp-Apim-Subscription-Key": "Sanitized",
        "User-Agent": [
          "azsdk-net-AI.FormRecognizer/3.0.0-dev.20200806.1",
          "(.NET Core 4.6.28516.03; Microsoft Windows 10.0.18363 )"
        ],
        "x-ms-client-request-id": "062673ed67d8fd867003f35b2f42a4ef",
        "x-ms-return-client-request-id": "true"
      },
      "RequestBody": null,
      "StatusCode": 200,
      "ResponseHeaders": {
        "apim-request-id": "5d53a569-0a20-4e90-a8df-b3c13ef96a1c",
        "Content-Type": "application/json; charset=utf-8",
        "Date": "Fri, 07 Aug 2020 02:31:05 GMT",
        "Strict-Transport-Security": "max-age=31536000; includeSubDomains; preload",
        "Transfer-Encoding": "chunked",
        "X-Content-Type-Options": "nosniff",
        "x-envoy-upstream-service-time": "27"
      },
      "ResponseBody": {
        "status": "notStarted",
        "createdDateTime": "2020-08-07T02:31:06Z",
        "lastUpdatedDateTime": "2020-08-07T02:31:06Z"
      }
    },
    {
      "RequestUri": "https://mariari-westus2-formrecognizer.cognitiveservices.azure.com/formrecognizer/v2.0/prebuilt/receipt/analyzeResults/020a01bf-8be2-4327-9496-106057a66862",
      "RequestMethod": "GET",
      "RequestHeaders": {
        "Ocp-Apim-Subscription-Key": "Sanitized",
        "User-Agent": [
          "azsdk-net-AI.FormRecognizer/3.0.0-dev.20200806.1",
          "(.NET Core 4.6.28516.03; Microsoft Windows 10.0.18363 )"
        ],
        "x-ms-client-request-id": "33c7174b4abcabe681b5c6723ecf73b6",
        "x-ms-return-client-request-id": "true"
      },
      "RequestBody": null,
      "StatusCode": 200,
      "ResponseHeaders": {
        "apim-request-id": "f1e740b3-6597-4569-8b49-4f55242a9afa",
        "Content-Type": "application/json; charset=utf-8",
        "Date": "Fri, 07 Aug 2020 02:31:06 GMT",
        "Strict-Transport-Security": "max-age=31536000; includeSubDomains; preload",
        "Transfer-Encoding": "chunked",
        "X-Content-Type-Options": "nosniff",
        "x-envoy-upstream-service-time": "10"
      },
      "ResponseBody": {
        "status": "running",
        "createdDateTime": "2020-08-07T02:31:06Z",
        "lastUpdatedDateTime": "2020-08-07T02:31:06Z"
      }
    },
    {
      "RequestUri": "https://mariari-westus2-formrecognizer.cognitiveservices.azure.com/formrecognizer/v2.0/prebuilt/receipt/analyzeResults/020a01bf-8be2-4327-9496-106057a66862",
      "RequestMethod": "GET",
      "RequestHeaders": {
        "Ocp-Apim-Subscription-Key": "Sanitized",
        "User-Agent": [
          "azsdk-net-AI.FormRecognizer/3.0.0-dev.20200806.1",
          "(.NET Core 4.6.28516.03; Microsoft Windows 10.0.18363 )"
        ],
        "x-ms-client-request-id": "7b202b1dbab778b23ec3853d9f7d3a20",
        "x-ms-return-client-request-id": "true"
      },
      "RequestBody": null,
      "StatusCode": 200,
      "ResponseHeaders": {
        "apim-request-id": "43caba5c-192c-4839-8e7d-b8c90b8755bc",
        "Content-Type": "application/json; charset=utf-8",
        "Date": "Fri, 07 Aug 2020 02:31:07 GMT",
        "Strict-Transport-Security": "max-age=31536000; includeSubDomains; preload",
        "Transfer-Encoding": "chunked",
        "X-Content-Type-Options": "nosniff",
        "x-envoy-upstream-service-time": "17"
      },
      "ResponseBody": {
        "status": "running",
        "createdDateTime": "2020-08-07T02:31:06Z",
        "lastUpdatedDateTime": "2020-08-07T02:31:06Z"
      }
    },
    {
      "RequestUri": "https://mariari-westus2-formrecognizer.cognitiveservices.azure.com/formrecognizer/v2.0/prebuilt/receipt/analyzeResults/020a01bf-8be2-4327-9496-106057a66862",
      "RequestMethod": "GET",
      "RequestHeaders": {
        "Ocp-Apim-Subscription-Key": "Sanitized",
        "User-Agent": [
          "azsdk-net-AI.FormRecognizer/3.0.0-dev.20200806.1",
          "(.NET Core 4.6.28516.03; Microsoft Windows 10.0.18363 )"
        ],
        "x-ms-client-request-id": "245508e82660a3778d7a8522a014bfa0",
        "x-ms-return-client-request-id": "true"
      },
      "RequestBody": null,
      "StatusCode": 200,
      "ResponseHeaders": {
        "apim-request-id": "eedb2b6a-d9c1-47b4-8df5-a70b8c9e55ad",
        "Content-Type": "application/json; charset=utf-8",
        "Date": "Fri, 07 Aug 2020 02:31:08 GMT",
        "Strict-Transport-Security": "max-age=31536000; includeSubDomains; preload",
        "Transfer-Encoding": "chunked",
        "X-Content-Type-Options": "nosniff",
        "x-envoy-upstream-service-time": "23"
      },
      "ResponseBody": {
        "status": "succeeded",
        "createdDateTime": "2020-08-07T02:31:06Z",
        "lastUpdatedDateTime": "2020-08-07T02:31:09Z",
        "analyzeResult": {
          "version": "2.0.0",
          "readResults": [
            {
              "page": 1,
              "angle": 0.6701,
              "width": 1688,
              "height": 3000,
              "unit": "pixel",
              "language": "en"
            }
          ],
          "documentResults": [
            {
              "docType": "prebuilt:receipt",
              "pageRange": [
                1,
                1
              ],
              "fields": {
                "ReceiptType": {
                  "type": "string",
                  "valueString": "Itemized",
                  "confidence": 0.954
                },
                "MerchantName": {
                  "type": "string",
                  "valueString": "Contoso Contoso",
                  "text": "Contoso Contoso",
                  "boundingBox": [
                    378.2,
                    292.4,
                    1117.7,
                    468.3,
                    1035.7,
                    812.7,
                    296.3,
                    636.8
                  ],
                  "page": 1,
                  "confidence": 0.616
                },
                "MerchantAddress": {
                  "type": "string",
                  "valueString": "123 Main Street Redmond, WA 98052",
                  "text": "123 Main Street Redmond, WA 98052",
                  "boundingBox": [
                    302,
                    675.8,
                    848.1,
                    793.7,
                    809.9,
                    970.4,
                    263.9,
                    852.5
                  ],
                  "page": 1,
                  "confidence": 0.99
                },
                "MerchantPhoneNumber": {
                  "type": "phoneNumber",
                  "valuePhoneNumber": "\u002B19876543210",
                  "text": "987-654-3210",
                  "boundingBox": [
                    278,
                    1004,
                    657.3,
                    1054.7,
                    647.8,
                    1125.4,
                    268.5,
                    1074.7
                  ],
                  "page": 1,
                  "confidence": 0.99
                },
                "TransactionDate": {
                  "type": "date",
                  "valueDate": "2020-06-10",
                  "text": "6/10/20",
                  "boundingBox": [
                    264,
                    1228,
                    454,
                    1240.5,
                    448.4,
                    1326.5,
                    258.3,
                    1314
                  ],
                  "page": 1,
                  "confidence": 0.904
                },
                "TransactionTime": {
                  "type": "time",
                  "valueTime": "13:59:00",
                  "text": "13:59",
                  "boundingBox": [
                    539,
                    1248,
                    678.1,
                    1261.6,
                    669.9,
                    1346.4,
                    530.7,
                    1332.9
                  ],
                  "page": 1,
                  "confidence": 0.693
                },
                "Items": {
                  "type": "array",
                  "valueArray": [
                    {
                      "type": "object",
                      "valueObject": {
                        "Quantity": {
                          "type": "number",
                          "text": "1",
                          "boundingBox": [
                            245.5,
                            1580.9,
                            302,
                            1585,
                            295.4,
                            1676,
                            238.9,
                            1672
                          ],
                          "page": 1,
                          "confidence": 0.919
                        },
                        "Name": {
                          "type": "string",
                          "valueString": "Cappuccino",
                          "text": "Cappuccino",
                          "boundingBox": [
                            316.3,
                            1584.9,
                            658.2,
                            1600.9,
                            653.9,
                            1693.1,
                            312,
                            1677
                          ],
                          "page": 1,
                          "confidence": 0.923
                        },
                        "TotalPrice": {
                          "type": "number",
                          "valueNumber": 2.2,
                          "text": "$2.20",
                          "boundingBox": [
                            1107.7,
                            1584,
                            1263,
                            1574,
                            1268.3,
                            1656,
                            1113,
                            1666
                          ],
                          "page": 1,
                          "confidence": 0.918
                        }
                      }
                    },
                    {
                      "type": "object",
                      "valueObject": {
                        "Quantity": {
                          "type": "number",
                          "text": "1",
                          "boundingBox": [
                            232,
                            1834,
                            286.6,
                            1835,
                            285,
                            1921,
                            230.4,
                            1920
                          ],
                          "page": 1,
                          "confidence": 0.858
                        },
                        "Name": {
                          "type": "string",
                          "valueString": "BACON \u0026 EGGS",
                          "text": "BACON \u0026 EGGS",
                          "boundingBox": [
                            308,
                            1836,
                            746,
                            1841.4,
                            745,
                            1925.4,
                            307,
                            1920
                          ],
                          "page": 1,
                          "confidence": 0.916
                        },
                        "TotalPrice": {
                          "type": "number",
                          "text": "$9.5",
                          "boundingBox": [
                            1133.9,
                            1955,
                            1257,
                            1952,
                            1259.1,
                            2036,
                            1136,
                            2039
                          ],
                          "page": 1,
                          "confidence": 0.916
                        }
                      }
                    }
                  ]
                },
                "Subtotal": {
                  "type": "number",
                  "valueNumber": 11.7,
                  "text": "11.70",
                  "boundingBox": [
                    1146,
                    2221,
                    1297.3,
                    2223,
                    1296,
                    2319,
                    1144.7,
                    2317
                  ],
                  "page": 1,
                  "confidence": 0.956
                },
                "Tax": {
                  "type": "number",
                  "valueNumber": 1.17,
                  "text": "1.17",
                  "boundingBox": [
                    1190,
                    2359,
                    1304,
                    2359,
                    1304,
                    2456,
                    1190,
                    2456
                  ],
                  "page": 1,
                  "confidence": 0.979
                },
                "Tip": {
                  "type": "number",
                  "valueNumber": 1.63,
                  "text": "1.63",
                  "boundingBox": [
                    1093.6,
                    2478,
                    1261.6,
                    2482,
                    1259,
                    2589,
                    1091,
                    2585
                  ],
                  "page": 1,
                  "confidence": 0.943
                },
                "Total": {
                  "type": "number",
                  "valueNumber": 14.5,
                  "text": "$14.50",
                  "boundingBox": [
                    1034.2,
                    2617,
                    1387.5,
                    2638.2,
                    1380,
                    2763,
                    1026.7,
                    2741.8
                  ],
                  "page": 1,
                  "confidence": 0.985
                }
              }
            }
          ]
        }
      }
    }
  ],
  "Variables": {
    "FORM_RECOGNIZER_API_KEY": "Sanitized",
    "FORM_RECOGNIZER_ENDPOINT": "https://mariari-westus2-formrecognizer.cognitiveservices.azure.com/",
    "RandomSeed": "281877090"
  }
}