{
  "Entries": [
    {
      "RequestUri": "https://mariari-westus2-formrecognizer.cognitiveservices.azure.com/formrecognizer/v2.0/layout/analyze",
      "RequestMethod": "POST",
      "RequestHeaders": {
        "Content-Length": "22",
        "Content-Type": "application/json",
        "Ocp-Apim-Subscription-Key": "Sanitized",
        "traceparent": "00-213a8809c7bdf24fb70e4b7e923e6f06-35a85a2864ec0d41-00",
        "User-Agent": [
          "azsdk-net-AI.FormRecognizer/3.0.0-dev.20200806.1",
          "(.NET Core 4.6.28516.03; Microsoft Windows 10.0.18363 )"
        ],
        "x-ms-client-request-id": "8797494eddbf38e5136c9ea47c4fa605",
        "x-ms-return-client-request-id": "true"
      },
      "RequestBody": {
        "source": "Sanitized"
      },
      "StatusCode": 202,
      "ResponseHeaders": {
        "apim-request-id": "408eb287-1f38-4954-bcf3-9072919b293f",
        "Content-Length": "0",
        "Date": "Fri, 07 Aug 2020 02:15:20 GMT",
        "Operation-Location": "https://mariari-westus2-formrecognizer.cognitiveservices.azure.com/formrecognizer/v2.0/layout/analyzeResults/408eb287-1f38-4954-bcf3-9072919b293f",
        "Strict-Transport-Security": "max-age=31536000; includeSubDomains; preload",
        "X-Content-Type-Options": "nosniff",
        "x-envoy-upstream-service-time": "395"
      },
      "ResponseBody": []
    },
    {
      "RequestUri": "https://mariari-westus2-formrecognizer.cognitiveservices.azure.com/formrecognizer/v2.0/layout/analyzeResults/408eb287-1f38-4954-bcf3-9072919b293f",
      "RequestMethod": "GET",
      "RequestHeaders": {
        "Ocp-Apim-Subscription-Key": "Sanitized",
        "User-Agent": [
          "azsdk-net-AI.FormRecognizer/3.0.0-dev.20200806.1",
          "(.NET Core 4.6.28516.03; Microsoft Windows 10.0.18363 )"
        ],
        "x-ms-client-request-id": "b0be6246fd798794dfe5f859772e35f0",
        "x-ms-return-client-request-id": "true"
      },
      "RequestBody": null,
      "StatusCode": 200,
      "ResponseHeaders": {
        "apim-request-id": "56cb7e7e-3751-4db6-87e3-a06aa386b282",
        "Content-Type": "application/json; charset=utf-8",
        "Date": "Fri, 07 Aug 2020 02:15:21 GMT",
        "Strict-Transport-Security": "max-age=31536000; includeSubDomains; preload",
        "Transfer-Encoding": "chunked",
        "X-Content-Type-Options": "nosniff",
        "x-envoy-upstream-service-time": "11"
      },
      "ResponseBody": {
        "status": "running",
        "createdDateTime": "2020-08-07T02:15:21Z",
        "lastUpdatedDateTime": "2020-08-07T02:15:21Z"
      }
    },
    {
      "RequestUri": "https://mariari-westus2-formrecognizer.cognitiveservices.azure.com/formrecognizer/v2.0/layout/analyzeResults/408eb287-1f38-4954-bcf3-9072919b293f",
      "RequestMethod": "GET",
      "RequestHeaders": {
        "Ocp-Apim-Subscription-Key": "Sanitized",
        "User-Agent": [
          "azsdk-net-AI.FormRecognizer/3.0.0-dev.20200806.1",
          "(.NET Core 4.6.28516.03; Microsoft Windows 10.0.18363 )"
        ],
        "x-ms-client-request-id": "4dd8bc6e8cd4bfaada2f1ed5230c6931",
        "x-ms-return-client-request-id": "true"
      },
      "RequestBody": null,
      "StatusCode": 200,
      "ResponseHeaders": {
        "apim-request-id": "80b3f173-f38b-4699-b4ff-b23b46514f68",
        "Content-Type": "application/json; charset=utf-8",
        "Date": "Fri, 07 Aug 2020 02:15:22 GMT",
        "Strict-Transport-Security": "max-age=31536000; includeSubDomains; preload",
        "Transfer-Encoding": "chunked",
        "X-Content-Type-Options": "nosniff",
        "x-envoy-upstream-service-time": "14"
      },
      "ResponseBody": {
        "status": "running",
        "createdDateTime": "2020-08-07T02:15:21Z",
        "lastUpdatedDateTime": "2020-08-07T02:15:21Z"
      }
    },
    {
      "RequestUri": "https://mariari-westus2-formrecognizer.cognitiveservices.azure.com/formrecognizer/v2.0/layout/analyzeResults/408eb287-1f38-4954-bcf3-9072919b293f",
      "RequestMethod": "GET",
      "RequestHeaders": {
        "Ocp-Apim-Subscription-Key": "Sanitized",
        "User-Agent": [
          "azsdk-net-AI.FormRecognizer/3.0.0-dev.20200806.1",
          "(.NET Core 4.6.28516.03; Microsoft Windows 10.0.18363 )"
        ],
        "x-ms-client-request-id": "003bcfef18c0500fb50fa7dae58cc0e4",
        "x-ms-return-client-request-id": "true"
      },
      "RequestBody": null,
      "StatusCode": 200,
      "ResponseHeaders": {
        "apim-request-id": "6dff8979-964f-4e0f-a04c-63592549156e",
        "Content-Type": "application/json; charset=utf-8",
        "Date": "Fri, 07 Aug 2020 02:15:23 GMT",
        "Strict-Transport-Security": "max-age=31536000; includeSubDomains; preload",
        "Transfer-Encoding": "chunked",
        "X-Content-Type-Options": "nosniff",
        "x-envoy-upstream-service-time": "25"
      },
      "ResponseBody": {
        "status": "succeeded",
        "createdDateTime": "2020-08-07T02:15:21Z",
        "lastUpdatedDateTime": "2020-08-07T02:15:23Z",
        "analyzeResult": {
          "version": "2.0.0",
          "readResults": [
            {
              "page": 1,
              "language": "en",
              "angle": 0,
              "width": 1700,
              "height": 2200,
              "unit": "pixel",
              "lines": [
                {
                  "boundingBox": [
                    137,
                    140,
                    351,
                    140,
                    351,
                    167,
                    137,
                    166
                  ],
                  "text": "Purchase Order",
                  "words": [
                    {
                      "boundingBox": [
                        137,
                        140,
                        263,
                        140,
                        263,
                        168,
                        138,
                        166
                      ],
                      "text": "Purchase",
                      "confidence": 0.959
                    },
                    {
                      "boundingBox": [
                        271,
                        140,
                        351,
                        140,
                        351,
                        168,
                        272,
                        168
                      ],
                      "text": "Order",
                      "confidence": 0.959
                    }
                  ]
                },
                {
                  "boundingBox": [
                    620,
                    204,
                    1073,
                    201,
                    1074,
                    264,
                    620,
                    266
                  ],
                  "text": "Hero Limited",
                  "words": [
                    {
                      "boundingBox": [
                        622,
                        207,
                        788,
                        204,
                        787,
                        266,
                        621,
                        266
                      ],
                      "text": "Hero",
                      "confidence": 0.959
                    },
                    {
                      "boundingBox": [
                        811,
                        204,
                        1075,
                        202,
                        1075,
                        266,
                        811,
                        266
                      ],
                      "text": "Limited",
                      "confidence": 0.959
                    }
                  ]
                },
                {
                  "boundingBox": [
                    165,
                    351,
                    529,
                    350,
                    530,
                    377,
                    165,
                    379
                  ],
                  "text": "Company Phone: 555-348-6512",
                  "words": [
                    {
                      "boundingBox": [
                        167,
                        352,
                        275,
                        351,
                        275,
                        379,
                        167,
                        379
                      ],
                      "text": "Company",
                      "confidence": 0.959
                    },
                    {
                      "boundingBox": [
                        281,
                        351,
                        362,
                        351,
                        362,
                        378,
                        280,
                        379
                      ],
                      "text": "Phone:",
                      "confidence": 0.958
                    },
                    {
                      "boundingBox": [
                        367,
                        351,
                        529,
                        352,
                        529,
                        374,
                        367,
                        378
                      ],
                      "text": "555-348-6512",
                      "confidence": 0.946
                    }
                  ]
                },
                {
                  "boundingBox": [
                    1114,
                    320,
                    1551,
                    320,
                    1551,
                    370,
                    1114,
                    370
                  ],
                  "text": "Purchase Order",
                  "words": [
                    {
                      "boundingBox": [
                        1115,
                        322,
                        1377,
                        320,
                        1377,
                        371,
                        1117,
                        371
                      ],
                      "text": "Purchase",
                      "confidence": 0.959
                    },
                    {
                      "boundingBox": [
                        1396,
                        321,
                        1550,
                        321,
                        1549,
                        371,
                        1396,
                        371
                      ],
                      "text": "Order",
                      "confidence": 0.959
                    }
                  ]
                },
                {
                  "boundingBox": [
                    167,
                    392,
                    534,
                    392,
                    534,
                    419,
                    167,
                    418
                  ],
                  "text": "Website: www.herolimited.com",
                  "words": [
                    {
                      "boundingBox": [
                        168,
                        392,
                        270,
                        393,
                        269,
                        419,
                        167,
                        418
                      ],
                      "text": "Website:",
                      "confidence": 0.957
                    },
                    {
                      "boundingBox": [
                        275,
                        393,
                        528,
                        393,
                        529,
                        418,
                        274,
                        419
                      ],
                      "text": "www.herolimited.com",
                      "confidence": 0.872
                    }
                  ]
                },
                {
                  "boundingBox": [
                    164,
                    437,
                    236,
                    437,
                    236,
                    459,
                    164,
                    459
                  ],
                  "text": "Email:",
                  "words": [
                    {
                      "boundingBox": [
                        165,
                        437,
                        236,
                        437,
                        237,
                        460,
                        165,
                        459
                      ],
                      "text": "Email:",
                      "confidence": 0.959
                    }
                  ]
                },
                {
                  "boundingBox": [
                    1025,
                    420,
                    1317,
                    419,
                    1317,
                    449,
                    1025,
                    449
                  ],
                  "text": "Dated As: 12/20/2020",
                  "words": [
                    {
                      "boundingBox": [
                        1026,
                        420,
                        1112,
                        421,
                        1112,
                        450,
                        1025,
                        449
                      ],
                      "text": "Dated",
                      "confidence": 0.959
                    },
                    {
                      "boundingBox": [
                        1118,
                        421,
                        1163,
                        421,
                        1163,
                        450,
                        1117,
                        450
                      ],
                      "text": "As:",
                      "confidence": 0.957
                    },
                    {
                      "boundingBox": [
                        1169,
                        421,
                        1317,
                        420,
                        1317,
                        450,
                        1168,
                        450
                      ],
                      "text": "12/20/2020",
                      "confidence": 0.958
                    }
                  ]
                },
                {
                  "boundingBox": [
                    166,
                    480,
                    482,
                    479,
                    482,
                    502,
                    166,
                    503
                  ],
                  "text": "accounts@herolimited.com",
                  "words": [
                    {
                      "boundingBox": [
                        166,
                        484,
                        475,
                        480,
                        473,
                        503,
                        166,
                        503
                      ],
                      "text": "accounts@herolimited.com",
                      "confidence": 0.856
                    }
                  ]
                },
                {
                  "boundingBox": [
                    1025,
                    461,
                    1376,
                    461,
                    1376,
                    488,
                    1025,
                    490
                  ],
                  "text": "Purchase Order #: 948284",
                  "words": [
                    {
                      "boundingBox": [
                        1027,
                        463,
                        1154,
                        461,
                        1153,
                        490,
                        1026,
                        489
                      ],
                      "text": "Purchase",
                      "confidence": 0.959
                    },
                    {
                      "boundingBox": [
                        1161,
                        461,
                        1241,
                        461,
                        1240,
                        490,
                        1160,
                        490
                      ],
                      "text": "Order",
                      "confidence": 0.959
                    },
                    {
                      "boundingBox": [
                        1246,
                        461,
                        1278,
                        461,
                        1277,
                        489,
                        1246,
                        489
                      ],
                      "text": "#:",
                      "confidence": 0.959
                    },
                    {
                      "boundingBox": [
                        1283,
                        461,
                        1377,
                        462,
                        1376,
                        488,
                        1282,
                        489
                      ],
                      "text": "948284",
                      "confidence": 0.959
                    }
                  ]
                },
                {
                  "boundingBox": [
                    166,
                    546,
                    397,
                    546,
                    397,
                    594,
                    166,
                    594
                  ],
                  "text": "Shipped To",
                  "words": [
                    {
                      "boundingBox": [
                        167,
                        546,
                        336,
                        548,
                        337,
                        593,
                        168,
                        595
                      ],
                      "text": "Shipped",
                      "confidence": 0.959
                    },
                    {
                      "boundingBox": [
                        346,
                        548,
                        396,
                        548,
                        397,
                        593,
                        347,
                        593
                      ],
                      "text": "To",
                      "confidence": 0.959
                    }
                  ]
                },
                {
                  "boundingBox": [
                    160,
                    608,
                    518,
                    608,
                    518,
                    640,
                    160,
                    640
                  ],
                  "text": "Vendor Name: Hillary Swank",
                  "words": [
                    {
                      "boundingBox": [
                        162,
                        610,
                        257,
                        610,
                        255,
                        640,
                        160,
                        637
                      ],
                      "text": "Vendor",
                      "confidence": 0.959
                    },
                    {
                      "boundingBox": [
                        262,
                        610,
                        347,
                        610,
                        346,
                        641,
                        261,
                        640
                      ],
                      "text": "Name:",
                      "confidence": 0.959
                    },
                    {
                      "boundingBox": [
                        352,
                        610,
                        434,
                        609,
                        433,
                        641,
                        351,
                        641
                      ],
                      "text": "Hillary",
                      "confidence": 0.959
                    },
                    {
                      "boundingBox": [
                        439,
                        609,
                        518,
                        609,
                        517,
                        640,
                        438,
                        641
                      ],
                      "text": "Swank",
                      "confidence": 0.954
                    }
                  ]
                },
                {
                  "boundingBox": [
                    160,
                    648,
                    628,
                    645,
                    629,
                    680,
                    160,
                    682
                  ],
                  "text": "Company Name: Higgly Wiggly Books",
                  "words": [
                    {
                      "boundingBox": [
                        162,
                        648,
                        282,
                        647,
                        281,
                        681,
                        161,
                        678
                      ],
                      "text": "Company",
                      "confidence": 0.959
                    },
                    {
                      "boundingBox": [
                        288,
                        647,
                        373,
                        647,
                        372,
                        682,
                        287,
                        682
                      ],
                      "text": "Name:",
                      "confidence": 0.911
                    },
                    {
                      "boundingBox": [
                        379,
                        647,
                        456,
                        647,
                        455,
                        682,
                        378,
                        682
                      ],
                      "text": "Higgly",
                      "confidence": 0.959
                    },
                    {
                      "boundingBox": [
                        462,
                        647,
                        549,
                        646,
                        548,
                        679,
                        461,
                        682
                      ],
                      "text": "Wiggly",
                      "confidence": 0.959
                    },
                    {
                      "boundingBox": [
                        555,
                        646,
                        629,
                        646,
                        628,
                        676,
                        554,
                        679
                      ],
                      "text": "Books",
                      "confidence": 0.959
                    }
                  ]
                },
                {
                  "boundingBox": [
                    161,
                    684,
                    526,
                    684,
                    526,
                    712,
                    161,
                    712
                  ],
                  "text": "Address: 938 NE Burner Road",
                  "words": [
                    {
                      "boundingBox": [
                        162,
                        685,
                        271,
                        685,
                        271,
                        713,
                        162,
                        712
                      ],
                      "text": "Address:",
                      "confidence": 0.958
                    },
                    {
                      "boundingBox": [
                        277,
                        685,
                        324,
                        685,
                        324,
                        713,
                        277,
                        713
                      ],
                      "text": "938",
                      "confidence": 0.947
                    },
                    {
                      "boundingBox": [
                        330,
                        685,
                        365,
                        685,
                        365,
                        713,
                        329,
                        713
                      ],
                      "text": "NE",
                      "confidence": 0.958
                    },
                    {
                      "boundingBox": [
                        370,
                        685,
                        456,
                        685,
                        456,
                        713,
                        370,
                        713
                      ],
                      "text": "Burner",
                      "confidence": 0.958
                    },
                    {
                      "boundingBox": [
                        462,
                        685,
                        526,
                        686,
                        526,
                        713,
                        461,
                        713
                      ],
                      "text": "Road",
                      "confidence": 0.958
                    }
                  ]
                },
                {
                  "boundingBox": [
                    274,
                    722,
                    603,
                    720,
                    604,
                    751,
                    274,
                    754
                  ],
                  "text": "Boulder City, CO 92848",
                  "words": [
                    {
                      "boundingBox": [
                        279,
                        723,
                        375,
                        721,
                        374,
                        754,
                        278,
                        754
                      ],
                      "text": "Boulder",
                      "confidence": 0.959
                    },
                    {
                      "boundingBox": [
                        381,
                        721,
                        437,
                        721,
                        436,
                        753,
                        380,
                        754
                      ],
                      "text": "City,",
                      "confidence": 0.959
                    },
                    {
                      "boundingBox": [
                        443,
                        721,
                        479,
                        721,
                        478,
                        753,
                        442,
                        753
                      ],
                      "text": "CO",
                      "confidence": 0.886
                    },
                    {
                      "boundingBox": [
                        485,
                        721,
                        568,
                        721,
                        568,
                        751,
                        484,
                        753
                      ],
                      "text": "92848",
                      "confidence": 0.937
                    }
                  ]
                },
                {
                  "boundingBox": [
                    612,
                    721,
                    884,
                    721,
                    884,
                    749,
                    612,
                    749
                  ],
                  "text": "Phone: 938-294-2949",
                  "words": [
                    {
                      "boundingBox": [
                        614,
                        722,
                        707,
                        722,
                        707,
                        750,
                        614,
                        750
                      ],
                      "text": "Phone:",
                      "confidence": 0.952
                    },
                    {
                      "boundingBox": [
                        713,
                        722,
                        884,
                        722,
                        884,
                        749,
                        713,
                        750
                      ],
                      "text": "938-294-2949",
                      "confidence": 0.956
                    }
                  ]
                },
                {
                  "boundingBox": [
                    165,
                    783,
                    451,
                    783,
                    451,
                    827,
                    166,
                    830
                  ],
                  "text": "Shipped From",
                  "words": [
                    {
                      "boundingBox": [
                        167,
                        784,
                        336,
                        784,
                        335,
                        829,
                        166,
                        830
                      ],
                      "text": "Shipped",
                      "confidence": 0.867
                    },
                    {
                      "boundingBox": [
                        345,
                        784,
                        441,
                        783,
                        440,
                        825,
                        344,
                        829
                      ],
                      "text": "From",
                      "confidence": 0.918
                    }
                  ]
                },
                {
                  "boundingBox": [
                    165,
                    851,
                    446,
                    851,
                    446,
                    881,
                    165,
                    880
                  ],
                  "text": "Name: Bernie Sanders",
                  "words": [
                    {
                      "boundingBox": [
                        166,
                        851,
                        252,
                        853,
                        251,
                        880,
                        165,
                        881
                      ],
                      "text": "Name:",
                      "confidence": 0.956
                    },
                    {
                      "boundingBox": [
                        258,
                        853,
                        339,
                        854,
                        337,
                        880,
                        257,
                        880
                      ],
                      "text": "Bernie",
                      "confidence": 0.958
                    },
                    {
                      "boundingBox": [
                        345,
                        854,
                        447,
                        853,
                        445,
                        881,
                        343,
                        880
                      ],
                      "text": "Sanders",
                      "confidence": 0.959
                    }
                  ]
                },
                {
                  "boundingBox": [
                    164,
                    889,
                    629,
                    889,
                    629,
                    920,
                    164,
                    920
                  ],
                  "text": "Company Name: Jupiter Book Supply",
                  "words": [
                    {
                      "boundingBox": [
                        167,
                        891,
                        287,
                        890,
                        287,
                        920,
                        166,
                        920
                      ],
                      "text": "Company",
                      "confidence": 0.958
                    },
                    {
                      "boundingBox": [
                        293,
                        890,
                        376,
                        890,
                        375,
                        921,
                        292,
                        920
                      ],
                      "text": "Name:",
                      "confidence": 0.958
                    },
                    {
                      "boundingBox": [
                        382,
                        890,
                        470,
                        890,
                        469,
                        921,
                        381,
                        921
                      ],
                      "text": "Jupiter",
                      "confidence": 0.958
                    },
                    {
                      "boundingBox": [
                        476,
                        890,
                        540,
                        890,
                        539,
                        921,
                        475,
                        921
                      ],
                      "text": "Book",
                      "confidence": 0.959
                    },
                    {
                      "boundingBox": [
                        546,
                        890,
                        629,
                        890,
                        629,
                        921,
                        545,
                        921
                      ],
                      "text": "Supply",
                      "confidence": 0.947
                    }
                  ]
                },
                {
                  "boundingBox": [
                    164,
                    926,
                    520,
                    926,
                    520,
                    953,
                    164,
                    953
                  ],
                  "text": "Address: 383 N Kinnick Road",
                  "words": [
                    {
                      "boundingBox": [
                        166,
                        927,
                        277,
                        927,
                        277,
                        953,
                        165,
                        954
                      ],
                      "text": "Address:",
                      "confidence": 0.958
                    },
                    {
                      "boundingBox": [
                        283,
                        927,
                        330,
                        927,
                        329,
                        953,
                        282,
                        953
                      ],
                      "text": "383",
                      "confidence": 0.958
                    },
                    {
                      "boundingBox": [
                        335,
                        927,
                        353,
                        927,
                        352,
                        953,
                        334,
                        953
                      ],
                      "text": "N",
                      "confidence": 0.888
                    },
                    {
                      "boundingBox": [
                        362,
                        927,
                        452,
                        927,
                        451,
                        954,
                        361,
                        953
                      ],
                      "text": "Kinnick",
                      "confidence": 0.958
                    },
                    {
                      "boundingBox": [
                        457,
                        927,
                        521,
                        927,
                        521,
                        954,
                        457,
                        954
                      ],
                      "text": "Road",
                      "confidence": 0.959
                    }
                  ]
                },
                {
                  "boundingBox": [
                    280,
                    964,
                    516,
                    964,
                    516,
                    991,
                    280,
                    991
                  ],
                  "text": "Seattle, WA 38383",
                  "words": [
                    {
                      "boundingBox": [
                        284,
                        965,
                        381,
                        965,
                        380,
                        992,
                        283,
                        992
                      ],
                      "text": "Seattle,",
                      "confidence": 0.959
                    },
                    {
                      "boundingBox": [
                        386,
                        965,
                        432,
                        965,
                        431,
                        992,
                        385,
                        992
                      ],
                      "text": "WA",
                      "confidence": 0.944
                    },
                    {
                      "boundingBox": [
                        438,
                        965,
                        516,
                        964,
                        515,
                        991,
                        437,
                        992
                      ],
                      "text": "38383",
                      "confidence": 0.959
                    }
                  ]
                },
                {
                  "boundingBox": [
                    759,
                    963,
                    1036,
                    963,
                    1036,
                    991,
                    759,
                    991
                  ],
                  "text": "Phone: 932-299-0292",
                  "words": [
                    {
                      "boundingBox": [
                        761,
                        964,
                        854,
                        963,
                        852,
                        991,
                        760,
                        990
                      ],
                      "text": "Phone:",
                      "confidence": 0.959
                    },
                    {
                      "boundingBox": [
                        859,
                        963,
                        1034,
                        964,
                        1032,
                        991,
                        857,
                        991
                      ],
                      "text": "932-299-0292",
                      "confidence": 0.953
                    }
                  ]
                },
                {
                  "boundingBox": [
                    447,
                    1045,
                    557,
                    1045,
                    557,
                    1079,
                    447,
                    1079
                  ],
                  "text": "Details",
                  "words": [
                    {
                      "boundingBox": [
                        448,
                        1048,
                        555,
                        1046,
                        556,
                        1080,
                        449,
                        1079
                      ],
                      "text": "Details",
                      "confidence": 0.959
                    }
                  ]
                },
                {
                  "boundingBox": [
                    889,
                    1045,
                    1030,
                    1046,
                    1030,
                    1084,
                    889,
                    1084
                  ],
                  "text": "Quantity",
                  "words": [
                    {
                      "boundingBox": [
                        889,
                        1046,
                        1029,
                        1046,
                        1027,
                        1084,
                        890,
                        1083
                      ],
                      "text": "Quantity",
                      "confidence": 0.959
                    }
                  ]
                },
                {
                  "boundingBox": [
                    1114,
                    1046,
                    1271,
                    1047,
                    1271,
                    1078,
                    1114,
                    1077
                  ],
                  "text": "Unit Price",
                  "words": [
                    {
                      "boundingBox": [
                        1114,
                        1048,
                        1184,
                        1047,
                        1184,
                        1078,
                        1114,
                        1078
                      ],
                      "text": "Unit",
                      "confidence": 0.959
                    },
                    {
                      "boundingBox": [
                        1190,
                        1047,
                        1271,
                        1047,
                        1271,
                        1079,
                        1190,
                        1078
                      ],
                      "text": "Price",
                      "confidence": 0.958
                    }
                  ]
                },
                {
                  "boundingBox": [
                    1384,
                    1047,
                    1469,
                    1046,
                    1470,
                    1076,
                    1385,
                    1077
                  ],
                  "text": "Total",
                  "words": [
                    {
                      "boundingBox": [
                        1387,
                        1047,
                        1470,
                        1046,
                        1470,
                        1076,
                        1387,
                        1077
                      ],
                      "text": "Total",
                      "confidence": 0.858
                    }
                  ]
                },
                {
                  "boundingBox": [
                    172,
                    1094,
                    280,
                    1096,
                    279,
                    1124,
                    172,
                    1121
                  ],
                  "text": "Bindings",
                  "words": [
                    {
                      "boundingBox": [
                        172,
                        1094,
                        278,
                        1097,
                        278,
                        1124,
                        172,
                        1121
                      ],
                      "text": "Bindings",
                      "confidence": 0.959
                    }
                  ]
                },
                {
                  "boundingBox": [
                    859,
                    1091,
                    894,
                    1089,
                    895,
                    1118,
                    860,
                    1120
                  ],
                  "text": "20",
                  "words": [
                    {
                      "boundingBox": [
                        861,
                        1091,
                        893,
                        1089,
                        895,
                        1118,
                        863,
                        1120
                      ],
                      "text": "20",
                      "confidence": 0.958
                    }
                  ]
                },
                {
                  "boundingBox": [
                    1241,
                    1095,
                    1296,
                    1094,
                    1296,
                    1118,
                    1241,
                    1118
                  ],
                  "text": "1.00",
                  "words": [
                    {
                      "boundingBox": [
                        1242,
                        1094,
                        1295,
                        1094,
                        1295,
                        1118,
                        1242,
                        1118
                      ],
                      "text": "1.00",
                      "confidence": 0.958
                    }
                  ]
                },
                {
                  "boundingBox": [
                    1459,
                    1095,
                    1531,
                    1093,
                    1531,
                    1118,
                    1459,
                    1119
                  ],
                  "text": "20.00",
                  "words": [
                    {
                      "boundingBox": [
                        1459,
                        1094,
                        1530,
                        1093,
                        1531,
                        1118,
                        1460,
                        1119
                      ],
                      "text": "20.00",
                      "confidence": 0.957
                    }
                  ]
                },
                {
                  "boundingBox": [
                    169,
                    1135,
                    329,
                    1134,
                    329,
                    1162,
                    169,
                    1163
                  ],
                  "text": "Covers Small",
                  "words": [
                    {
                      "boundingBox": [
                        173,
                        1135,
                        257,
                        1135,
                        256,
                        1163,
                        172,
                        1163
                      ],
                      "text": "Covers",
                      "confidence": 0.959
                    },
                    {
                      "boundingBox": [
                        262,
                        1135,
                        329,
                        1134,
                        328,
                        1163,
                        262,
                        1163
                      ],
                      "text": "Small",
                      "confidence": 0.958
                    }
                  ]
                },
                {
                  "boundingBox": [
                    860,
                    1137,
                    893,
                    1135,
                    893,
                    1158,
                    861,
                    1160
                  ],
                  "text": "20",
                  "words": [
                    {
                      "boundingBox": [
                        862,
                        1137,
                        892,
                        1135,
                        893,
                        1158,
                        863,
                        1160
                      ],
                      "text": "20",
                      "confidence": 0.958
                    }
                  ]
                },
                {
                  "boundingBox": [
                    1239,
                    1136,
                    1294,
                    1135,
                    1294,
                    1159,
                    1239,
                    1159
                  ],
                  "text": "1.00",
                  "words": [
                    {
                      "boundingBox": [
                        1243,
                        1135,
                        1293,
                        1135,
                        1293,
                        1159,
                        1243,
                        1159
                      ],
                      "text": "1.00",
                      "confidence": 0.908
                    }
                  ]
                },
                {
                  "boundingBox": [
                    1457,
                    1136,
                    1532,
                    1135,
                    1532,
                    1159,
                    1457,
                    1160
                  ],
                  "text": "20.00",
                  "words": [
                    {
                      "boundingBox": [
                        1459,
                        1136,
                        1529,
                        1135,
                        1530,
                        1160,
                        1459,
                        1160
                      ],
                      "text": "20.00",
                      "confidence": 0.958
                    }
                  ]
                },
                {
                  "boundingBox": [
                    170,
                    1179,
                    400,
                    1178,
                    400,
                    1205,
                    170,
                    1206
                  ],
                  "text": "Feather Bookmark",
                  "words": [
                    {
                      "boundingBox": [
                        172,
                        1180,
                        271,
                        1180,
                        270,
                        1206,
                        171,
                        1206
                      ],
                      "text": "Feather",
                      "confidence": 0.959
                    },
                    {
                      "boundingBox": [
                        276,
                        1180,
                        401,
                        1179,
                        400,
                        1206,
                        275,
                        1206
                      ],
                      "text": "Bookmark",
                      "confidence": 0.949
                    }
                  ]
                },
                {
                  "boundingBox": [
                    863,
                    1181,
                    893,
                    1180,
                    893,
                    1202,
                    863,
                    1203
                  ],
                  "text": "20",
                  "words": [
                    {
                      "boundingBox": [
                        863,
                        1181,
                        892,
                        1180,
                        892,
                        1202,
                        863,
                        1203
                      ],
                      "text": "20",
                      "confidence": 0.958
                    }
                  ]
                },
                {
                  "boundingBox": [
                    1239,
                    1179,
                    1295,
                    1179,
                    1295,
                    1202,
                    1239,
                    1202
                  ],
                  "text": "5,00",
                  "words": [
                    {
                      "boundingBox": [
                        1241,
                        1179,
                        1294,
                        1179,
                        1294,
                        1202,
                        1241,
                        1202
                      ],
                      "text": "5,00",
                      "confidence": 0.423
                    }
                  ]
                },
                {
                  "boundingBox": [
                    1443,
                    1180,
                    1531,
                    1179,
                    1532,
                    1203,
                    1443,
                    1204
                  ],
                  "text": "100.00",
                  "words": [
                    {
                      "boundingBox": [
                        1446,
                        1181,
                        1530,
                        1180,
                        1529,
                        1203,
                        1446,
                        1204
                      ],
                      "text": "100.00",
                      "confidence": 0.959
                    }
                  ]
                },
                {
                  "boundingBox": [
                    168,
                    1222,
                    429,
                    1221,
                    429,
                    1250,
                    168,
                    1252
                  ],
                  "text": "Copper Swirl Marker",
                  "words": [
                    {
                      "boundingBox": [
                        173,
                        1223,
                        263,
                        1222,
                        263,
                        1252,
                        172,
                        1253
                      ],
                      "text": "Copper",
                      "confidence": 0.959
                    },
                    {
                      "boundingBox": [
                        269,
                        1222,
                        332,
                        1222,
                        332,
                        1251,
                        269,
                        1252
                      ],
                      "text": "Swirl",
                      "confidence": 0.954
                    },
                    {
                      "boundingBox": [
                        338,
                        1222,
                        430,
                        1222,
                        430,
                        1249,
                        338,
                        1251
                      ],
                      "text": "Marker",
                      "confidence": 0.956
                    }
                  ]
                },
                {
                  "boundingBox": [
                    861,
                    1223,
                    893,
                    1222,
                    893,
                    1246,
                    861,
                    1248
                  ],
                  "text": "20",
                  "words": [
                    {
                      "boundingBox": [
                        861,
                        1223,
                        892,
                        1222,
                        893,
                        1246,
                        862,
                        1247
                      ],
                      "text": "20",
                      "confidence": 0.958
                    }
                  ]
                },
                {
                  "boundingBox": [
                    1240,
                    1222,
                    1295,
                    1223,
                    1295,
                    1246,
                    1240,
                    1245
                  ],
                  "text": "5,00",
                  "words": [
                    {
                      "boundingBox": [
                        1241,
                        1222,
                        1294,
                        1223,
                        1293,
                        1246,
                        1240,
                        1245
                      ],
                      "text": "5,00",
                      "confidence": 0.424
                    }
                  ]
                },
                {
                  "boundingBox": [
                    1443,
                    1222,
                    1531,
                    1222,
                    1531,
                    1247,
                    1443,
                    1247
                  ],
                  "text": "100.00",
                  "words": [
                    {
                      "boundingBox": [
                        1445,
                        1223,
                        1529,
                        1222,
                        1529,
                        1248,
                        1444,
                        1248
                      ],
                      "text": "100.00",
                      "confidence": 0.959
                    }
                  ]
                },
                {
                  "boundingBox": [
                    1148,
                    1574,
                    1296,
                    1574,
                    1296,
                    1599,
                    1148,
                    1599
                  ],
                  "text": "SUBTOTAL",
                  "words": [
                    {
                      "boundingBox": [
                        1149,
                        1574,
                        1295,
                        1575,
                        1295,
                        1600,
                        1149,
                        1600
                      ],
                      "text": "SUBTOTAL",
                      "confidence": 0.959
                    }
                  ]
                },
                {
                  "boundingBox": [
                    1428,
                    1571,
                    1530,
                    1570,
                    1531,
                    1598,
                    1428,
                    1599
                  ],
                  "text": "$140.00",
                  "words": [
                    {
                      "boundingBox": [
                        1429,
                        1572,
                        1530,
                        1570,
                        1529,
                        1599,
                        1429,
                        1599
                      ],
                      "text": "$140.00",
                      "confidence": 0.957
                    }
                  ]
                },
                {
                  "boundingBox": [
                    1238,
                    1619,
                    1295,
                    1618,
                    1295,
                    1642,
                    1237,
                    1642
                  ],
                  "text": "TAX",
                  "words": [
                    {
                      "boundingBox": [
                        1241,
                        1618,
                        1294,
                        1618,
                        1294,
                        1641,
                        1241,
                        1642
                      ],
                      "text": "TAX",
                      "confidence": 0.958
                    }
                  ]
                },
                {
                  "boundingBox": [
                    1460,
                    1616,
                    1531,
                    1614,
                    1531,
                    1641,
                    1460,
                    1641
                  ],
                  "text": "$4.00",
                  "words": [
                    {
                      "boundingBox": [
                        1461,
                        1615,
                        1530,
                        1614,
                        1530,
                        1641,
                        1461,
                        1642
                      ],
                      "text": "$4.00",
                      "confidence": 0.939
                    }
                  ]
                },
                {
                  "boundingBox": [
                    481,
                    1670,
                    764,
                    1670,
                    764,
                    1708,
                    481,
                    1708
                  ],
                  "text": "Bernie Sanders",
                  "words": [
                    {
                      "boundingBox": [
                        483,
                        1672,
                        603,
                        1671,
                        602,
                        1707,
                        482,
                        1707
                      ],
                      "text": "Bernie",
                      "confidence": 0.909
                    },
                    {
                      "boundingBox": [
                        614,
                        1671,
                        764,
                        1670,
                        763,
                        1709,
                        613,
                        1708
                      ],
                      "text": "Sanders",
                      "confidence": 0.958
                    }
                  ]
                },
                {
                  "boundingBox": [
                    1204,
                    1672,
                    1296,
                    1672,
                    1296,
                    1699,
                    1204,
                    1699
                  ],
                  "text": "TOTAL",
                  "words": [
                    {
                      "boundingBox": [
                        1207,
                        1674,
                        1295,
                        1672,
                        1296,
                        1700,
                        1207,
                        1699
                      ],
                      "text": "TOTAL",
                      "confidence": 0.959
                    }
                  ]
                },
                {
                  "boundingBox": [
                    1426,
                    1670,
                    1530,
                    1669,
                    1530,
                    1695,
                    1426,
                    1697
                  ],
                  "text": "$144.00",
                  "words": [
                    {
                      "boundingBox": [
                        1429,
                        1671,
                        1529,
                        1669,
                        1530,
                        1696,
                        1429,
                        1697
                      ],
                      "text": "$144.00",
                      "confidence": 0.949
                    }
                  ]
                },
                {
                  "boundingBox": [
                    543,
                    1718,
                    716,
                    1719,
                    716,
                    1743,
                    543,
                    1742
                  ],
                  "text": "Bernie Sanders",
                  "words": [
                    {
                      "boundingBox": [
                        544,
                        1719,
                        621,
                        1719,
                        621,
                        1743,
                        544,
                        1743
                      ],
                      "text": "Bernie",
                      "confidence": 0.959
                    },
                    {
                      "boundingBox": [
                        626,
                        1719,
                        717,
                        1720,
                        716,
                        1744,
                        626,
                        1743
                      ],
                      "text": "Sanders",
                      "confidence": 0.959
                    }
                  ]
                },
                {
                  "boundingBox": [
                    581,
                    1754,
                    681,
                    1756,
                    680,
                    1777,
                    581,
                    1776
                  ],
                  "text": "Manager",
                  "words": [
                    {
                      "boundingBox": [
                        582,
                        1755,
                        681,
                        1756,
                        680,
                        1778,
                        581,
                        1776
                      ],
                      "text": "Manager",
                      "confidence": 0.957
                    }
                  ]
                },
                {
                  "boundingBox": [
                    173,
                    1796,
                    480,
                    1797,
                    480,
                    1832,
                    173,
                    1830
                  ],
                  "text": "Additional Notes:",
                  "words": [
                    {
                      "boundingBox": [
                        175,
                        1798,
                        360,
                        1797,
                        360,
                        1833,
                        174,
                        1830
                      ],
                      "text": "Additional",
                      "confidence": 0.959
                    },
                    {
                      "boundingBox": [
                        366,
                        1797,
                        481,
                        1800,
                        481,
                        1832,
                        366,
                        1833
                      ],
                      "text": "Notes:",
                      "confidence": 0.944
                    }
                  ]
                },
                {
                  "boundingBox": [
                    173,
                    1879,
                    705,
                    1880,
                    705,
                    1912,
                    173,
                    1910
                  ],
                  "text": "Do not Jostle Box. Unpack carefully. Enjoy.",
                  "words": [
                    {
                      "boundingBox": [
                        176,
                        1883,
                        209,
                        1882,
                        208,
                        1907,
                        174,
                        1906
                      ],
                      "text": "Do",
                      "confidence": 0.959
                    },
                    {
                      "boundingBox": [
                        215,
                        1882,
                        261,
                        1881,
                        260,
                        1908,
                        214,
                        1907
                      ],
                      "text": "not",
                      "confidence": 0.951
                    },
                    {
                      "boundingBox": [
                        266,
                        1881,
                        336,
                        1881,
                        335,
                        1909,
                        265,
                        1908
                      ],
                      "text": "Jostle",
                      "confidence": 0.958
                    },
                    {
                      "boundingBox": [
                        342,
                        1881,
                        403,
                        1880,
                        402,
                        1910,
                        341,
                        1909
                      ],
                      "text": "Box.",
                      "confidence": 0.892
                    },
                    {
                      "boundingBox": [
                        410,
                        1880,
                        504,
                        1880,
                        503,
                        1912,
                        408,
                        1911
                      ],
                      "text": "Unpack",
                      "confidence": 0.959
                    },
                    {
                      "boundingBox": [
                        510,
                        1880,
                        628,
                        1880,
                        627,
                        1913,
                        509,
                        1912
                      ],
                      "text": "carefully.",
                      "confidence": 0.958
                    },
                    {
                      "boundingBox": [
                        633,
                        1880,
                        705,
                        1881,
                        704,
                        1913,
                        632,
                        1913
                      ],
                      "text": "Enjoy.",
                      "confidence": 0.959
                    }
                  ]
                },
                {
                  "boundingBox": [
                    172,
                    1923,
                    1508,
                    1924,
                    1508,
                    1959,
                    172,
                    1959
                  ],
                  "text": "Jupiter Book Supply will refund you 50% per book if returned within 60 days of reading and",
                  "words": [
                    {
                      "boundingBox": [
                        172,
                        1925,
                        273,
                        1925,
                        273,
                        1959,
                        172,
                        1959
                      ],
                      "text": "Jupiter",
                      "confidence": 0.955
                    },
                    {
                      "boundingBox": [
                        280,
                        1924,
                        359,
                        1924,
                        359,
                        1959,
                        280,
                        1959
                      ],
                      "text": "Book",
                      "confidence": 0.959
                    },
                    {
                      "boundingBox": [
                        366,
                        1924,
                        468,
                        1924,
                        467,
                        1959,
                        366,
                        1959
                      ],
                      "text": "Supply",
                      "confidence": 0.959
                    },
                    {
                      "boundingBox": [
                        474,
                        1924,
                        522,
                        1924,
                        521,
                        1959,
                        474,
                        1959
                      ],
                      "text": "will",
                      "confidence": 0.959
                    },
                    {
                      "boundingBox": [
                        529,
                        1924,
                        628,
                        1924,
                        628,
                        1959,
                        528,
                        1959
                      ],
                      "text": "refund",
                      "confidence": 0.958
                    },
                    {
                      "boundingBox": [
                        635,
                        1924,
                        692,
                        1924,
                        691,
                        1959,
                        634,
                        1959
                      ],
                      "text": "you",
                      "confidence": 0.958
                    },
                    {
                      "boundingBox": [
                        698,
                        1924,
                        762,
                        1924,
                        761,
                        1959,
                        698,
                        1959
                      ],
                      "text": "50%",
                      "confidence": 0.955
                    },
                    {
                      "boundingBox": [
                        773,
                        1924,
                        823,
                        1924,
                        822,
                        1959,
                        772,
                        1959
                      ],
                      "text": "per",
                      "confidence": 0.958
                    },
                    {
                      "boundingBox": [
                        830,
                        1924,
                        904,
                        1924,
                        903,
                        1959,
                        829,
                        1959
                      ],
                      "text": "book",
                      "confidence": 0.959
                    },
                    {
                      "boundingBox": [
                        911,
                        1924,
                        932,
                        1924,
                        931,
                        1959,
                        910,
                        1959
                      ],
                      "text": "if",
                      "confidence": 0.909
                    },
                    {
                      "boundingBox": [
                        938,
                        1924,
                        1065,
                        1924,
                        1064,
                        1959,
                        937,
                        1959
                      ],
                      "text": "returned",
                      "confidence": 0.959
                    },
                    {
                      "boundingBox": [
                        1072,
                        1924,
                        1160,
                        1924,
                        1159,
                        1959,
                        1071,
                        1959
                      ],
                      "text": "within",
                      "confidence": 0.959
                    },
                    {
                      "boundingBox": [
                        1167,
                        1924,
                        1208,
                        1924,
                        1206,
                        1960,
                        1166,
                        1959
                      ],
                      "text": "60",
                      "confidence": 0.929
                    },
                    {
                      "boundingBox": [
                        1215,
                        1924,
                        1287,
                        1924,
                        1285,
                        1960,
                        1213,
                        1960
                      ],
                      "text": "days",
                      "confidence": 0.959
                    },
                    {
                      "boundingBox": [
                        1294,
                        1924,
                        1323,
                        1924,
                        1322,
                        1960,
                        1292,
                        1960
                      ],
                      "text": "of",
                      "confidence": 0.958
                    },
                    {
                      "boundingBox": [
                        1330,
                        1924,
                        1443,
                        1924,
                        1441,
                        1960,
                        1328,
                        1960
                      ],
                      "text": "reading",
                      "confidence": 0.959
                    },
                    {
                      "boundingBox": [
                        1450,
                        1924,
                        1508,
                        1924,
                        1506,
                        1960,
                        1448,
                        1960
                      ],
                      "text": "and",
                      "confidence": 0.958
                    }
                  ]
                },
                {
                  "boundingBox": [
                    169,
                    1957,
                    786,
                    1957,
                    786,
                    1993,
                    169,
                    1993
                  ],
                  "text": "offer you 25% off you next total purchase.",
                  "words": [
                    {
                      "boundingBox": [
                        171,
                        1959,
                        239,
                        1958,
                        238,
                        1992,
                        170,
                        1991
                      ],
                      "text": "offer",
                      "confidence": 0.959
                    },
                    {
                      "boundingBox": [
                        245,
                        1958,
                        302,
                        1958,
                        300,
                        1993,
                        244,
                        1992
                      ],
                      "text": "you",
                      "confidence": 0.959
                    },
                    {
                      "boundingBox": [
                        308,
                        1958,
                        371,
                        1958,
                        369,
                        1994,
                        307,
                        1993
                      ],
                      "text": "25%",
                      "confidence": 0.934
                    },
                    {
                      "boundingBox": [
                        385,
                        1958,
                        425,
                        1958,
                        424,
                        1994,
                        384,
                        1994
                      ],
                      "text": "off",
                      "confidence": 0.958
                    },
                    {
                      "boundingBox": [
                        431,
                        1958,
                        488,
                        1958,
                        487,
                        1994,
                        430,
                        1994
                      ],
                      "text": "you",
                      "confidence": 0.959
                    },
                    {
                      "boundingBox": [
                        494,
                        1958,
                        559,
                        1958,
                        558,
                        1994,
                        493,
                        1994
                      ],
                      "text": "next",
                      "confidence": 0.959
                    },
                    {
                      "boundingBox": [
                        565,
                        1958,
                        632,
                        1959,
                        631,
                        1993,
                        564,
                        1994
                      ],
                      "text": "total",
                      "confidence": 0.959
                    },
                    {
                      "boundingBox": [
                        638,
                        1959,
                        785,
                        1960,
                        785,
                        1990,
                        637,
                        1993
                      ],
                      "text": "purchase.",
                      "confidence": 0.959
                    }
                  ]
                }
              ]
            }
          ],
          "pageResults": [
            {
              "page": 1,
              "tables": [
                {
                  "rows": 4,
                  "columns": 3,
                  "cells": [
                    {
                      "rowIndex": 1,
                      "columnIndex": 1,
                      "text": "SUBTOTAL",
                      "boundingBox": [
                        1072,
                        1566,
                        1309,
                        1566,
                        1309,
                        1610,
                        1072,
                        1610
                      ],
                      "elements": [
                        "#/readResults/0/lines/41/words/0"
                      ]
                    },
                    {
                      "rowIndex": 1,
                      "columnIndex": 2,
                      "text": "$140.00",
                      "boundingBox": [
                        1309,
                        1566,
                        1544,
                        1566,
                        1544,
                        1610,
                        1309,
                        1610
                      ],
                      "elements": [
                        "#/readResults/0/lines/42/words/0"
                      ]
                    },
                    {
                      "rowIndex": 2,
                      "columnIndex": 1,
                      "text": "TAX",
                      "boundingBox": [
                        1072,
                        1610,
                        1309,
                        1610,
                        1309,
                        1658,
                        1072,
                        1658
                      ],
                      "elements": [
                        "#/readResults/0/lines/43/words/0"
                      ]
                    },
                    {
                      "rowIndex": 2,
                      "columnIndex": 2,
                      "text": "$4.00",
                      "boundingBox": [
                        1309,
                        1610,
                        1544,
                        1610,
                        1544,
                        1658,
                        1309,
                        1658
                      ],
                      "elements": [
                        "#/readResults/0/lines/44/words/0"
                      ]
                    },
                    {
                      "rowIndex": 3,
                      "columnIndex": 0,
                      "text": "Bernie Sanders",
                      "boundingBox": [
                        482,
                        1658,
                        1072,
                        1658,
                        1072,
                        1708,
                        482,
                        1708
                      ],
                      "elements": [
                        "#/readResults/0/lines/45/words/0",
                        "#/readResults/0/lines/45/words/1"
                      ]
                    },
                    {
                      "rowIndex": 3,
                      "columnIndex": 1,
                      "text": "TOTAL",
                      "boundingBox": [
                        1072,
                        1658,
                        1309,
                        1658,
                        1309,
                        1708,
                        1072,
                        1708
                      ],
                      "elements": [
                        "#/readResults/0/lines/46/words/0"
                      ]
                    },
                    {
                      "rowIndex": 3,
                      "columnIndex": 2,
                      "text": "$144.00",
                      "boundingBox": [
                        1309,
                        1658,
                        1544,
                        1658,
                        1544,
                        1708,
                        1309,
                        1708
                      ],
                      "elements": [
                        "#/readResults/0/lines/47/words/0"
                      ]
                    }
                  ]
                },
                {
                  "rows": 6,
                  "columns": 4,
                  "cells": [
                    {
                      "rowIndex": 0,
                      "columnIndex": 0,
                      "text": "Details",
                      "boundingBox": [
                        156,
                        1038,
                        847,
                        1038,
                        847,
                        1087,
                        156,
                        1087
                      ],
                      "elements": [
                        "#/readResults/0/lines/21/words/0"
                      ]
                    },
                    {
                      "rowIndex": 0,
                      "columnIndex": 1,
                      "text": "Quantity",
                      "boundingBox": [
                        847,
                        1038,
                        1072,
                        1038,
                        1072,
                        1087,
                        847,
                        1087
                      ],
                      "elements": [
                        "#/readResults/0/lines/22/words/0"
                      ]
                    },
                    {
                      "rowIndex": 0,
                      "columnIndex": 2,
                      "text": "Unit Price",
                      "boundingBox": [
                        1072,
                        1038,
                        1309,
                        1038,
                        1309,
                        1087,
                        1072,
                        1087
                      ],
                      "elements": [
                        "#/readResults/0/lines/23/words/0",
                        "#/readResults/0/lines/23/words/1"
                      ]
                    },
                    {
                      "rowIndex": 0,
                      "columnIndex": 3,
                      "text": "Total",
                      "boundingBox": [
                        1309,
                        1038,
                        1544,
                        1038,
                        1544,
                        1087,
                        1309,
                        1087
                      ],
                      "elements": [
                        "#/readResults/0/lines/24/words/0"
                      ]
                    },
                    {
                      "rowIndex": 1,
                      "columnIndex": 0,
                      "text": "Bindings",
                      "boundingBox": [
                        156,
                        1087,
                        847,
                        1087,
                        847,
                        1128,
                        156,
                        1128
                      ],
                      "elements": [
                        "#/readResults/0/lines/25/words/0"
                      ]
                    },
                    {
                      "rowIndex": 1,
                      "columnIndex": 1,
                      "text": "20",
                      "boundingBox": [
                        847,
                        1087,
                        1072,
                        1087,
                        1072,
                        1128,
                        847,
                        1128
                      ],
                      "elements": [
                        "#/readResults/0/lines/26/words/0"
                      ]
                    },
                    {
                      "rowIndex": 1,
                      "columnIndex": 2,
                      "text": "1.00",
                      "boundingBox": [
                        1072,
                        1087,
                        1309,
                        1087,
                        1309,
                        1128,
                        1072,
                        1128
                      ],
                      "elements": [
                        "#/readResults/0/lines/27/words/0"
                      ]
                    },
                    {
                      "rowIndex": 1,
                      "columnIndex": 3,
                      "text": "20.00",
                      "boundingBox": [
                        1309,
                        1087,
                        1544,
                        1087,
                        1544,
                        1128,
                        1309,
                        1128
                      ],
                      "elements": [
                        "#/readResults/0/lines/28/words/0"
                      ]
                    },
                    {
                      "rowIndex": 2,
                      "columnIndex": 0,
                      "text": "Covers Small",
                      "boundingBox": [
                        156,
                        1128,
                        847,
                        1128,
                        847,
                        1172,
                        156,
                        1172
                      ],
                      "elements": [
                        "#/readResults/0/lines/29/words/0",
                        "#/readResults/0/lines/29/words/1"
                      ]
                    },
                    {
                      "rowIndex": 2,
                      "columnIndex": 1,
                      "text": "20",
                      "boundingBox": [
                        847,
                        1128,
                        1072,
                        1128,
                        1072,
                        1172,
                        847,
                        1172
                      ],
                      "elements": [
                        "#/readResults/0/lines/30/words/0"
                      ]
                    },
                    {
                      "rowIndex": 2,
                      "columnIndex": 2,
                      "text": "1.00",
                      "boundingBox": [
                        1072,
                        1128,
                        1309,
                        1128,
                        1309,
                        1172,
                        1072,
                        1172
                      ],
                      "elements": [
                        "#/readResults/0/lines/31/words/0"
                      ]
                    },
                    {
                      "rowIndex": 2,
                      "columnIndex": 3,
                      "text": "20.00",
                      "boundingBox": [
                        1309,
                        1128,
                        1544,
                        1128,
                        1544,
                        1172,
                        1309,
                        1172
                      ],
                      "elements": [
                        "#/readResults/0/lines/32/words/0"
                      ]
                    },
                    {
                      "rowIndex": 3,
                      "columnIndex": 0,
                      "text": "Feather Bookmark",
                      "boundingBox": [
                        156,
                        1172,
                        847,
                        1172,
                        847,
                        1216,
                        156,
                        1216
                      ],
                      "elements": [
                        "#/readResults/0/lines/33/words/0",
                        "#/readResults/0/lines/33/words/1"
                      ]
                    },
                    {
                      "rowIndex": 3,
                      "columnIndex": 1,
                      "text": "20",
                      "boundingBox": [
                        847,
                        1172,
                        1072,
                        1172,
                        1072,
                        1216,
                        847,
                        1216
                      ],
                      "elements": [
                        "#/readResults/0/lines/34/words/0"
                      ]
                    },
                    {
                      "rowIndex": 3,
                      "columnIndex": 2,
                      "text": "5,00",
                      "boundingBox": [
                        1072,
                        1172,
                        1309,
                        1172,
                        1309,
                        1216,
                        1072,
                        1216
                      ],
                      "elements": [
                        "#/readResults/0/lines/35/words/0"
                      ]
                    },
                    {
                      "rowIndex": 3,
                      "columnIndex": 3,
                      "text": "100.00",
                      "boundingBox": [
                        1309,
                        1172,
                        1544,
                        1172,
                        1544,
                        1216,
                        1309,
                        1216
                      ],
                      "elements": [
                        "#/readResults/0/lines/36/words/0"
                      ]
                    },
                    {
                      "rowIndex": 4,
                      "columnIndex": 0,
                      "text": "Copper Swirl Marker",
                      "boundingBox": [
                        156,
                        1216,
                        847,
                        1216,
                        847,
                        1260,
                        156,
                        1260
                      ],
                      "elements": [
                        "#/readResults/0/lines/37/words/0",
                        "#/readResults/0/lines/37/words/1",
                        "#/readResults/0/lines/37/words/2"
                      ]
                    },
                    {
                      "rowIndex": 4,
                      "columnIndex": 1,
                      "text": "20",
                      "boundingBox": [
                        847,
                        1216,
                        1072,
                        1216,
                        1072,
                        1260,
                        847,
                        1260
                      ],
                      "elements": [
                        "#/readResults/0/lines/38/words/0"
                      ]
                    },
                    {
                      "rowIndex": 4,
                      "columnIndex": 2,
                      "text": "5,00",
                      "boundingBox": [
                        1072,
                        1216,
                        1309,
                        1216,
                        1309,
                        1260,
                        1072,
                        1260
                      ],
                      "elements": [
                        "#/readResults/0/lines/39/words/0"
                      ]
                    },
                    {
                      "rowIndex": 4,
                      "columnIndex": 3,
                      "text": "100.00",
                      "boundingBox": [
                        1309,
                        1216,
                        1544,
                        1216,
                        1544,
                        1260,
                        1309,
                        1260
                      ],
                      "elements": [
                        "#/readResults/0/lines/40/words/0"
                      ]
                    }
                  ]
                }
              ]
            }
          ]
        }
      }
    }
  ],
  "Variables": {
    "FORM_RECOGNIZER_API_KEY": "Sanitized",
    "FORM_RECOGNIZER_ENDPOINT": "https://mariari-westus2-formrecognizer.cognitiveservices.azure.com/",
    "RandomSeed": "108641882"
  }
}