{
  "Entries": [
    {
      "RequestUri": "https://mariari-westus2-formrecognizer.cognitiveservices.azure.com/formrecognizer/v2.0/layout/analyze",
      "RequestMethod": "POST",
      "RequestHeaders": {
        "Content-Length": "22",
        "Content-Type": "application/json",
        "Ocp-Apim-Subscription-Key": "Sanitized",
        "traceparent": "00-31f6d5dac78d044f80727015be61ec75-ad9065553bf1b243-00",
        "User-Agent": [
          "azsdk-net-AI.FormRecognizer/3.0.0-dev.20200806.1",
          "(.NET Core 4.6.28516.03; Microsoft Windows 10.0.18363 )"
        ],
        "x-ms-client-request-id": "86a0eed841d8a6ffcead5e22d16fb688",
        "x-ms-return-client-request-id": "true"
      },
      "RequestBody": {
        "source": "Sanitized"
      },
      "StatusCode": 400,
      "ResponseHeaders": {
        "apim-request-id": "c9c95fdc-0970-4d6e-8d89-53d330822acc",
        "Content-Type": "application/json; charset=utf-8",
        "Date": "Fri, 07 Aug 2020 02:13:55 GMT",
        "Strict-Transport-Security": "max-age=31536000; includeSubDomains; preload",
        "Transfer-Encoding": "chunked",
        "X-Content-Type-Options": "nosniff",
        "x-envoy-upstream-service-time": "641"
      },
      "ResponseBody": {
        "error": {
          "code": "FailedToDownloadImage",
          "message": "Failed to download image from input URL."
        }
      }
    }
  ],
  "Variables": {
    "FORM_RECOGNIZER_API_KEY": "Sanitized",
    "FORM_RECOGNIZER_ENDPOINT": "https://mariari-westus2-formrecognizer.cognitiveservices.azure.com/",
    "RandomSeed": "1678482847"
  }
}