{
  "Entries": [
    {
      "RequestUri": "https://t-kerlee-cloudevent-topic.westus-1.eventgrid.azure.net/api/events?api-version=2018-01-01",
      "RequestMethod": "POST",
      "RequestHeaders": {
        "aeg-sas-key": "Sanitized",
        "Content-Length": "1921",
        "Content-Type": "application/cloudevents-batch\u002Bjson; charset=utf-8",
        "traceparent": "00-65a083ec4b3ac943a2a6ed4295fa7fc7-484356c7f71c1e46-00",
        "User-Agent": [
          "azsdk-net-Messaging.EventGrid/4.0.0-dev.20200802.1",
          "(.NET Core 4.6.29017.01; Microsoft Windows 10.0.18363 )"
        ],
        "x-ms-client-request-id": "11a9f32cc8f531497e66023992c35fec",
        "x-ms-return-client-request-id": "true"
      },
      "RequestBody": "[{\u0022id\u0022:\u002246459ea1-2bdc-c306-acb3-843738c1f463\u0022,\u0022source\u0022:\u0022record\u0022,\u0022type\u0022:\u0022Microsoft.MockPublisher.TestEvent\u0022,\u0022time\u0022:\u00222020-08-02T12:22:41.9982765-05:00\u0022,\u0022specversion\u0022:\u00221.0\u0022,\u0022subject\u0022:\u0022Subject-0\u0022},{\u0022id\u0022:\u0022fe2110c2-b23c-9448-fbe0-7bf2bf94bac6\u0022,\u0022source\u0022:\u0022record\u0022,\u0022type\u0022:\u0022Microsoft.MockPublisher.TestEvent\u0022,\u0022time\u0022:\u00222020-08-02T12:22:41.9982765-05:00\u0022,\u0022specversion\u0022:\u00221.0\u0022,\u0022subject\u0022:\u0022Subject-1\u0022},{\u0022id\u0022:\u0022565727cf-4bf2-5ec9-1568-71d4cc86bee6\u0022,\u0022source\u0022:\u0022record\u0022,\u0022type\u0022:\u0022Microsoft.MockPublisher.TestEvent\u0022,\u0022time\u0022:\u00222020-08-02T12:22:41.9982765-05:00\u0022,\u0022specversion\u0022:\u00221.0\u0022,\u0022subject\u0022:\u0022Subject-2\u0022},{\u0022id\u0022:\u0022b5192a38-e37f-ef39-56b1-4afcaf130317\u0022,\u0022source\u0022:\u0022record\u0022,\u0022type\u0022:\u0022Microsoft.MockPublisher.TestEvent\u0022,\u0022time\u0022:\u00222020-08-02T12:22:41.9982765-05:00\u0022,\u0022specversion\u0022:\u00221.0\u0022,\u0022subject\u0022:\u0022Subject-3\u0022},{\u0022id\u0022:\u00221167bef9-9e6a-7670-47c2-e9d44074c775\u0022,\u0022source\u0022:\u0022record\u0022,\u0022type\u0022:\u0022Microsoft.MockPublisher.TestEvent\u0022,\u0022time\u0022:\u00222020-08-02T12:22:41.9982765-05:00\u0022,\u0022specversion\u0022:\u00221.0\u0022,\u0022subject\u0022:\u0022Subject-4\u0022},{\u0022id\u0022:\u002295ba9421-047b-ec47-ee68-004100cdaf01\u0022,\u0022source\u0022:\u0022record\u0022,\u0022type\u0022:\u0022Microsoft.MockPublisher.TestEvent\u0022,\u0022time\u0022:\u00222020-08-02T12:22:41.9982765-05:00\u0022,\u0022specversion\u0022:\u00221.0\u0022,\u0022subject\u0022:\u0022Subject-5\u0022},{\u0022id\u0022:\u00220edb5a64-ad1e-9a7c-b9a2-6ebcf964aee2\u0022,\u0022source\u0022:\u0022record\u0022,\u0022type\u0022:\u0022Microsoft.MockPublisher.TestEvent\u0022,\u0022time\u0022:\u00222020-08-02T12:22:41.9982765-05:00\u0022,\u0022specversion\u0022:\u00221.0\u0022,\u0022subject\u0022:\u0022Subject-6\u0022},{\u0022id\u0022:\u00221bdad5ea-6e59-f59c-767a-23029d2f757a\u0022,\u0022source\u0022:\u0022record\u0022,\u0022type\u0022:\u0022Microsoft.MockPublisher.TestEvent\u0022,\u0022time\u0022:\u00222020-08-02T12:22:41.9982765-05:00\u0022,\u0022specversion\u0022:\u00221.0\u0022,\u0022subject\u0022:\u0022Subject-7\u0022},{\u0022id\u0022:\u0022e66fe813-b898-7456-1820-dcd8958af289\u0022,\u0022source\u0022:\u0022record\u0022,\u0022type\u0022:\u0022Microsoft.MockPublisher.TestEvent\u0022,\u0022time\u0022:\u00222020-08-02T12:22:41.9982765-05:00\u0022,\u0022specversion\u0022:\u00221.0\u0022,\u0022subject\u0022:\u0022Subject-8\u0022},{\u0022id\u0022:\u00222b561eb9-93f2-f5a8-bee6-97a48a7afc89\u0022,\u0022source\u0022:\u0022record\u0022,\u0022type\u0022:\u0022Microsoft.MockPublisher.TestEvent\u0022,\u0022time\u0022:\u00222020-08-02T12:22:41.9982765-05:00\u0022,\u0022specversion\u0022:\u00221.0\u0022,\u0022subject\u0022:\u0022Subject-9\u0022}]",
      "StatusCode": 200,
      "ResponseHeaders": {
        "api-supported-versions": "2018-01-01",
        "Content-Length": "0",
        "Date": "Sun, 02 Aug 2020 17:22:42 GMT",
        "Server": "Microsoft-HTTPAPI/2.0",
        "Strict-Transport-Security": "max-age=31536000; includeSubDomains",
        "x-ms-request-id": "ccc8acb9-1a50-4a03-877e-3f073c339d1e"
      },
      "ResponseBody": []
    }
  ],
  "Variables": {
    "DateTimeOffsetNow": "2020-08-02T12:22:41.9982765-05:00",
    "EVENT_GRID_CLOUD_EVENT_TOPIC_ENDPOINT": "https://t-kerlee-cloudevent-topic.westus-1.eventgrid.azure.net/api/events",
    "EVENT_GRID_CLOUD_EVENT_TOPIC_KEY": "Kg==",
    "RandomSeed": "1484171398"
  }
}